**********************************
Introduction to Python programming
**********************************

Built-in Python types
======================

.. index::
   single: built-in types

The Python interpreter has the following built-in data types:

.. tabularcolumns:: | l | l | p {6cm} |

+----------------+----------------+---------------------------+
| Type category  |   Type name    |        Description        |
+================+================+===========================+
| None           | Types.NoneType | None object (null)        |
+----------------+----------------+---------------------------+
| numbers        | bool           | True or False (Boolean)   |
+----------------+----------------+---------------------------+
|                | int            | Integer number            |
+----------------+----------------+---------------------------+
|                | float          | Floating point number     |
+----------------+----------------+---------------------------+
|                | complex        | Complex number            |
+----------------+----------------+---------------------------+
| sets           | set            | Mutable set               |
+----------------+----------------+---------------------------+
|                | frozenset      | Invariant set             |
+----------------+----------------+---------------------------+
| sequences      | str            | Character string          |
+----------------+----------------+---------------------------+
|                | list           | List                      |
+----------------+----------------+---------------------------+
|                | tuple          | Tuple                     |
+----------------+----------------+---------------------------+
|                | bytes          | Byte sequence             |
+----------------+----------------+---------------------------+
| mappings       | dict           | Dictionary                |
+----------------+----------------+---------------------------+
| files          | file           | File                      |
+----------------+----------------+---------------------------+

In Python, variables have no type - the values ​​indicated by variables have that type.
To check what type is the value indicated by a variable, use the function ``type()``::

  >>> numbers = [1,2,3]

  >>> type(numbers)
  <type 'list'>

  >>> type(numbers) == list
  True


The basics of Python syntax
===========================

Comments
--------

Comments in Python are marked with a hash (``#``)::

  # Entire comment line
  x = 1 # Short comment: assign value 1 to variable x


Variables and assignments
-------------------------

Since Python is a dynamically-typed language, variables types don't need to be
specified type at the time of declaration. A variable with the specified name may point to
objects of different types:

  >>> var = 'text'
  >>> var
  'text'
  >>> var = 1
  >>> var
  1

Removing a variable is done with the ``del`` statement ::

  >>> del var
  var
  Traceback (most recent call last):
    File "<console>", line 1, in <module>
  NameError: name 'var' is not defined


Operators
---------

Arithmetic operators
^^^^^^^^^^^^^^^^^^^^^^

.. index::
   single: arithmetic operators

.. tabularcolumns:: | l | p {11cm} |

+------------+-------------------------------------------------------------------+
| Syntax     | Description                                                       |
+============+===================================================================+
| ``x + y``  | Adds the numbers x and y.                                         |
+------------+-------------------------------------------------------------------+
| ``x - y``  | Subtracts y from x.                                               |
+------------+-------------------------------------------------------------------+
| ``x * y``  | Multiplies x by y.                                                |
+------------+-------------------------------------------------------------------+
| ``x / y``  | Divides x by y. The result is a floating point number,            |
|            | even if both operands are integers.                               |
+------------+-------------------------------------------------------------------+
| ``x // y`` | Division with no decimal point.                                   |
|            | The result is always an integer.                                  |
+------------+-------------------------------------------------------------------+
| ``x % y``  | Calculates the remainder of dividing (modulus) x by y.            |
+------------+-------------------------------------------------------------------+
| ``x ** y`` | Raises x to the y power.                                          |
+------------+-------------------------------------------------------------------+
| ``-x``     | Changes the sign of x if it is nonzero.                           |
|            | If x is zero, the operator does nothing.                          |
+------------+-------------------------------------------------------------------+

::

  >>> a, b, c = 5.3, 2.0, 1.0
  >>> a / b
  2.65
  >>> a // b
  2.0
  >>> a % b
  1.3
  >>> a * b
  10.6

Short operators: ``+=``, ``-=``, ``*=``, ``/=``, etc.

::

  >>> a = 5
  >>> a += 8
  13

Comparison operators
^^^^^^^^^^^^^^^^^^^^

.. index::
   single: comparison operators

.. tabularcolumns:: | l | p {6cm} |

+------------+--------------------------+
| Syntax     | Description              |
+============+==========================+
| ``x < y``  | Minority sign            |
+------------+--------------------------+
| ``x <= y`` | Less than or equal to    |
+------------+--------------------------+
| ``x > y``  | Majority sign            |
+------------+--------------------------+
| ``x >= y`` | Greater than or equal to |
+------------+--------------------------+
| ``x == y`` | Equal sign               |
+------------+--------------------------+
| ``x != y`` | Different from           |
+------------+--------------------------+

::

  >>> a, b, c = 5.3, 2.0, 1.0
  >>> a > b
  True
  >>> a == b
  False
  >>> a != b
  True

Logical operators
^^^^^^^^^^^^^^^^^^

.. index::
   single: logical operators

Python provides three logical operators:
 * ``and`` - conjunction
 * ``or`` - alternative
 * ``not`` - negation


::

  >>> t = True
  >>> f = False
  >>> t2 = True
  >>> t and f
  False
  >>> t and t2
  True
  >>> not f
  True

Bitwise operators
^^^^^^^^^^^^^^^^^

.. index::
   single: bitwise operators

.. tabularcolumns:: | l | p {11cm} |

+------------+------------------------------------------------------------------------------+
| Syntax     | Description                                                                  |
+============+==============================================================================+
| ``i | j``  | Bitwise OR for the numbers int i and int j.                                  |
+------------+------------------------------------------------------------------------------+
| ``i ^ j``  | Bitwise XOR (exclusive OR) of i and j.                                       |
+------------+------------------------------------------------------------------------------+
| ``i & j``  | Bitwise AND of numbers i and j.                                              |
+------------+------------------------------------------------------------------------------+
| ``i << j`` | Shift i left by j bits.                                                      |
+------------+------------------------------------------------------------------------------+
| ``i >> j`` | Shift i to the right by j bits.                                              |
+------------+------------------------------------------------------------------------------+
| ``~i``     | Invert bits i.                                                               |
+------------+------------------------------------------------------------------------------+

Using code indentation
----------------------

.. index::
   single: code indentation

Code blocks are marked with line indentation. The number of spaces in an indentation can vary, but all statements within a block must be indented the same amount.

Both blocks in the first example are valid:

.. code-block:: python

  if True:
      print("True")
  else:
    print("False")

The second block in the second example will generate an error:

.. code-block:: python

  if True:
      print("Reply")
      print("True")
  else:
      print("Reply")
    print("False")


Character strings
-----------------

.. index::
   single: strings

Normal Python strings are created by enclosing the text in single quotes (``'``) or
quotation marks (``"``). The same delimiter should start and end the string. You can also
use a triple quoted string using three quoting characters - three
single quotation marks (``'''``) or three double quotes (``"""``). ::

  word = 'word'
  sentence = "This is a sentence."
  paragraph = """This is a paragraph. It consists of several lines and sentences."""

If you want to use a different string within a plain string, you must restrict each string to other characters.
Otherwise, you will have to change the meaning of the delimiters. ::

  sentence1 = "We use 'single quote', \" double quote \"preceded by a forward slash"
  sentence2 = 'The \'apostrophe\' characters are preceded by a forward slash and "quotation marks" are not'

Formatting strings
^^^^^^^^^^^^^^^^^^

Strings can be formatted using a predefined format string with a list of variables. ::

  >>> letter = """Dear Mr. %s, \n
  ... Thank you for sending us your %s. \n
  ... We will contact you in% d of the year. """
  >>> print (letter % ("Kovalsky", "CV", 2010))
  Dear Mr. Kovalsky,
  Thank you for sending us your CV.
  We will contact you in 2010.
  >>> record = " %s | %s | %s | %08d"
  >>> print (record % ("Guido", "van Rossum", "Dutch", 1956))
  Guido | van Rossum | Dutch | 00001956

Conversion Specifier Format:

``% [(dictionary key)][conversion flag][min. width][precision][conversion type]``

.. tabularcolumns:: | l | l |

+-----------------+-----------------------------------------+
| Conversion flag | Meaning                                 |
+=================+=========================================+
| ``0``           | Padding the field width with zeros      |
+-----------------+-----------------------------------------+
| ``-``           | Justify left                            |
+-----------------+-----------------------------------------+
| ``(space)``     | Insert a space before a positive number |
+-----------------+-----------------------------------------+
| ``+``           | Insert a sign before the number         |
+-----------------+-----------------------------------------+

.. tabularcolumns:: | l | l |

+-----------------+---------------------------------------------------+
| Conversion type | Meaning                                           |
+=================+===================================================+
| ``s``           | string or unicode                                 |
+-----------------+---------------------------------------------------+
| ``d``           | Integer                                           |
+-----------------+---------------------------------------------------+
| ``f, F``        | Floating point number                             |
+-----------------+---------------------------------------------------+
| ``E, E``        | An exponential floating point number              |
+-----------------+---------------------------------------------------+
| ``x, X``        | Hexadecimal number                                |
+-----------------+---------------------------------------------------+
| ``O``           | Octal number                                      |
+-----------------+---------------------------------------------------+

Example::

  >>> "%+10.3f" % (3.14)
  '    +3.140'
  >>> "%x" % 255
  'ff'

.. py:function:: format(*args, **kwargs)

  In Python 3.0, the '%' operator has been replaced with a much more powerful formatting method
  strings, ``format ()``.
  Support for ``str.format()`` has been ported to Python 2.6.
  Both 8-bit and Unicode strings now have a ``format()`` method that takes the string as a pattern and takes arguments to format it.
  The pattern uses the braces ``{}`` as special characters.

::

  >>> # Substitute the argument with the number 0
  >>> "User ID: {0}".format("root")
  'User ID: root'
  >>> # Use named arguments
  >>> "ID: {id} Last seen: {login}".format(id="root", login="5/03/2012")
  'ID: root Last seen: 5/03/2012'

Conditional code execution
==========================

The ``if``, ``else``, and ``elif`` statements
---------------------------------------------

.. code-block:: python

  if x:
      print("x is true")
  elif y:
      print("x is false and y is true")
  else:
      print("both are false")

All values ​​in Python can be represented by boolean values, regardless of their type.
An expression takes the value ``False`` if it is a predefined constant ``False``, a special object ``None``, an empty sequence, a collection (for example, an empty string, list or tuple) or a numeric data type with the value ``0``.
Everything else is considered ``True``::

  >>> bool(-1.23)
  True
  >>> bool(0)
  False
  >>> bool([])
  False
  >>> bool([0, 0, 0])
  True

The ``else`` clause is optional.

Conditional expression
----------------------

Writing with the conditional statement ``if/else``::

  if condition:
      x = true_value
  else:
      x = false_value

can be shortened with the conditional expression::

  x = true_value if condition else false_value

Example::

  >>> var = None
  >>> print([] if var is None else var)
  []
  >>> var = [1, 2, 3]
  >>> print([] if var is None else var)
  [1, 2, 3]

Loops
=====

``While`` statement
-------------------

Conditional loop.

.. code-block:: python

    ans = input('>>>')
    while ans != 'q':
        print(ans)
        ans = input('>>>')

.. code-block:: pycon

    >>> text
    text
    >>> q

For statement
--------------

Loop is operating on sequences. ::

  for variable in iteration:
      package

The part *variable* is sequentially assigned a reference to each object in part *iteration*.
This iteration is any data type that can be traversed, including text strings, lists, tuples, and other collections of Python data types.

Example 1 - using a string:

  >>> word = "Python"
  >>> characters = []
  >>> for character in word:
  ... characters.append(character)
  ...
  >>> characters
  ['P', 'y', 't', 'h', 'o', 'n']

Example 2 - using the ``range()`` function ::

  >>> for i in range(len(characters)):
  ... print(i, characters [i])
  ...
  0 P
  1 y
  2 t
  3 h
  4 o
  5 n

Example 3 - using the ``enumerate()`` function ::

  >>> for i, character in enumerate(string):
  ... print(i, characters [i])
  ...
  0 P
  1 y
  2 t
  3 h
  4 sts
  5 n

Example 4 - using a dictionary:

  >>> d = {'one': 1, 'two': 2}
  >>> for key in d:
  ... print(key, '=', d [key])
  ...
  one = 1
  two = 2

Example 5. Using the function ``zip()`` which of two or more sequences produces a list of tuples:

  >>> first_names = ['John', 'Alice']
  >>> family_names = ['Smith', 'Johnson']
  >>> list(zip (first_names, family_names))
  [('John', 'Smith'), ('Alice', 'Johnson')]
  >>> # List used in for loop
  >>> for first_name, family_name in zip(first_names, family_names):
  ... print(first_name, family_name)
  ...
  John Smith
  Alice Johnson

The statements ``break`` and ``continue``
-----------------------------------------

``break``
  break execution and exit the current loop

``continue``
  break the execution of the current iteration and start the next iteration of the current loop

.. code-block:: python

    while True:
        ans = input('>>>')
        if ans == 'q':
            break
        elif ans == '':
            continue
        else:
            print(eval(ans))

.. code-block:: pycon

    >>>
    >>> 2 + 2
    4
    >>> q

``For-else`` statement
----------------------

In Python, you can use the ``else`` statement in a for loop.
The block following ``else`` will execute if there is no break statement inside the ``for`` loop.

So code

.. code-block:: python

  broke_out = False
  for x in seq:
      do_something(x)
      if condition(x):
          broke_out = True
          break
      do_something_else(x)
  if not broke_out:
      print("I didn't break out")

can be replaced with a code

.. code-block:: python

  for x in seq:
      do_something(x)
      if condition(x):
          break
      do_something_else(x)
  else:
      print("I didn't break out")

E.g

.. code-block:: pycon

    >>> numbers = [2, 3, 4]
    >>> for number in numbers:
    ...     if number < 0:
    ...         print('Negative number found:', number)
    ...         break
    ...     else:
    ...         print('No negative number found.')
    ...
    No negative number found.

Error handling
==============

If an unhandled exception is thrown while the program is running, Python will stop executing the program and display information about the most recent calls. ::

  >>> 10 * (1/0)
  Traceback (most recent call last):
    File "<stdin>", line 1, in ?
  ZeroDivisionError: integer division or modulo by zero
  >>> 4 + spam*3
  Traceback (most recent call last):
    File "<stdin>", line 1, in ?
  NameError: name 'spam' is not defined
  >>> '2' + 2
  Traceback (most recent call last):
    File "<stdin>", line 1, in ?
  TypeError: cannot concatenate 'str' and 'int' objects

Information about recent calls (*backtraces*) should be read from the last line to the first.
The last line lists the unhandled exception that was thrown.
Above is the file name, line number, function name, and line that caused the exception to be thrown.

Error handling is done by using exceptions, which are placed in ``try`` blocks and handled in ``except`` blocks.
If an error is encountered, the execution of code in the ``try`` block is stopped. Then the execution is continued in the ``except`` block. ::

  >>> while True:
  ...     try:
  ...         x = int(input("Please enter a number: "))
  ...         break
  ...     except ValueError as error:
  ...         print("Oops!", error, "Try again...")

The exception type value corresponds to either built-in exceptions or a self-defined exception object.
The value of ``error`` is the variable that catches the data returned by the exception.
The ``try`` block also supports using an ``else`` block after the last ``except`` block.
The ``else`` block is executed if the ``try`` block exits without receiving an exception. ::

  >>> try:
  ...     f = open("file.txt", 'r')
  ... except IOError as error:
  ...     print(error)
  ... else:
  ...     print('file.txt has', len(f.readlines()), 'lines')
  ...     f.close()

An except block can handle many types of exceptions: ::

  ... except (RuntimeError, TypeError, NameError):
  ... pass

Basic error types
-----------------

========================= ===================================================
 Type                     Description
========================= ===================================================
``Exception``             The base class for all error description classes
``KeyError``              Attempting to use a non-existent key in a dictionary
``ValueError``            Search in a list of a value that does not exist
``AttributeError``        Calling a nonexistent object method
``NameError``             Use of a nonexistent variable
``TypeError``             Mixing of incompatible data types
``IOError``               I/O operation failed
``ZeroDivisionError``     Divide by zero error
``SyntaxError``           Syntax error
``IndexError``            A reference to a nonexistent sequence index
========================= ===================================================

Raising exceptions
------------------

Exceptions can be raised using the ``raise`` statement.

.. code-block:: pycon

    >>> raise NameError('HiThere')
    Traceback (most recent call last):
      File "<stdin>", line 1, in ?
    NameError: HiThere

The ``finally`` block is used to clean up resources when an emergency is reported.

.. code-block:: pycon

    >>> try:
    ...     raise KeyboardInterrupt
    ... finally:
    ...     print('Clean-up!')

    Clean-up!
    Traceback (most recent call last):
      File "<stdin>", line 2, in ?
    KeyboardInterrupt

Full exception handling syntax
------------------------------

.. code-block:: python

    try:
        do_this()
    except OneExceptionType:
        do_if_OneExceptionType()
    except AnotherExceptionType as ex:
        do_if_AnotherExceptionType(ex)
    else:
        do_if_no_exception()
    finally:
        always_do()

Functions
=========

.. index::
   single: functions

Definition and use of functions

.. code-block:: python

    def reminder(a, b):
        """Returns the remainder from the division a / b"""
        q = a // b
        r = a - q * b
        return r

::

    >>> # Use a function
    >>> a = reminder(42, 5) # a = 2
    >>> print a
    2
    >>> print reminder.__doc__
    Returns the remainder of a / b

Functions can return multiple values. Return values ​​are packed into a tuple.

.. code-block:: python

    def divide(a, b):
        q = a / b
        r = a - q * b
        return q, r

    x, y = divide(42.5) # x = 8, y = 2

Defining function parameters and methods of calling:

.. code-block:: python

    def generate_signature (name, location, year = 2009):
        print ("{} / {} / {}". format (name, location, year))

::

    >>> generate_signature ("Robert", "Krakow")
    Robert / Krakow / 2009
    >>> generate_signature (location="Berlin", year=2004, name="Anna")
    Anna / Berlin / 2004
    >>> generate_signature ("Artur", year=2005, location="Toronto")
    Artur / Toronto / 2005

Parameters can also be passed as:
    * Tuple - using the syntax from ``*``
    * Dictionary - using the syntax from ``**``

::

    >>> tuple = ("Edward", "Cologne", 2003)
    >>> generate_signature(*tuple)
    Edward / Cologne / 2003
    >>> dictionary = {"name": "Zenon", "location": "Gdynia", "year": 1999}
    >>> generate_signature (**dictionary)
    Zenon / Gdynia / 1999

The ``lambda`` operator
-----------------------

.. index::
   double: lambda operator; lambda

The lambda operator allows you to create *anonymous functions*.

Syntax: ``lambda <args>: <expression>``

::

    >>> bigger = lambda a, b: a > b
    >>> bigger(1, 2)
    False
    >>> bigger(2, 1)
    True

Collections
===========

Sequential types
----------------

Sequence types in Python are **iterable**.
Objects can be viewed item by item (e.g. in a ``for`` loop).
Sequences also allow any element to be accessed using the index operation ``[]``.

The basic sequence types are:
 - ``str``
 - ``letter``
 - ``tuple``

List
----

.. index::
   single: list

``List``
  an ordered collection of objects

* The list can grow dynamically to support adding new objects
* Lists can store objects of different types
* List items are accessed using an index that starts at zero and is a non-negative integer

Defining the list
^^^^^^^^^^^^^^^^^

Defining a Python list is done by assigning a number of Python objects to a variable using the operator ``=``.
The abovementioned list must be enclosed in square brackets and can contain any Python objects.
It is possible to create both homogeneous and heterogeneous lists.
An empty list is defined as ``[]``.

Example:

.. code-block:: python

  empty_list = [] # Empty list
  num_list = [2000, 2003, 2005, 2006]
  string_list = ["Important", "code", "Python"]
  mixed_list = [1, 2, "three", 4]
  sub_list = ["Python", "InfoTraining", ["Training", 2017]]
  list_list = [num_list, string_list, mixed_list, sub_list]

  for x in list_list:
      for y in x:
          if isinstance(y, int):
              print (y + 1)
          if isinstance(y, str):
              print ("String:" + y)

::

  2001
  2004
  2006
  2007
  Character string: Important
  Character string: code
  Character string: Python
  2
  3
  Character string: three
  5
  Character string: Python
  Character string: InfoTraining

Accessing the list
^^^^^^^^^^^^^^^^^^

The elements of the list are accessed using a zero-based index.
Python allows you to use negative indexes to access a list from the end instead of the beginning.
If the list item is also a list, its items are accessed by appending index brackets to the end, similar to accessing items in a multidimensional array.

.. code-block:: python

    # All elements
    for x in num_list:
        print(x + 1)

    # Some items
    print(string_list [0] + ' ' + string_list [1] + ' ' + string_list [2])

    # Negative indices
    print(string_list[-2])

    # Access to items from sublists
    if isinstance(sub_list, list):
        print(sub_list[2][0])

::

    2001
    2004
    2006
    2007
    Important Python code
    code
    Released

List length
^^^^^^^^^^^

.. py:function:: len (sequence)

   The number of items stored in the list is returned using the built-in function ``len``.

.. code-block:: pycon

    >>> num_list = [2000, 2003, 2005, 2006]
    >>> len(num_list)
    4
    >>> empty_list = []
    >>> len(empty_list)
    0

Adding and removing list items
^^^^^^^^^^^^^^^^^^^^^^^^^^^^^^

.. py:function:: append(item)

  this method takes a single item as the only parameter and adds it to the list's end. An item can be any Python object, including any other list. If you specify a list as a parameter, the entire list is added as a single element of the current list.

.. py:function:: extend(list)

  simultaneous addition of several items stored in another list of lists. This method only takes a list as an argument. Each item of the new list will be added as a separate item to the old list.

.. code-block:: pycon

    >>> numbers = ["Three"]
    >>> numbers.append("Four")
    >>> numbers.extend(["Five", "Six"])
    >>> numbers
    ['Three', 'Four', 'Five', 'Six']

You can also add one or more lists to an existing list by using the ``+=`` operator. ::

    numbers += ['Seven', 'Eight']

.. py:function:: insert(index, item)

  the method takes a single item object as its second parameter and inserts it into the list at the index specified in the first argument.

.. py:function:: pop(index)

  the method removes the element with index *index*.

.. py:function:: remove(item)

  the method searches the list and removes the first item element found.

.. code-block:: pycon

    >>> numbers.insert(2, "Two and 1/2")
    >>> print (numbers.pop(2))
    Two and 1/2
    >>> numbers.remove("Five")
    >>> numbers.remove("Six")
    >>> numbers
    ['Three', 'Four', 'Seven', 'Eight']

Sorting the list
^^^^^^^^^^^^^^^^

.. py:function:: sort(key=None, reverse=False)

  method of sorting list items by value (in-place).
  The sort method can take an argument named ``key`` that is a function.
  This function should take one argument that will be used to create the key for each list object.
  Those keys will be used to sort the list instead of the values ​​of the objects.

Reverse sorting is possible by setting the ``reverse`` argument:

- reverse is ``Boolean`` type
- set to ``True`` - list sorted in reverse order
- the ``reverse`` argument may be used together with the ``key`` function

.. py:function:: reverse()

  method used to reverse the order of list items without sorting them.

::

    names.reverse()
    names.sort(reverse=True)

Example:

.. code-block:: pycon

    >>> names = ["ala", "Ola", "Zenon", "Artur", "beata", "Grzegorz"]
    >>> names
    ['ala', 'Ola', 'Zenon', 'Artur', 'beata', 'Grzegorz']

Case-sensitive sort:

.. code-block:: pycon

    >>> names.sort()
    >>> names
    ['ala', 'Ola', 'Zenon', 'Artur', 'beata', 'Grzegorz']

Case-insensitive sort:

.. code-block:: pycon

    >>> names.sort(key=str.upper)
    >>> names
    ['ala', 'Artur', 'beata', 'Grzegorz', 'Ola', 'Zenon']

Sorting descending by name length:

.. code-block:: pycon

    >>> names.sort(reverse=True, key=len)
    >>> names
    ['Grzegorz', 'Artur', 'beata', 'Zenon', 'ala', 'Ola']

Reverse order:

.. code-block:: pycon

    >>> names.reverse()
    >>> names
    ['Ola', 'ala', 'Zenon', 'beata', 'Artur', 'Grzegorz']

Other list methods
^^^^^^^^^^^^^^^^^^

.. py:function:: count(value)

  Returns the number of occurrences of the given value in the list

.. py:function:: index(value)

  Returns the index of the given value in the list. If the value is not in the list, a ``ValueError`` exception is raised

.. py:function:: insert(pos, value)

  Inserts the ``value`` in front of the element with index ``pos``

List clipping
^^^^^^^^^^^^^

.. index::
   single: slice

*Slice* - a subset of the list

- A slice is obtained by referencing a list and specifying two comma-separated indices that refer to items between the indices rather than a single index
- The first number corresponds to the list item with which to start, and the second number refers to the item with which to end

.. code-block:: python

    firstHalf = monthList[:halfCount]
    secondHalf = monthList[halfCount:]
    wordCount = len(firstHalf)
    middleStart = wordCount/2
    middleHalf = monthList[middleStart:middleStart+halfCount]

Slices are returned as list types, and access and assignment are performed in the same way.
Python allows you to use negative indexes for backward indexing when extracting slices.

Example:

.. code-block:: python

    monthList = ["January", "February", "March", \
                 "April", "May", "June", "July", \
                 "August September October",\
                 "November", "December"]
    wordCount = len(monthList)
    halfCount = wordCount/2
    # Initial clipping
    firstHalf = monthList[:halfCount]
    print(firstHalf)
    # End clipping
    secondHalf = monthList[halfCount:]
    print(secondHalf)
    # Center clipping
    wordCount = len(firstHalf)
    middleStart = wordCount/2
    middleHalf = monthList[middleStart:\
        middleStart + halfCount]
    print(middleHalf)
    # Negative indices
    print(monthList[-5:-1])
    # Every nth item in the list
    print(monthList[0:12:3])

::

    ['January February March April May June']
    ['July August September October November December']
    ['April', 'May', 'June', 'July', 'August', 'September']
    ['August', 'September', 'October', 'November']

Operator ``in``
^^^^^^^^^^^^^^^

.. index::
   single: in operator

Sequential types (list, tuple, string, etc.) allows the usage of membership operators: ``in`` or ``not in``.

.. code-block:: pycon

    >>> monthList = ["January", "February", "March", "April", "May", "June"]
    >>> "February" in monthList
    True
    >>> "July" not in monthList
    True

Tuple
-----

.. index::
   single: tuple

**tuple**

* An ordered collection of objects based on indexes
* Read-only version of the list

::

    hexStringChars = ('A', 'B', 'C', 'D', 'E', 'F')
    hexStringNums = ('1', '2', '3', '4', '5', '6', '7', '8', '9', '0')

Tuple and the list
^^^^^^^^^^^^^^^^^^

1. Tuple is **immutable**. Items cannot be added to or removed from it. The data it contains will remain static.
2. A tuple is defined similarly to a list but enclosed in regular brackets, not square brackets.
3. Tuple is faster than the list in terms of access and use.
4. The tuple can be used as the key for dictionaries, and the list cannot.
5. ``list(tuple)`` - function that converts a tuple into a list.
6. ``tuple(list)`` - function that converts the list into a tuple.

Using Tuples
^^^^^^^^^^^^

Example:

.. code-block:: python

    hexStringChars = ('A', 'B', 'C', 'D', 'E', 'F')
    hexStringNums = ('1', '2', '3', '4', '5', '6', '7', '8', '9', '0')
    hexStrings = ["1FC", "1FG", "222", "Ten"]

    for hexString in hexStrings:
        for x in hexString:
            if ((not x in hexStringChars) and (not x in hexStringNums)):
                print (hexString + "is not a hexadecimal string.")
                break

    # Convert a tuple to a list
    tupleList = list(hexStringChars)
    print(tupleList)

    # Convert a list to a tuple
    listTuple = tuple(hexStrings)
    print(listTuple)

::

    1FG is not a hexadecimal string.
    Ten is not a hexadecimal string.
    ['A', 'B', 'C', 'D', 'E', 'F']
    ("1FC", "1FG", "222", "Ten")


Dictionary
----------

**Dictionary** - an unordered set of pairs of objects

* A pair consists of a *key* object and a *value* object
* The key is used to look up the value of the second object
* Dictionary behaves similar to hash table
* Access to the dictionary can be done using indexing methods

Create a dictionary
^^^^^^^^^^^^^^^^^^^

Creating a dictionary is done by assigning a group of values ​​together with the corresponding keys to a variable.
The values ​​can be any Python object. Keys must be a number, a string, or an immutable tuple.

::

  >>> numberDict = {1: 'one', 2: 'two', 3: 'three', 4: 'four'}
  >>> numberDict[1]
  'once'
  >>> numberDict[3]
  'three'

Relations in dictionaries
^^^^^^^^^^^^^^^^^^^^^^^^^

- Simple dictionaries consist of a one-to-one relationship between keys and values.
- A one-to-many relationship can be obtained by using list objects as values ​​in a dictionary.
- A many-to-many relationship is obtained by using tuples as keys and lists as dictionary values.

Example:

.. code-block:: python

  # Dictionary - 1-1
  numberDict = {1:'one', 2:'two', 3:'three', 4:'four'}

  # Dictionary 1-N
  phoneBook = { 'Arthur' : ['22-222-21-12', '606-32-23-11'],
                'Roger' : ['22-111-22-22', '502-455-44-44', '888-122-44-44'] }

  # Dictionary N-M
  numbers = (1,2,3,4,5,6,7,8,9,0)
  letters = ('a','b','c','d','e','f')
  punct = ('.', '!', '?')
  charSetDict = { numbers : [], letters : [], punct : [] }

Adding values to the dictionary
^^^^^^^^^^^^^^^^^^^^^^^^^^^^^^^

- To add a value to the dictionary you need to provide a key that will correspond to a specific value.
- If the selected key does not yet exist in the dictionary, it will be added to it and then assigned a value.
- If the key already exists, the value currently assigned to it will be replaced with the new value object.
- The type of the value object and the key do not have to match and you can replace the value with a new object of any type at any time.
- The dictionary keys are case sensitive.

Example::

  >>> phonebook = {'jack': 4098, 'sape': 4139}
  >>> phonebook ['guido'] = 4127
  >>> phonebook
  {'sape': 4139, 'guido': 4127, 'jack': 4098}
  >>> phonebook['jack'] 4098
  >>> del phonebook['sape']
  >>> phonebook['irv'] = 4127
  >>> phonebook
  {'guido': 4127, 'irv': 4127, 'jack': 4098}
  >>> phonebook.keys()
  ['guido', 'irv', 'jack']
  >>> 'guido' in phonebook
  True

Getting values from a dictionary
^^^^^^^^^^^^^^^^^^^^^^^^^^^^^^^^

Direct access to a value using the associated key in square brackets ``[]`` following a dictionary variable.

.. py:function:: get(key, [d=None])

  returns the value associated with the key. If the key does not exist, it returns d.

.. py:function:: values​()

  returns a list of objects that are dictionary values.

.. py:function:: keys()

  returns a list of objects that are used as keys.

.. py:function:: items()

  the method returns a list containing two-element tuples for each pair of keys and values ​​in the dictionary.

::

  >>> phonebook = {'sape': 4139, 'guido': 4127, 'jack': 4098}
  >>> phonebook.get('john', 'unknown')
  'unknown'
  >>> phonebook.values​​()
   [4139, 4098, 4127]
  >>> phonebook.keys()
   ['sape', 'jack', 'guido']
  >>> phonebook.items()
   [('sape', 4139), ('jack', 4098), ('guido', 4127)]

Other methods
^^^^^^^^^^^^^

.. py:function:: clear()

  Removes all entries from the dictionary

.. py:function:: copy()

  Returns a shallow copy of the dictionary

.. py:function:: fromkeys([key1, key2, ...])

  Creates a new dictionary with the keys listed in the list passed as an argument. The values ​​are set to 'None'

.. py:function:: pop(key)

  Reads the value associated with the key `key` and then removes the entry from the dictionary

.. py:function:: setdefault(key, default)

  Inserts a value into the dictionary, unless it has an entry with the specified key

.. py:function:: update(d)

  Merge two dictionaries; entries in the current dictionary are updated with entries in the dictionary ``d``

Iterating through dictionaries
^^^^^^^^^^^^^^^^^^^^^^^^^^^^^^

.. py:function:: items()

  When iterating through the dictionary, key-value pairs may be accessed using the ``items()`` method


.. code-block:: pycon

  >>> knights = {'gallahad': 'the pure', 'robin': 'the brave'}
  >>> for k, v in knights.items():
  ... print(k, v)
  ...
  gallahad the pure
  robin the brave


Dictionary clipping
^^^^^^^^^^^^^^^^^^^

We use the ``.keys()`` method to get a list of keys and create a subset of the list from the list of keys by cutting or other operations.
If we have a specific subset of dictionary keys, we can take the original dictionary's values and add them to the new dictionary.

Example:

.. code-block:: python

    year = {1: 'January', 2: 'February', 3: 'March', 4: 'April', \
            5: 'May', 6: 'June', 7: 'July', 8: 'August', \
            9: 'September', 10: 'October', 11: 'November', \
            12: 'December'}

    print (year)

    # Receipt of key list
    months = year.keys()

    # Create a subset of keys
    months.sort()
    halfCount = len(months)/2
    half = months[0:halfCount]

    # Create a new dictionary from a subset of keys
    firstHalf = {}
    for x in half:
        firstHalf[x] = year[x]

    print(firstHalf)

::

    {1: 'January', 2: 'February', 3: 'March', 4: 'April', 5: 'May',
    6: 'June', 7: 'July', 8: 'August', 9: 'September', 10: 'October',
    11: 'November', 12: 'December'}
    {1: 'January', 2: 'February', 3: 'March', 4: 'April', 5: 'May',
    6: 'June'}

Convert keys to values in the dictionary
^^^^^^^^^^^^^^^^^^^^^^^^^^^^^^^^^^^^^^^^

To replace keys with values ​​in a dictionary, iterate through the dictionary elements using the ``items()`` method, then use the values ​​as keys and assign them the original keys as values.
Values ​​must be types that can be keys in Python.

Example:

.. code-block:: python

    myDictionary = {
        'blue color',
        'speed': 'fast',
        'number': 1,
        5: 'number',
    }
    print (myDictionary)

    # Swap keys with values
    swapDictionary = {}
    for key, val in myDictionary.items():
       swapDictionary[val] = key

    print(swapDictionary)

::

    {'color': 'blue', 'speed': 'fast', 'number': 1, 5: 'number'}
    {'blue': 'color', 1: 'number', 'number': 5, 'fast': 'speed'}

String operations
=================

Python strings are represented using the invariant data type ``str``, which
stores a sequence of unicode characters.

The ``str`` data type can be called as a function to create a string object:

* When called with no argument, returns an empty string.
* When called with a non-string argument, the argument is returned as a string.
* When called with a string argument, a copy of the given string is returned.

Comparing strings
-----------------

Strings can be compared with each other using simple logical operations ``<``, ``<=``, ``==``, ``! =``, ``>`` and ``>=``.
Operators compare text strings in memory, character by character.

.. code-block:: python

    cmpStr = "abc"
    upperStr = "ABC"
    if cmpStr.upper() == upperStr.upper():
        print (upperStr + "corresponds to" + cmpStr)

Useful methods for comparison:

.. py:function:: upper()

  returns a new string that consists of uppercase letters

.. py:function:: lower()

  returns a new lowercase string

.. py:function:: capitalize()

  returns a new string where the first character is uppercase

.. py:function:: swapcase()

  returns a new string that is case-reversed

Example:

.. code-block:: python

    cmpStr = "abc"
    upperStr = "ABC"
    lowerStr = "abc"
    print("Case-sensitive comparison")
    if cmpStr == lowerStr:
        print(lowerStr + "corresponds to" + cmpStr)
    if cmpStr == upperStr:
        print(upperStr + "corresponds to" + cmpStr)
    print("\nComparison without case insensitivity")
    if cmpStr.upper() == lowerStr.upper():
        print(lowerStr + "corresponds to" + cmpStr)
    if cmpStr.upper() == upperStr.upper():
        print(upperStr + "corresponds to" + cmpStr)

::

    Case sensitive comparison
    abc is abc
    Case-insensitive comparison
    abc is abc
    ABC is abc

Segmenting and navigating in string
-----------------------------------

The individual elements of the sequence and thus the individual characters in a text string can be extracted using the access operator (``[]``).
This operator can be used to extract a single element/character or an entire segment (sequence) of elements/characters. In this context, the operator becomes the slicing operator.

Extracting individual characters
^^^^^^^^^^^^^^^^^^^^^^^^^^^^^^^^

The index in the string starts at zero and goes to the string length minus one.
It is also possible to use a negative index value that indicates a position computed from the last character towards the first.
The index -1 always matches the last character in the string.

Example: index position values ​​in a string:

.. code-block:: python

  s = "Python"

.. image:: pics/strings.png
   :align: center

Assigning an index beyond the string value or any index in an empty index
string throws an ``IndexError`` exception.

String slices
^^^^^^^^^^^^^

The slicing operator has three syntaxes:

* ``sequence[start]``
* ``sequence[start:end]``
* ``sequence[start:end:step]``

Sequence stands for any sequence of characters, such as a list, text string, or tuple.
*Start*, *end*, and *step* values ​​must be integers or integer variables.
The first syntax extracts the starting element from the sequence.
The second syntax extracts the segment that starts at *start* and goes to *end*, but without that element.

* If the first index is omitted, it defaults to 0.
* If the second index is omitted, the default value is the result of calling the ``len(sequence)`` function.
* Omitting both indexes will extract (copy) the entire sequence. The call ``s[:]`` corresponds to the call ``s[0:len(s)]``.

Example:

.. image:: pics/strings_2.png
   :align: center

The third syntax fetch characters every indicated step.

* Omitting the start index causes its default value (0 for a positive step value, - 1 for a negative step value).
* If the second index is omitted, the default value is the equivalent of calling the function ``len(sequence)`` unless the step value is negative. Then the default value for the end index will be before the beginning of the string.
* If both indices and the step value are omitted, the default step value of 1 is assumed.
* It is not allowed to use a step with a value of 0.

Example:

.. image:: pics/strings_3.png
   :align: center

The example uses the default values ​​for the start and end indexes.
The command ``s[::-2]`` means starting from the last character and extracting every other character, moving towards the beginning of the string.
The ``s[::3]`` command means to start at the first character and extract every third, moving towards the end of the string.

It is also possible to combine slicing and step-moving.

.. image:: pics/strings_4.png
   :align: center

To reverse a string, we use the step ``-1``.
This allows you to extract each character from the end to the beginning of the string.

.. code-block:: python

    text = "The waxwork man"
    print (text[::-1])

::

    us krowxaw ehT

Combining strings of characters
-------------------------------

One way to insert a substring into an existing string is by joining
slicing with concatenation.

.. code-block:: python

    text = "The waxwork man"
    text = text[:12] + "wo" + text[12:]
    print (text)

    The waxwork woman

Since the segment "wo" is in the leading string, the same effect can be 
obtained by using an assignment:

.. code-block:: python

    text = text[:12] + text[7:9] + text[12:]
    print(text)

The use of the ``+`` operator for concatenation and the ``+=`` operator for appending is not an efficient method, especially for multi-string operations. It is best to use the ``str.join()`` method.

Formatting strings
------------------

Formatting the strings together is done by defining a new string z
format code %s, then adding additional strings as parameters to
fill each format code.

The method ``join(wordList)``
-----------------------------

The join (wordList) method provides an efficient way to join all strings in a list.
Each chain is added to the existing chain in turn. Performs an operation
string = + list [x] on each iteration through the list of strings. String added as
a prefix to each of the list items.

Example:

.. code-block:: python

    word1 = "Only"
    word2 = "several"
    word3 = "nice"
    word4 = "words"
    wordList = ["Only", "few", "more", "nice", "words"]

    # Simple joining with the join method
    print ("Words:" + word1 + word2 + word3 + word4)
    print ("List:" + '' .join (wordList))

    # Formatted string
    sentence = ("First sentence:% s% s% s% s."% (word1, word2, word3, word4))
    print (sentence)

    # Word list combination
    sentence = "Second sentence:"
    for word in wordList:
       sentence + = "" + word
    sentence + = "."
    print (sentence)

::

    Words: Only a few words
    List: Just a few more nice words
    First sentence: Just a few nice words.
    Second sentence: Just a few more nice words.

Splitting strings
-----------------

.. py:function:: split(separator)

  the method searches the string, splits it each time the separator character occurs, and then decomposes it into a string list.

.. py:function:: splitlines(keeplineends)

  the method breaks the string at each newline into a list of strings, taking one argument of boolean 'True' or 'False' to determine whether a newline should be preserved.

Example:

.. code-block:: python

    sentence = "This is a simple sentence."

    paragraph = "This is a simple paragraph. \ n \
    It consists of many \ n \
    lines of text. "

    entry = "Name and surname: Artur Borucki: Profession: Goalkeeper"

    print (sentence.split ())
    print (entry.split (':'))
    print (paragraph.splitlines (1))

::

    ['This', 'is', 'simple', 'sentence.']
    ['Name and surname', 'Artur Borucki', 'Profession', 'Goalkeeper']
    ['This is a simple paragraph. \ N,
     'It consists of many \ n',
     'line of text.']

Searching for substrings in a string
------------------------------------

.. py:function:: find(sub [, start [, end]])

  if the method does not find a substring, -1 is returned

.. py:function:: index(sub [, start [, end]])

  if the method does not find the substring, an exception is thrown

``sub``
  the string being searched for
``start, end``
  optional indexes of the search string

Example:

.. code-block:: python

    searchStr = "Red Blue Purple Green Blue Yellow Black"
    searchStr.find("Red")
    searchStr.rfind("Blue")
    searchStr.find("Blue")
    searchStr.find("Turquoise")
    searchStr.index("Blue")
    searchStr.index("Blue", 20)
    searchStr.rindex("Blue")
    searchStr.rindex("Blue", 1.18)

::

    # Output:
    0
    37
    9
    -1
    9
    37
    37
    9

Search and replace in strings
-----------------------------

.. py:function:: replace(old, new [, maxreplace])

  replaces a specific substring with new text. The method takes the search string as the first argument (old) and the replacement string as the second argument (new). Optionally, you can specify the maximum number of replacements in the third argument *maxreplace*.

Example:

.. code-block:: python

    question = "What is the speed of a swallow without load?"
    print(question)
    question2 = question.replace("a swallow", "a European swallow")
    print(question2)
    question3 = question.replace("a swallow", "an African swallow")
    print(question3)

::

    What is the speed of a swallow without load?
    What is the speed of a European swallow without load?
    What is the speed of an African swallow without load?

Search for strings with a prefix or suffix
-----------------------------------------------

.. py:function:: startswith(prefix [, start [, end]])

  checks that the string starts with the correct prefix

.. py:function:: endswith(suffix [, start [, end]])

  checks that the string ends with the correct suffix

Useful methods for processing lists of files based on extensions or filenames

``prefix, suffix``
  string used to compare with a string prefix or suffix

``start, end``
  indexing arguments

Example:

.. code-block:: python

    import of os
    for f in os.listdir ('C:\\txtfiles'):
        if f.endswith('.py'):
            print("Python file: " + f)
        elif f.endswith('. txt'):
            print("Text file: " + f)

::

    Python file: comp_str.py
    Python file: join_str.py
    Text file: output.txt
    Python file: split_str.py

Trimming strings
^^^^^^^^^^^^^^^^

.. py:function:: strip([chrs])

  removes specified characters from both sides of the string

.. py:function:: lstrip([chrs])

  only removes characters from the beginning of the string

.. py:function:: rstrip([chrs])

  only removes characters from the end of the string

Example:

.. code-block:: python

    import string
    bad_sentence = "\t\tThis sentence has some problems.    "
    bad_paragraph = "\t\tThis paragraph\nhas even more \nproblems.!?  "

    # Break off trailing spaces
    print ("Length =" + str(len(bad_sentence)))
    print ("No trailing spaces = " + \
          str(len(bad_sentence.rstrip(' '))))

    # Cut off tab characters
    print ("\nBad:\n" + bad_sentence)
    print ("\ngood:\n" + bad_sentence.lstrip('\t'))

    # Cut off leading and trailing characters
    print ("\nWrong:\n" + bad_paragraph)
    print ("\nOkay:\n" + bad_paragraph.strip(('?!\t')))

::

    Length = 33
    Without the end of a space = 30
    Wrong:
      This sentence has some problems.
    Well:
    This sentence has some problems.
    Wrong:
      This paragraph
    has even more
    problems.!?
    Well:
    This paragraph
    has even more
    problems.

Align and format strings
-------------------------------------

.. py:function:: rjust (width [, fill])

  right align the text in the string by the appropriate number of characters

.. py:function:: ljust (width [, fill])

  left align the text in the string by the appropriate number of characters

``fill``
  an optional argument, filling the space created by alignment with the specified character

``%``
  an operator to pass arguments to the format string


Example:

.. code-block:: python

    chapters = {1: 5, 2:46, 3:52, 4:87, 5:90}
    hexStr = "3f8"

    # Right align
    print ("Hexadecimal string:" + hexStr.upper().rjust(8, '0'))
    print ("")
    for x in chapters:
        print ("Chapter" + str(x) + \
            str (chapters[x]).rjust(15, '.'))

    # Left align
    print ("\nHexadecimal string:" + hexStr.upper().ljust(8, '0'))

    # Format string
    for x in chapters:
        print("Chapter %d %15s" % (x, str(chapters[x])))

::

    Hexadecimal string: 000003F8
    Chapter 1 ............. 5
    Chapter 2 ........... 46
    Chapter 3 ............ 52
    Chapter 4 ............ 87
    Chapter 5 ............ 90
    Hexadecimal string: 3F800000
    Chapter 1 5
    Chapter 2 46
    Chapter 3 52
    Chapter 4 87
    Chapter 5 90

Executing code contained in strings
-----------------------------------

.. py:function:: exec(str [, globals [, locals]])

  the function executes the code contained in the string and returns its result

.. py:function:: eval(str [, globals [, locals]])

  the function parses the string as a python expression and returns the results

.. code-block:: python

    code = "for card in cards: \
        print ('Card =' ​​+ card) "
    exec (codeStr)

The local variables 'locals' and global 'globals' are added to the environment used for code execution by specifying global or local dictionaries containing corresponding variable names and values.

Example:

.. code-block:: python

    deck = ['Ace', 'King', 'Queen', 'Jack']
    codeStr = "for card in deck: \
       print (\"Card = \" + card) "
    areaStr = "pi*(radius*radius)"

    # Execution of a string of characters
    exec(codeStr)

    # String calculation
    print("\nPole =" + str(eval(areaStr, {"pi": 3.14}, {"radius": 5}))))

::

    Card = Ace
    Card = King
    Card = Queen
    Card = Jack
    Area = 78.5

List and dictionary comprehensions
==================================

List comprehensions
-------------------

.. index ::
   single: list comprehension

List expressions (*list comprehensions*) allow you to concisely map a list to another, performing certain operations on each of its elements.
They allow to receive transformed lists without calling the functions ``map`` and ``filter``:

    >>> freshfruits = ['banana', 'loganberry', 'passion fruit']
    >>> [fruit.strip() for fruit in freshfruits]
    ['banana', 'loganberry', 'passion fruit']
    >>> vec = [2, 4, 6]
    >>> [3 * x for x in vec]
    [6, 12, 18]
    >>> [3 * x for x in vec if x > 3]
    [12, 18]
    >>> [3 * x for x in vec if x < 2]
    []

If the result of an expression is a tuple, the expression must be enclosed in parentheses ``()`` ::

    >>> [[x, x ** 2] for x in vec]
    [[2, 4], [4, 16], [6, 36]]
    >>> [x, x ** 2 for x in vec] # error - parens required for tuples
    File "<stdin>", line 1, in? [x, x ** 2 for x in vec] ^
    SyntaxError: invalid syntax
    >>> [(x, x ** 2) for x in vec]
    [(2, 4), (4, 16), (6, 36)]

List expressions can operate on multiple lists:

    >>> vec1 = [2, 4, 6]
    >>> vec2 = [4, 3, -9]
    >>> [x * y for x in vec1 for y in vec2]
    [8, 6, -18, 16, 12, -36, 24, 18, -54]
    >>> [x + y for x in vec1 for y in vec2]
    [6, 5, -7, 8, 7, -5, 10, 9, -3]
    >>> [vec1 [i] * vec2 [i] for i in range (len (vec1))]
    [8, 12, -54]

Nested list comprehensions
--------------------------

List comprehensions can be nested.

Example: 3x3 matrix:

    >>> mate = [
    ... [1, 2, 3],
    ... [4, 5, 6],
    ... [7, 8, 9],
    ...]

Swap rows with columns ::

    >>> print [[row [i] for row in mat] for i in [0, 1, 2]] [[1, 4, 7], [2, 5, 8],
    [3, 6, 9]]

Equivalent Using Iteration ::

    for and in [0, 1, 2]:
        for row in mat:
            print(row[i], end = '')
        print("")

Dictionary comprehensions
-------------------------

Dictionary comprehensions allows to create a new dictionary in a concise way, similar to list comprehensions:

    >>> employees = [
    ... {'id': 15, 'name': 'Jan Kowalski'},
    ... {'id': 16, 'name': 'Janusz Nowak'},
    ...]
    >>> print({employee['id']: employee['name'] for employee in employees})
    {16: 'Janusz Nowak', 15: 'Jan Kowalski'}

Note that for both list comprehensions and dictionary comprehensions, you can map a collection of a different type. In the example above, the list has been converted into a dictionary.

Map function
------------

Mapping is based on retrieving a function and an iterative object and generating a new iterated object (or list), in which each element will be the result of calling the function against the corresponding element in the initial iteration object.

.. py:function:: map(function, sequence)

    calls function (item) for each sequence element and returns an iterator after the result elements.

::

    >>> def cube(x):
    ... return x * x * x
    ...
    >>> list(map(cube, range(1, 11)))
    [1, 8, 27, 64, 125, 216, 343, 512, 729, 1000]

More than one sequence may be passed to the map function. The processing function must then take two arguments. If any of the sequences are shorter, the corresponding function argument will be set to None. ::

    >>> numbers = range (8)
    >>> def add(x, y): return x + y
    ...
    >>> list (map (add, numbers, numbers))
    [0, 2, 4, 6, 8, 10, 12, 14]

Filter function
---------------

Filtering involves getting a function and an iterator object and generating a new iterator. Each element is derived from the initial iterator, provided that the function called against that element returns True.

.. py:function:: filter(function, sequence)

    returns the sequence of those elements of the sequence passed as argument that satisfy the predicate 'function'.

::

    >>> def condition(x): return x % 2 != 0 and x % 3 != 0
    ...
    >>> list (filter (condition, range (2, 25)))
    [5, 7, 11, 13, 17, 19, 23]

The ``lambda`` operator
-----------------------

The map and filter functions can use anonymous defined functions
lambda operator. ::

    >>> numbers = [1, 2, 3, 4, 5, 6, 7, 8, 9]
    >>> list (map (lambda x: x * x, numbers))
    [1, 4, 9, 16, 25, 36, 49, 64, 81]
    >>> list (filter (lambda x: x % 2 == 0, numbers))
    [2, 4, 6, 8]
    >>> reduce (lambda x, y: x + y, numbers)
    45