<?xml version="1.0" encoding="UTF-8" standalone="no"?>
<!-- Created with Inkscape (http://www.inkscape.org/) -->

<svg
   xmlns:dc="http://purl.org/dc/elements/1.1/"
   xmlns:cc="http://creativecommons.org/ns#"
   xmlns:rdf="http://www.w3.org/1999/02/22-rdf-syntax-ns#"
   xmlns:svg="http://www.w3.org/2000/svg"
   xmlns="http://www.w3.org/2000/svg"
   xmlns:sodipodi="http://sodipodi.sourceforge.net/DTD/sodipodi-0.dtd"
   xmlns:inkscape="http://www.inkscape.org/namespaces/inkscape"
   width="371.57361"
   height="255.54326"
   id="svg2"
   version="1.1"
   inkscape:version="0.48.4 r9939"
   sodipodi:docname="di.pdf">
  <defs
     id="defs4">
    <marker
       inkscape:stockid="Arrow1Send"
       orient="auto"
       refY="0"
       refX="0"
       id="Arrow1Send"
       style="overflow:visible">
      <path
         id="path4054"
         d="M 0,0 5,-5 -12.5,0 5,5 0,0 z"
         style="fill-rule:evenodd;stroke:#000000;stroke-width:1pt"
         transform="matrix(-0.2,0,0,-0.2,-1.2,0)"
         inkscape:connector-curvature="0" />
    </marker>
    <marker
       inkscape:stockid="Arrow1Sstart"
       orient="auto"
       refY="0"
       refX="0"
       id="Arrow1Sstart"
       style="overflow:visible">
      <path
         id="path4051"
         d="M 0,0 5,-5 -12.5,0 5,5 0,0 z"
         style="fill-rule:evenodd;stroke:#000000;stroke-width:1pt"
         transform="matrix(0.2,0,0,0.2,1.2,0)"
         inkscape:connector-curvature="0" />
    </marker>
    <marker
       inkscape:stockid="EmptyTriangleOutM"
       orient="auto"
       refY="0"
       refX="0"
       id="EmptyTriangleOutM"
       style="overflow:visible">
      <path
         id="path4202"
         d="m 5.77,0 -8.65,5 0,-10 8.65,5 z"
         style="fill:#ffffff;fill-rule:evenodd;stroke:#000000;stroke-width:1pt"
         transform="matrix(0.4,0,0,0.4,-1.8,0)"
         inkscape:connector-curvature="0" />
    </marker>
    <marker
       inkscape:stockid="TriangleOutL"
       orient="auto"
       refY="0"
       refX="0"
       id="TriangleOutL"
       style="overflow:visible">
      <path
         id="path4181"
         d="m 5.77,0 -8.65,5 0,-10 8.65,5 z"
         style="fill-rule:evenodd;stroke:#000000;stroke-width:1pt"
         transform="scale(0.8,0.8)"
         inkscape:connector-curvature="0" />
    </marker>
    <marker
       inkscape:stockid="Arrow2Lend"
       orient="auto"
       refY="0"
       refX="0"
       id="Arrow2Lend"
       style="overflow:visible">
      <path
         id="path4060"
         style="fill-rule:evenodd;stroke-width:0.625;stroke-linejoin:round"
         d="M 8.7185878,4.0337352 -2.2072895,0.01601326 8.7185884,-4.0017078 c -1.7454984,2.3720609 -1.7354408,5.6174519 -6e-7,8.035443 z"
         transform="matrix(-1.1,0,0,-1.1,-1.1,0)"
         inkscape:connector-curvature="0" />
    </marker>
    <marker
       inkscape:stockid="Arrow2Mend"
       orient="auto"
       refY="0"
       refX="0"
       id="Arrow2Mend"
       style="overflow:visible">
      <path
         id="path4066"
         style="fill-rule:evenodd;stroke-width:0.625;stroke-linejoin:round"
         d="M 8.7185878,4.0337352 -2.2072895,0.01601326 8.7185884,-4.0017078 c -1.7454984,2.3720609 -1.7354408,5.6174519 -6e-7,8.035443 z"
         transform="scale(-0.6,-0.6)"
         inkscape:connector-curvature="0" />
    </marker>
    <marker
       inkscape:stockid="TriangleOutL"
       orient="auto"
       refY="0"
       refX="0"
       id="TriangleOutL-7"
       style="overflow:visible">
      <path
         inkscape:connector-curvature="0"
         id="path4181-6"
         d="m 5.77,0 -8.65,5 0,-10 8.65,5 z"
         style="fill-rule:evenodd;stroke:#000000;stroke-width:1pt"
         transform="scale(0.8,0.8)" />
    </marker>
  </defs>
  <sodipodi:namedview
     id="base"
     pagecolor="#ffffff"
     bordercolor="#666666"
     borderopacity="1.0"
     inkscape:pageopacity="0.0"
     inkscape:pageshadow="2"
     inkscape:zoom="0.96164611"
     inkscape:cx="202.09657"
     inkscape:cy="-205.12891"
     inkscape:document-units="px"
     inkscape:current-layer="layer1"
     showgrid="false"
     showguides="true"
     inkscape:guide-bbox="true"
     guidetolerance="10"
     objecttolerance="10"
     inkscape:window-width="1920"
     inkscape:window-height="1178"
     inkscape:window-x="-8"
     inkscape:window-y="-8"
     inkscape:window-maximized="1"
     fit-margin-top="0"
     fit-margin-left="0"
     fit-margin-right="0"
     fit-margin-bottom="0">
    <sodipodi:guide
       orientation="0,1"
       position="255.76794,224.38483"
       id="guide3041" />
    <sodipodi:guide
       orientation="0,1"
       position="145.79795,-2.3858279"
       id="guide3073" />
    <sodipodi:guide
       orientation="1,0"
       position="370.87077,18.573762"
       id="guide3075" />
    <sodipodi:guide
       orientation="0,1"
       position="229.71312,174.68941"
       id="guide4853" />
    <sodipodi:guide
       orientation="1,0"
       position="-79.635189,129.17609"
       id="guide6081" />
  </sodipodi:namedview>
  <metadata
     id="metadata7">
    <rdf:RDF>
      <cc:Work
         rdf:about="">
        <dc:format>image/svg+xml</dc:format>
        <dc:type
           rdf:resource="http://purl.org/dc/dcmitype/StillImage" />
        <dc:title></dc:title>
      </cc:Work>
    </rdf:RDF>
  </metadata>
  <g
     inkscape:label="Layer 1"
     inkscape:groupmode="layer"
     id="layer1"
     transform="translate(-169.95067,-65.508931)">
    <g
       id="g5045"
       transform="matrix(0.63376988,0,0,0.63376988,112.64436,35.854186)">
      <g
         transform="translate(9.6862608,-36.287752)"
         id="g3043">
        <rect
           style="fill:#ff7f2a;stroke:#803300;stroke-width:1.13987935"
           id="rect2985"
           width="209.53378"
           height="98.355904"
           x="81.82486"
           y="133.93633"
           ry="20.851524" />
        <text
           xml:space="preserve"
           style="font-size:29.25886726px;font-style:normal;font-variant:normal;font-weight:normal;font-stretch:normal;text-align:start;line-height:125%;letter-spacing:0px;word-spacing:0px;writing-mode:lr-tb;text-anchor:start;fill:#000000;fill-opacity:1;stroke:none;font-family:Segoe UI;-inkscape-font-specification:Segoe UI"
           x="143.22491"
           y="193.77205"
           id="text2987"
           sodipodi:linespacing="125%"><tspan
             sodipodi:role="line"
             id="tspan2989"
             x="143.22491"
             y="193.77205">Obiekt</tspan></text>
      </g>
      <g
         transform="translate(83.962374,-36.067644)"
         id="g3048">
        <rect
           style="fill:#ff7f2a;stroke:#803300;stroke-width:1.13987935"
           id="rect2985-0"
           width="209.53378"
           height="98.355904"
           x="382.63748"
           y="133.50192"
           ry="20.851524" />
        <text
           xml:space="preserve"
           style="font-size:29.25886726px;font-style:normal;font-variant:normal;font-weight:normal;font-stretch:normal;text-align:start;line-height:125%;letter-spacing:0px;word-spacing:0px;writing-mode:lr-tb;text-anchor:start;fill:#000000;fill-opacity:1;stroke:none;font-family:Segoe UI;-inkscape-font-specification:Segoe UI"
           x="424.29352"
           y="193.55194"
           id="text2987-9"
           sodipodi:linespacing="125%"><tspan
             sodipodi:role="line"
             id="tspan2989-4"
             x="424.29352"
             y="193.55194">Zależność</tspan></text>
      </g>
    </g>
    <text
       xml:space="preserve"
       style="font-size:15.84449577px;font-style:normal;font-variant:normal;font-weight:normal;font-stretch:normal;text-align:start;line-height:125%;letter-spacing:0px;word-spacing:0px;writing-mode:lr-tb;text-anchor:start;fill:#000000;fill-opacity:1;stroke:none;font-family:Segoe UI;-inkscape-font-specification:Segoe UI"
       x="252.98372"
       y="77.237572"
       id="text6009"
       sodipodi:linespacing="125%"><tspan
         sodipodi:role="line"
         id="tspan6011"
         x="252.98372"
         y="77.237572"
         style="font-size:15.84449577px;font-style:normal;font-variant:normal;font-weight:bold;font-stretch:normal;text-align:start;line-height:125%;writing-mode:lr-tb;text-anchor:start;font-family:Segoe UI;-inkscape-font-specification:Segoe UI Bold">Aktywne nabycie zależności</tspan></text>
    <text
       xml:space="preserve"
       style="font-size:15.84449577px;font-style:normal;font-variant:normal;font-weight:normal;font-stretch:normal;text-align:start;line-height:125%;letter-spacing:0px;word-spacing:0px;writing-mode:lr-tb;text-anchor:start;fill:#000000;fill-opacity:1;stroke:none;font-family:Segoe UI;-inkscape-font-specification:Segoe UI"
       x="261.80197"
       y="240.83948"
       id="text6009-8"
       sodipodi:linespacing="125%"><tspan
         sodipodi:role="line"
         id="tspan6011-2"
         x="261.80197"
         y="240.83948"
         style="font-size:15.84449577px;font-style:normal;font-variant:normal;font-weight:bold;font-stretch:normal;text-align:start;line-height:125%;writing-mode:lr-tb;text-anchor:start;font-family:Segoe UI;-inkscape-font-specification:Segoe UI Bold">Wstrzykiwanie zależności</tspan></text>
    <path
       inkscape:connector-curvature="0"
       id="path6083"
       d="m 302.84087,128.61451 c 116.28127,0 120.3376,0 120.3376,0"
       style="fill:none;stroke:#000000;stroke-width:1.07740879;stroke-linecap:butt;stroke-linejoin:miter;stroke-miterlimit:4;stroke-opacity:1;stroke-dasharray:none;marker-end:url(#TriangleOutL)" />
    <g
       id="g7099"
       transform="matrix(0.63376988,0,0,0.63376988,112.64436,35.854186)">
      <g
         transform="translate(9.1713246,217.12745)"
         id="g3043-5">
        <rect
           style="fill:#ff7f2a;stroke:#803300;stroke-width:1.13987935"
           id="rect2985-5"
           width="209.53378"
           height="98.355904"
           x="81.82486"
           y="133.93633"
           ry="20.851524" />
        <text
           xml:space="preserve"
           style="font-size:29.25886726px;font-style:normal;font-variant:normal;font-weight:normal;font-stretch:normal;text-align:start;line-height:125%;letter-spacing:0px;word-spacing:0px;writing-mode:lr-tb;text-anchor:start;fill:#000000;fill-opacity:1;stroke:none;font-family:Segoe UI;-inkscape-font-specification:Segoe UI"
           x="143.22491"
           y="193.77205"
           id="text2987-1"
           sodipodi:linespacing="125%"><tspan
             sodipodi:role="line"
             id="tspan2989-7"
             x="143.22491"
             y="193.77205">Obiekt</tspan></text>
      </g>
      <g
         transform="translate(83.447438,217.56185)"
         id="g3048-1">
        <rect
           style="fill:#ff7f2a;stroke:#803300;stroke-width:1.13987935"
           id="rect2985-0-1"
           width="209.53378"
           height="98.355904"
           x="382.63748"
           y="133.50192"
           ry="20.851524" />
        <text
           xml:space="preserve"
           style="font-size:29.25886726px;font-style:normal;font-variant:normal;font-weight:normal;font-stretch:normal;text-align:start;line-height:125%;letter-spacing:0px;word-spacing:0px;writing-mode:lr-tb;text-anchor:start;fill:#000000;fill-opacity:1;stroke:none;font-family:Segoe UI;-inkscape-font-specification:Segoe UI"
           x="424.29352"
           y="193.55194"
           id="text2987-9-5"
           sodipodi:linespacing="125%"><tspan
             sodipodi:role="line"
             id="tspan2989-4-2"
             x="424.29352"
             y="193.55194">Zależność</tspan></text>
      </g>
      <path
         style="fill:none;stroke:#000000;stroke-width:1.70000005;stroke-linecap:butt;stroke-linejoin:miter;stroke-miterlimit:4;stroke-opacity:1;stroke-dasharray:none;marker-end:url(#TriangleOutL)"
         d="m 465.81262,400.24173 c -183.47555,0 -189.87586,0 -189.87586,0"
         id="path6083-1"
         inkscape:connector-curvature="0" />
    </g>
  </g>
</svg>
