<?xml version="1.0" encoding="UTF-8" standalone="no"?>
<!-- Created with Inkscape (http://www.inkscape.org/) -->

<svg
   xmlns:v="http://schemas.microsoft.com/visio/2003/SVGExtensions/"
   xmlns:dc="http://purl.org/dc/elements/1.1/"
   xmlns:cc="http://creativecommons.org/ns#"
   xmlns:rdf="http://www.w3.org/1999/02/22-rdf-syntax-ns#"
   xmlns:svg="http://www.w3.org/2000/svg"
   xmlns="http://www.w3.org/2000/svg"
   xmlns:xlink="http://www.w3.org/1999/xlink"
   xmlns:sodipodi="http://sodipodi.sourceforge.net/DTD/sodipodi-0.dtd"
   xmlns:inkscape="http://www.inkscape.org/namespaces/inkscape"
   width="515.9704"
   height="223.00252"
   id="svg2"
   version="1.1"
   inkscape:version="0.48.4 r9939"
   sodipodi:docname="ocp-before.pdf">
  <defs
     id="defs4">
	<filter
   id="filter_2"
   color-interpolation-filters="sRGB">
			<feGaussianBlur
   id="feGaussianBlur3013"
   stdDeviation="2" />

		</filter>

		
	<marker
   overflow="visible"
   markerUnits="strokeWidth"
   orient="auto"
   v:arrowSize="2"
   v:arrowType="12"
   class="st18"
   id="mrkr12-62"
   style="fill:#5b9bd5;fill-opacity:1;stroke:#5b9bd5;stroke-width:0.28409091;stroke-opacity:1;overflow:visible">
			<use
   id="use3009"
   transform="scale(-3.52,-3.52)"
   xlink:href="#lend12"
   x="0"
   y="0"
   width="3"
   height="3" />

		</marker>

		<g
   id="lend12">
			<path
   id="path3006"
   style="fill:none;stroke-linecap:round;stroke-linejoin:round"
   d="M 3,1 0,0 3,-1"
   inkscape:connector-curvature="0" />

		</g>

		
	<linearGradient
   gradientTransform="scale(2.3988074,0.41687382)"
   y2="150.96893"
   x2="76.965332"
   y1="150.96893"
   x1="-0.15632768"
   id="grad0-33"
   gradientUnits="userSpaceOnUse">
			<stop
   id="stop2998"
   stop-opacity="1"
   stop-color="#e9eff7"
   offset="0" />

			<stop
   id="stop3000"
   stop-opacity="1"
   stop-color="#f4f7fb"
   offset="0.24" />

			<stop
   id="stop3002"
   stop-opacity="1"
   stop-color="#ffffff"
   offset="0.54" />

		</linearGradient>

		<linearGradient
   gradientTransform="matrix(0,1,-1,0,1,0)"
   y2="0"
   x2="1"
   y1="0"
   x1="0"
   id="grad0-9">
			<stop
   id="stop2991"
   stop-opacity="1"
   stop-color="#ffffff"
   offset="0.01" />

			<stop
   id="stop2993"
   stop-opacity="1"
   stop-color="#fefefe"
   offset="0.5" />

			<stop
   id="stop2995"
   stop-opacity="1"
   stop-color="#ffffff"
   offset="1" />

		</linearGradient>

		</defs>
  <sodipodi:namedview
     id="base"
     pagecolor="#ffffff"
     bordercolor="#666666"
     borderopacity="1.0"
     inkscape:pageopacity="0.0"
     inkscape:pageshadow="2"
     inkscape:zoom="1"
     inkscape:cx="520.15803"
     inkscape:cy="212.11117"
     inkscape:document-units="px"
     inkscape:current-layer="layer1"
     showgrid="false"
     inkscape:window-width="1920"
     inkscape:window-height="1178"
     inkscape:window-x="-8"
     inkscape:window-y="-8"
     inkscape:window-maximized="1"
     showguides="true"
     inkscape:guide-bbox="true"
     fit-margin-top="0"
     fit-margin-left="0"
     fit-margin-right="0"
     fit-margin-bottom="0">
    <sodipodi:guide
       orientation="1,0"
       position="-87.218535,-231.64218"
       id="guide3505" />
  </sodipodi:namedview>
  <metadata
     id="metadata7">
    <rdf:RDF>
      <cc:Work
         rdf:about="">
        <dc:format>image/svg+xml</dc:format>
        <dc:type
           rdf:resource="http://purl.org/dc/dcmitype/StillImage" />
        <dc:title></dc:title>
      </cc:Work>
    </rdf:RDF>
  </metadata>
  <g
     inkscape:label="Layer 1"
     inkscape:groupmode="layer"
     id="layer1"
     transform="translate(-197.21854,34.282543)">
    <g
       id="g3590"
       transform="matrix(0.68196489,0,0,0.68196489,194.51199,-35.134999)">
      <path
         id="path3592"
         d="m 4.6057454,63.777864 0,54.176056 306.8675446,0 0,-54.176056 -306.8675446,0 z"
         style="fill:#f2f2f2;fill-opacity:1;fill-rule:evenodd;stroke:none"
         inkscape:connector-curvature="0" />
      <path
         id="path3594"
         d="m 4.6057454,117.95392 306.8675446,0 0,-54.176056 -306.8675446,0 0,54.176056 z"
         style="fill:none;stroke:#4f88bb;stroke-width:1.24901569px;stroke-linecap:square;stroke-linejoin:miter;stroke-miterlimit:4;stroke-opacity:1;stroke-dasharray:none"
         inkscape:connector-curvature="0" />
      <path
         id="path3596"
         d="m 4.6057454,63.777864 306.8675446,0 0,-52.302532 -306.8675446,0 0,52.302532 z"
         style="fill:none;stroke:#4f88bb;stroke-width:1.24901569px;stroke-linecap:square;stroke-linejoin:miter;stroke-miterlimit:4;stroke-opacity:1;stroke-dasharray:none"
         inkscape:connector-curvature="0" />
      <text
         id="text3598"
         style="font-size:19.98425102px;font-style:normal;font-weight:normal;text-align:start;text-anchor:start;fill:#4f88bb;font-family:Calibri"
         y="44.22179"
         x="11.865725"
         xml:space="preserve">Client</text>
      <path
         id="path3600"
         d="m 9.3676177,90.241384 2.4980313,0 0,1.249015 -2.4980313,0 0,-1.249015 z m 3.7470473,0 2.498031,0 0,1.249015 -2.498031,0 0,-1.249015 z m 3.747047,0 2.498031,0 0,1.249015 -2.498031,0 0,-1.249015 z m 3.747047,0 2.498031,0 0,1.249015 -2.498031,0 0,-1.249015 z m 3.747047,0 2.498031,0 0,1.249015 -2.498031,0 0,-1.249015 z m 3.747047,0 2.498031,0 0,1.249015 -2.498031,0 0,-1.249015 z m 3.747047,0 2.498031,0 0,1.249015 -2.498031,0 0,-1.249015 z m 3.747047,0 2.498032,0 0,1.249015 -2.498032,0 0,-1.249015 z m 3.747047,0 2.498032,0 0,1.249015 -2.498032,0 0,-1.249015 z m 3.747047,0 2.498032,0 0,1.249015 -2.498032,0 0,-1.249015 z m 3.747047,0 2.498032,0 0,1.249015 -2.498032,0 0,-1.249015 z m 3.747047,0 2.498032,0 0,1.249015 -2.498032,0 0,-1.249015 z m 3.747047,0 2.498032,0 0,1.249015 -2.498032,0 0,-1.249015 z m 3.747048,0 2.498031,0 0,1.249015 -2.498031,0 0,-1.249015 z m 3.747047,0 2.498031,0 0,1.249015 -2.498031,0 0,-1.249015 z m 3.747047,0 2.498031,0 0,1.249015 -2.498031,0 0,-1.249015 z m 3.747047,0 2.498031,0 0,1.249015 -2.498031,0 0,-1.249015 z m 3.747047,0 2.498031,0 0,1.249015 -2.498031,0 0,-1.249015 z m 3.747047,0 2.576095,0 0,1.249015 -2.576095,0 0,-1.249015 z m 3.82511,0 2.498032,0 0,1.249015 -2.498032,0 0,-1.249015 z m 3.747047,0 2.498032,0 0,1.249015 -2.498032,0 0,-1.249015 z m 3.747048,0 2.498031,0 0,1.249015 -2.498031,0 0,-1.249015 z m 3.747047,0 2.498031,0 0,1.249015 -2.498031,0 0,-1.249015 z m 3.747047,0 2.498031,0 0,1.249015 -2.498031,0 0,-1.249015 z m 3.747047,0 2.498029,0 0,1.249015 -2.498029,0 0,-1.249015 z m 3.747049,0 2.49803,0 0,1.249015 -2.49803,0 0,-1.249015 z m 3.74704,0 2.49804,0 0,1.249015 -2.49804,0 0,-1.249015 z m 3.74705,0 2.49803,0 0,1.249015 -2.49803,0 0,-1.249015 z m 3.74705,0 2.49803,0 0,1.249015 -2.49803,0 0,-1.249015 z m 3.74705,0 2.49803,0 0,1.249015 -2.49803,0 0,-1.249015 z m 3.74704,0 2.49803,0 0,1.249015 -2.49803,0 0,-1.249015 z m 3.74705,0 2.49803,0 0,1.249015 -2.49803,0 0,-1.249015 z m 3.74705,0 2.49803,0 0,1.249015 -2.49803,0 0,-1.249015 z m 3.74704,0 2.49804,0 0,1.249015 -2.49804,0 0,-1.249015 z m 3.74705,0 2.49803,0 0,1.249015 -2.49803,0 0,-1.249015 z m 3.74705,0 2.49803,0 0,1.249015 -2.49803,0 0,-1.249015 z m 3.74705,0 2.49803,0 0,1.249015 -2.49803,0 0,-1.249015 z m 3.74704,0 2.49803,0 0,1.249015 -2.49803,0 0,-1.249015 z m 3.74705,0 2.49803,0 0,1.249015 -2.49803,0 0,-1.249015 z m 3.74705,0 2.57609,0 0,1.249015 -2.57609,0 0,-1.249015 z m 3.82511,0 2.49803,0 0,1.249015 -2.49803,0 0,-1.249015 z m 3.74704,0 2.49804,0 0,1.249015 -2.49804,0 0,-1.249015 z m 3.74705,0 2.49803,0 0,1.249015 -2.49803,0 0,-1.249015 z m 3.74705,0 2.49803,0 0,1.249015 -2.49803,0 0,-1.249015 z m 3.74705,0 2.49803,0 0,1.249015 -2.49803,0 0,-1.249015 z m 3.74704,0 2.49803,0 0,1.249015 -2.49803,0 0,-1.249015 z m 3.74705,0 2.49803,0 0,1.249015 -2.49803,0 0,-1.249015 z m 3.74705,0 2.49803,0 0,1.249015 -2.49803,0 0,-1.249015 z m 3.74704,0 2.49804,0 0,1.249015 -2.49804,0 0,-1.249015 z m 3.74705,0 2.49803,0 0,1.249015 -2.49803,0 0,-1.249015 z m 3.74705,0 2.49803,0 0,1.249015 -2.49803,0 0,-1.249015 z m 3.74705,0 2.49803,0 0,1.249015 -2.49803,0 0,-1.249015 z m 3.74704,0 2.49803,0 0,1.249015 -2.49803,0 0,-1.249015 z m 3.74705,0 2.49803,0 0,1.249015 -2.49803,0 0,-1.249015 z m 3.74705,0 2.49803,0 0,1.249015 -2.49803,0 0,-1.249015 z m 3.74704,0 2.49803,0 0,1.249015 -2.49803,0 0,-1.249015 z m 3.74705,0 2.49803,0 0,1.249015 -2.49803,0 0,-1.249015 z m 3.74705,0 2.49803,0 0,1.249015 -2.49803,0 0,-1.249015 z m 3.74704,0 2.49804,0 0,1.249015 -2.49804,0 0,-1.249015 z m 3.74705,0 2.49803,0 0,1.249015 -2.49803,0 0,-1.249015 z m 3.74705,0 2.57609,0 0,1.249015 -2.57609,0 0,-1.249015 z m 3.82511,0 2.49803,0 0,1.249015 -2.49803,0 0,-1.249015 z m 3.74705,0 2.49803,0 0,1.249015 -2.49803,0 0,-1.249015 z m 3.74704,0 2.49803,0 0,1.249015 -2.49803,0 0,-1.249015 z m 3.74705,0 2.49803,0 0,1.249015 -2.49803,0 0,-1.249015 z m 3.74705,0 2.49803,0 0,1.249015 -2.49803,0 0,-1.249015 z m 3.74704,0 2.49804,0 0,1.249015 -2.49804,0 0,-1.249015 z m 3.74705,0 2.49803,0 0,1.249015 -2.49803,0 0,-1.249015 z m 3.74705,0 2.49803,0 0,1.249015 -2.49803,0 0,-1.249015 z m 3.74705,0 2.49803,0 0,1.249015 -2.49803,0 0,-1.249015 z m 3.74704,0 2.49803,0 0,1.249015 -2.49803,0 0,-1.249015 z m 3.74705,0 2.49803,0 0,1.249015 -2.49803,0 0,-1.249015 z m 3.74705,0 2.49803,0 0,1.249015 -2.49803,0 0,-1.249015 z m 3.74704,0 2.49804,0 0,1.249015 -2.49804,0 0,-1.249015 z m 3.74705,0 2.49803,0 0,1.249015 -2.49803,0 0,-1.249015 z m 3.74705,0 2.49803,0 0,1.249015 -2.49803,0 0,-1.249015 z m 3.74705,0 2.49803,0 0,1.249015 -2.49803,0 0,-1.249015 z m 3.74704,0 2.49803,0 0,1.249015 -2.49803,0 0,-1.249015 z m 3.74705,0 2.49803,0 0,1.249015 -2.49803,0 0,-1.249015 z m 3.74705,0 1.09289,0 0,1.249015 -1.09289,0 0,-1.249015 z"
         style="fill:#c8c8c8;fill-opacity:1;fill-rule:nonzero;stroke:#c8c8c8;stroke-width:0.07806348px;stroke-linecap:butt;stroke-linejoin:round;stroke-opacity:1;stroke-dasharray:none"
         inkscape:connector-curvature="0" />
      <path
         id="path3602"
         d="m 453.08044,273.53444 0,54.09799 306.86754,0 0,-54.09799 -306.86754,0 z"
         style="fill:#f2f2f2;fill-opacity:1;fill-rule:evenodd;stroke:none"
         inkscape:connector-curvature="0" />
      <path
         id="path3604"
         d="m 453.08044,327.63243 306.86754,0 0,-54.09799 -306.86754,0 0,54.09799 z"
         style="fill:none;stroke:#4f88bb;stroke-width:1.24901569px;stroke-linecap:square;stroke-linejoin:miter;stroke-miterlimit:4;stroke-opacity:1;stroke-dasharray:none"
         inkscape:connector-curvature="0" />
      <path
         id="path3606"
         d="m 453.08044,273.53444 306.86754,0 0,-52.30254 -306.86754,0 0,52.30254 z"
         style="fill:none;stroke:#4f88bb;stroke-width:1.24901569px;stroke-linecap:square;stroke-linejoin:miter;stroke-miterlimit:4;stroke-opacity:1;stroke-dasharray:none"
         inkscape:connector-curvature="0" />
      <text
         id="text3608"
         style="font-size:19.98425102px;font-style:normal;font-weight:normal;text-align:start;text-anchor:start;fill:#4f88bb;font-family:Calibri"
         y="253.95506"
         x="460.33121"
         xml:space="preserve">Server</text>
      <path
         id="path3610"
         d="m 457.76425,299.99796 2.57609,0 0,1.24901 -2.57609,0 0,-1.24901 z m 3.82511,0 2.49803,0 0,1.24901 -2.49803,0 0,-1.24901 z m 3.74705,0 2.49803,0 0,1.24901 -2.49803,0 0,-1.24901 z m 3.74704,0 2.49804,0 0,1.24901 -2.49804,0 0,-1.24901 z m 3.74705,0 2.49803,0 0,1.24901 -2.49803,0 0,-1.24901 z m 3.74705,0 2.49803,0 0,1.24901 -2.49803,0 0,-1.24901 z m 3.74705,0 2.49803,0 0,1.24901 -2.49803,0 0,-1.24901 z m 3.74704,0 2.49803,0 0,1.24901 -2.49803,0 0,-1.24901 z m 3.74705,0 2.49803,0 0,1.24901 -2.49803,0 0,-1.24901 z m 3.74705,0 2.49803,0 0,1.24901 -2.49803,0 0,-1.24901 z m 3.74704,0 2.49804,0 0,1.24901 -2.49804,0 0,-1.24901 z m 3.74705,0 2.49803,0 0,1.24901 -2.49803,0 0,-1.24901 z m 3.74705,0 2.49803,0 0,1.24901 -2.49803,0 0,-1.24901 z m 3.74705,0 2.49803,0 0,1.24901 -2.49803,0 0,-1.24901 z m 3.74704,0 2.49803,0 0,1.24901 -2.49803,0 0,-1.24901 z m 3.74705,0 2.49803,0 0,1.24901 -2.49803,0 0,-1.24901 z m 3.74705,0 2.49803,0 0,1.24901 -2.49803,0 0,-1.24901 z m 3.74704,0 2.49803,0 0,1.24901 -2.49803,0 0,-1.24901 z m 3.74705,0 2.49803,0 0,1.24901 -2.49803,0 0,-1.24901 z m 3.74705,0 2.49803,0 0,1.24901 -2.49803,0 0,-1.24901 z m 3.74704,0 2.49804,0 0,1.24901 -2.49804,0 0,-1.24901 z m 3.74705,0 2.5761,0 0,1.24901 -2.5761,0 0,-1.24901 z m 3.82511,0 2.49803,0 0,1.24901 -2.49803,0 0,-1.24901 z m 3.74705,0 2.49803,0 0,1.24901 -2.49803,0 0,-1.24901 z m 3.74705,0 2.49803,0 0,1.24901 -2.49803,0 0,-1.24901 z m 3.74704,0 2.49803,0 0,1.24901 -2.49803,0 0,-1.24901 z m 3.74705,0 2.49803,0 0,1.24901 -2.49803,0 0,-1.24901 z m 3.74705,0 2.49803,0 0,1.24901 -2.49803,0 0,-1.24901 z m 3.74704,0 2.49804,0 0,1.24901 -2.49804,0 0,-1.24901 z m 3.74705,0 2.49803,0 0,1.24901 -2.49803,0 0,-1.24901 z m 3.74705,0 2.49803,0 0,1.24901 -2.49803,0 0,-1.24901 z m 3.74705,0 2.49803,0 0,1.24901 -2.49803,0 0,-1.24901 z m 3.74704,0 2.49803,0 0,1.24901 -2.49803,0 0,-1.24901 z m 3.74705,0 2.49803,0 0,1.24901 -2.49803,0 0,-1.24901 z m 3.74705,0 2.49803,0 0,1.24901 -2.49803,0 0,-1.24901 z m 3.74704,0 2.49804,0 0,1.24901 -2.49804,0 0,-1.24901 z m 3.74705,0 2.49803,0 0,1.24901 -2.49803,0 0,-1.24901 z m 3.74705,0 2.49803,0 0,1.24901 -2.49803,0 0,-1.24901 z m 3.74705,0 2.49803,0 0,1.24901 -2.49803,0 0,-1.24901 z m 3.74704,0 2.49803,0 0,1.24901 -2.49803,0 0,-1.24901 z m 3.74705,0 2.49803,0 0,1.24901 -2.49803,0 0,-1.24901 z m 3.74705,0 2.49803,0 0,1.24901 -2.49803,0 0,-1.24901 z m 3.82511,0 2.49803,0 0,1.24901 -2.49803,0 0,-1.24901 z m 3.74704,0 2.49804,0 0,1.24901 -2.49804,0 0,-1.24901 z m 3.74705,0 2.49803,0 0,1.24901 -2.49803,0 0,-1.24901 z m 3.74705,0 2.49803,0 0,1.24901 -2.49803,0 0,-1.24901 z m 3.74705,0 2.49803,0 0,1.24901 -2.49803,0 0,-1.24901 z m 3.74704,0 2.49803,0 0,1.24901 -2.49803,0 0,-1.24901 z m 3.74705,0 2.49803,0 0,1.24901 -2.49803,0 0,-1.24901 z m 3.74705,0 2.49803,0 0,1.24901 -2.49803,0 0,-1.24901 z m 3.74704,0 2.49804,0 0,1.24901 -2.49804,0 0,-1.24901 z m 3.74705,0 2.49803,0 0,1.24901 -2.49803,0 0,-1.24901 z m 3.74705,0 2.49803,0 0,1.24901 -2.49803,0 0,-1.24901 z m 3.74704,0 2.49804,0 0,1.24901 -2.49804,0 0,-1.24901 z m 3.74705,0 2.49803,0 0,1.24901 -2.49803,0 0,-1.24901 z m 3.74705,0 2.49803,0 0,1.24901 -2.49803,0 0,-1.24901 z m 3.74705,0 2.49803,0 0,1.24901 -2.49803,0 0,-1.24901 z m 3.74704,0 2.49803,0 0,1.24901 -2.49803,0 0,-1.24901 z m 3.74705,0 2.49803,0 0,1.24901 -2.49803,0 0,-1.24901 z m 3.74705,0 2.49803,0 0,1.24901 -2.49803,0 0,-1.24901 z m 3.74704,0 2.49804,0 0,1.24901 -2.49804,0 0,-1.24901 z m 3.74705,0 2.49803,0 0,1.24901 -2.49803,0 0,-1.24901 z m 3.74705,0 2.57609,0 0,1.24901 -2.57609,0 0,-1.24901 z m 3.82511,0 2.49803,0 0,1.24901 -2.49803,0 0,-1.24901 z m 3.74705,0 2.49803,0 0,1.24901 -2.49803,0 0,-1.24901 z m 3.74704,0 2.49803,0 0,1.24901 -2.49803,0 0,-1.24901 z m 3.74705,0 2.49803,0 0,1.24901 -2.49803,0 0,-1.24901 z m 3.74705,0 2.49803,0 0,1.24901 -2.49803,0 0,-1.24901 z m 3.74704,0 2.49804,0 0,1.24901 -2.49804,0 0,-1.24901 z m 3.74705,0 2.49803,0 0,1.24901 -2.49803,0 0,-1.24901 z m 3.74705,0 2.49803,0 0,1.24901 -2.49803,0 0,-1.24901 z m 3.74705,0 2.49803,0 0,1.24901 -2.49803,0 0,-1.24901 z m 3.74704,0 2.49803,0 0,1.24901 -2.49803,0 0,-1.24901 z m 3.74705,0 2.49803,0 0,1.24901 -2.49803,0 0,-1.24901 z m 3.74705,0 2.49803,0 0,1.24901 -2.49803,0 0,-1.24901 z m 3.74704,0 2.49804,0 0,1.24901 -2.49804,0 0,-1.24901 z m 3.74705,0 2.49803,0 0,1.24901 -2.49803,0 0,-1.24901 z m 3.74705,0 2.49803,0 0,1.24901 -2.49803,0 0,-1.24901 z m 3.74705,0 2.49803,0 0,1.24901 -2.49803,0 0,-1.24901 z m 3.74704,0 1.09289,0 0,1.24901 -1.09289,0 0,-1.24901 z"
         style="fill:#c8c8c8;fill-opacity:1;fill-rule:nonzero;stroke:#c8c8c8;stroke-width:0.07806348px;stroke-linecap:butt;stroke-linejoin:round;stroke-opacity:1;stroke-dasharray:none"
         inkscape:connector-curvature="0" />
      <path
         id="path3612"
         d="m 311.47329,64.714625 141.60715,0"
         style="fill:none;stroke:#5b9bd5;stroke-width:1.63933313px;stroke-linecap:round;stroke-linejoin:round;stroke-opacity:1;stroke-dasharray:none"
         inkscape:connector-curvature="0" />
      <path
         id="path3614"
         d="m 435.51616,70.569386 17.56428,-5.854761 -17.56428,-5.854761"
         style="fill:none;stroke:#5b9bd5;stroke-width:1.63933313px;stroke-linecap:round;stroke-linejoin:round;stroke-opacity:1;stroke-dasharray:none"
         inkscape:connector-curvature="0" />
      <path
         id="path3616"
         d="m 453.08044,73.379672 0,54.097988 306.86754,0 0,-54.097988 -306.86754,0 z"
         style="fill:#f2f2f2;fill-opacity:1;fill-rule:evenodd;stroke:none"
         inkscape:connector-curvature="0" />
      <path
         id="path3618"
         d="m 453.08044,127.47766 306.86754,0 0,-54.097988 -306.86754,0 0,54.097988 z"
         style="fill:none;stroke:#4f88bb;stroke-width:1.24901569px;stroke-linecap:square;stroke-linejoin:miter;stroke-miterlimit:4;stroke-opacity:1;stroke-dasharray:none"
         inkscape:connector-curvature="0" />
      <path
         id="path3620"
         d="m 453.08044,73.379672 306.86754,0 0,-71.5061485 -306.86754,0 0,71.5061485 z"
         style="fill:none;stroke:#4f88bb;stroke-width:1.24901569px;stroke-linecap:square;stroke-linejoin:miter;stroke-miterlimit:4;stroke-opacity:1;stroke-dasharray:none"
         inkscape:connector-curvature="0" />
      <text
         id="text3622"
         style="font-size:16.2372036px;font-style:normal;font-weight:normal;text-align:start;text-anchor:start;fill:#4f88bb;font-family:Calibri"
         y="24.151058"
         x="460.33121"
         xml:space="preserve">&lt;&lt;</text>
      <text
         id="text3624"
         style="font-size:16.2372036px;font-style:normal;font-weight:normal;text-align:start;text-anchor:start;fill:#4f88bb;font-family:Calibri"
         y="24.151058"
         x="476.91937"
         xml:space="preserve">Interface</text>
      <text
         id="text3626"
         style="font-size:16.2372036px;font-style:normal;font-weight:normal;text-align:start;text-anchor:start;fill:#4f88bb;font-family:Calibri"
         y="24.151058"
         x="537.92328"
         xml:space="preserve">&gt;&gt;</text>
      <text
         id="text3628"
         style="font-size:19.98425102px;font-style:normal;font-weight:normal;text-align:start;text-anchor:start;fill:#4f88bb;font-family:Calibri"
         y="53.800598"
         x="460.33121"
         xml:space="preserve">ClientInterface</text>
      <path
         id="path3630"
         d="m 457.76425,99.843192 2.57609,0 0,1.249018 -2.57609,0 0,-1.249018 z m 3.82511,0 2.49803,0 0,1.249018 -2.49803,0 0,-1.249018 z m 3.74705,0 2.49803,0 0,1.249018 -2.49803,0 0,-1.249018 z m 3.74704,0 2.49804,0 0,1.249018 -2.49804,0 0,-1.249018 z m 3.74705,0 2.49803,0 0,1.249018 -2.49803,0 0,-1.249018 z m 3.74705,0 2.49803,0 0,1.249018 -2.49803,0 0,-1.249018 z m 3.74705,0 2.49803,0 0,1.249018 -2.49803,0 0,-1.249018 z m 3.74704,0 2.49803,0 0,1.249018 -2.49803,0 0,-1.249018 z m 3.74705,0 2.49803,0 0,1.249018 -2.49803,0 0,-1.249018 z m 3.74705,0 2.49803,0 0,1.249018 -2.49803,0 0,-1.249018 z m 3.74704,0 2.49804,0 0,1.249018 -2.49804,0 0,-1.249018 z m 3.74705,0 2.49803,0 0,1.249018 -2.49803,0 0,-1.249018 z m 3.74705,0 2.49803,0 0,1.249018 -2.49803,0 0,-1.249018 z m 3.74705,0 2.49803,0 0,1.249018 -2.49803,0 0,-1.249018 z m 3.74704,0 2.49803,0 0,1.249018 -2.49803,0 0,-1.249018 z m 3.74705,0 2.49803,0 0,1.249018 -2.49803,0 0,-1.249018 z m 3.74705,0 2.49803,0 0,1.249018 -2.49803,0 0,-1.249018 z m 3.74704,0 2.49803,0 0,1.249018 -2.49803,0 0,-1.249018 z m 3.74705,0 2.49803,0 0,1.249018 -2.49803,0 0,-1.249018 z m 3.74705,0 2.49803,0 0,1.249018 -2.49803,0 0,-1.249018 z m 3.74704,0 2.49804,0 0,1.249018 -2.49804,0 0,-1.249018 z m 3.74705,0 2.5761,0 0,1.249018 -2.5761,0 0,-1.249018 z m 3.82511,0 2.49803,0 0,1.249018 -2.49803,0 0,-1.249018 z m 3.74705,0 2.49803,0 0,1.249018 -2.49803,0 0,-1.249018 z m 3.74705,0 2.49803,0 0,1.249018 -2.49803,0 0,-1.249018 z m 3.74704,0 2.49803,0 0,1.249018 -2.49803,0 0,-1.249018 z m 3.74705,0 2.49803,0 0,1.249018 -2.49803,0 0,-1.249018 z m 3.74705,0 2.49803,0 0,1.249018 -2.49803,0 0,-1.249018 z m 3.74704,0 2.49804,0 0,1.249018 -2.49804,0 0,-1.249018 z m 3.74705,0 2.49803,0 0,1.249018 -2.49803,0 0,-1.249018 z m 3.74705,0 2.49803,0 0,1.249018 -2.49803,0 0,-1.249018 z m 3.74705,0 2.49803,0 0,1.249018 -2.49803,0 0,-1.249018 z m 3.74704,0 2.49803,0 0,1.249018 -2.49803,0 0,-1.249018 z m 3.74705,0 2.49803,0 0,1.249018 -2.49803,0 0,-1.249018 z m 3.74705,0 2.49803,0 0,1.249018 -2.49803,0 0,-1.249018 z m 3.74704,0 2.49804,0 0,1.249018 -2.49804,0 0,-1.249018 z m 3.74705,0 2.49803,0 0,1.249018 -2.49803,0 0,-1.249018 z m 3.74705,0 2.49803,0 0,1.249018 -2.49803,0 0,-1.249018 z m 3.74705,0 2.49803,0 0,1.249018 -2.49803,0 0,-1.249018 z m 3.74704,0 2.49803,0 0,1.249018 -2.49803,0 0,-1.249018 z m 3.74705,0 2.49803,0 0,1.249018 -2.49803,0 0,-1.249018 z m 3.74705,0 2.49803,0 0,1.249018 -2.49803,0 0,-1.249018 z m 3.82511,0 2.49803,0 0,1.249018 -2.49803,0 0,-1.249018 z m 3.74704,0 2.49804,0 0,1.249018 -2.49804,0 0,-1.249018 z m 3.74705,0 2.49803,0 0,1.249018 -2.49803,0 0,-1.249018 z m 3.74705,0 2.49803,0 0,1.249018 -2.49803,0 0,-1.249018 z m 3.74705,0 2.49803,0 0,1.249018 -2.49803,0 0,-1.249018 z m 3.74704,0 2.49803,0 0,1.249018 -2.49803,0 0,-1.249018 z m 3.74705,0 2.49803,0 0,1.249018 -2.49803,0 0,-1.249018 z m 3.74705,0 2.49803,0 0,1.249018 -2.49803,0 0,-1.249018 z m 3.74704,0 2.49804,0 0,1.249018 -2.49804,0 0,-1.249018 z m 3.74705,0 2.49803,0 0,1.249018 -2.49803,0 0,-1.249018 z m 3.74705,0 2.49803,0 0,1.249018 -2.49803,0 0,-1.249018 z m 3.74704,0 2.49804,0 0,1.249018 -2.49804,0 0,-1.249018 z m 3.74705,0 2.49803,0 0,1.249018 -2.49803,0 0,-1.249018 z m 3.74705,0 2.49803,0 0,1.249018 -2.49803,0 0,-1.249018 z m 3.74705,0 2.49803,0 0,1.249018 -2.49803,0 0,-1.249018 z m 3.74704,0 2.49803,0 0,1.249018 -2.49803,0 0,-1.249018 z m 3.74705,0 2.49803,0 0,1.249018 -2.49803,0 0,-1.249018 z m 3.74705,0 2.49803,0 0,1.249018 -2.49803,0 0,-1.249018 z m 3.74704,0 2.49804,0 0,1.249018 -2.49804,0 0,-1.249018 z m 3.74705,0 2.49803,0 0,1.249018 -2.49803,0 0,-1.249018 z m 3.74705,0 2.57609,0 0,1.249018 -2.57609,0 0,-1.249018 z m 3.82511,0 2.49803,0 0,1.249018 -2.49803,0 0,-1.249018 z m 3.74705,0 2.49803,0 0,1.249018 -2.49803,0 0,-1.249018 z m 3.74704,0 2.49803,0 0,1.249018 -2.49803,0 0,-1.249018 z m 3.74705,0 2.49803,0 0,1.249018 -2.49803,0 0,-1.249018 z m 3.74705,0 2.49803,0 0,1.249018 -2.49803,0 0,-1.249018 z m 3.74704,0 2.49804,0 0,1.249018 -2.49804,0 0,-1.249018 z m 3.74705,0 2.49803,0 0,1.249018 -2.49803,0 0,-1.249018 z m 3.74705,0 2.49803,0 0,1.249018 -2.49803,0 0,-1.249018 z m 3.74705,0 2.49803,0 0,1.249018 -2.49803,0 0,-1.249018 z m 3.74704,0 2.49803,0 0,1.249018 -2.49803,0 0,-1.249018 z m 3.74705,0 2.49803,0 0,1.249018 -2.49803,0 0,-1.249018 z m 3.74705,0 2.49803,0 0,1.249018 -2.49803,0 0,-1.249018 z m 3.74704,0 2.49804,0 0,1.249018 -2.49804,0 0,-1.249018 z m 3.74705,0 2.49803,0 0,1.249018 -2.49803,0 0,-1.249018 z m 3.74705,0 2.49803,0 0,1.249018 -2.49803,0 0,-1.249018 z m 3.74705,0 2.49803,0 0,1.249018 -2.49803,0 0,-1.249018 z m 3.74704,0 1.09289,0 0,1.249018 -1.09289,0 0,-1.249018 z"
         style="fill:#c8c8c8;fill-opacity:1;fill-rule:nonzero;stroke:#c8c8c8;stroke-width:0.07806348px;stroke-linecap:butt;stroke-linejoin:round;stroke-opacity:1;stroke-dasharray:none"
         inkscape:connector-curvature="0" />
      <path
         id="path3632"
         d="m 606.47518,221.2319 0,-76.11189"
         style="fill:none;stroke:#5b9bd5;stroke-width:1.63933313px;stroke-linecap:round;stroke-linejoin:round;stroke-opacity:1;stroke-dasharray:none"
         inkscape:connector-curvature="0" />
      <path
         id="path3634"
         d="m 612.32994,145.12001 -5.85476,-17.64235 -5.85476,17.64235 11.70952,0 z"
         style="fill:none;stroke:#5b9bd5;stroke-width:1.63933313px;stroke-linecap:round;stroke-linejoin:round;stroke-opacity:1;stroke-dasharray:none"
         inkscape:connector-curvature="0" />
    </g>
  </g>
  <style
     id="style2987"
     type="text/css">
	
		.st1 {visibility:visible}
		.st2 {fill:#5b9bd5;fill-opacity:0.25;filter:url(#filter_2);stroke:#5b9bd5;stroke-opacity:0.25}
		.st3 {fill:#4f87bb;stroke:#40709c;stroke-width:0.75}
		.st4 {fill:#ffffff;font-family:Calibri;font-size:0.833336em;font-stretch:semi-expanded}
		.st5 {fill:#ffffff;stroke:#40709c;stroke-width:0.75}
		.st6 {fill:#f2f2f2;stroke:#4f87bb;stroke-width:0.75}
		.st7 {fill:url(#grad0-33);stroke:#4f87bb;stroke-width:0.75}
		.st8 {fill:#4f87bb;font-family:Calibri;font-size:1.00001em}
		.st9 {fill:#5b9bd5;fill-opacity:0.22;filter:url(#filter_2)}
		.st10 {stroke:#5b9bd5;stroke-opacity:0.22;stroke-width:0.25;visibility:hidden}
		.st11 {fill:#5b9bd5;fill-opacity:0}
		.st12 {stroke:#c8c8c8;stroke-width:0.25;visibility:hidden}
		.st13 {fill:#5b9bd5}
		.st14 {stroke:#c8c8c8;stroke-dasharray:0.5,0.25;stroke-linecap:butt;stroke-width:0.25}
		.st15 {fill:#4f88bb;font-family:Calibri;font-size:0.833336em}
		.st16 {font-size:1em}
		.st17 {marker-end:url(#mrkr12-62);stroke:#5b9bd5;stroke-linecap:round;stroke-linejoin:round;stroke-width:1}
		.st18 {fill:#5b9bd5;fill-opacity:1;stroke:#5b9bd5;stroke-opacity:1;stroke-width:0.28409090909091}
		.st19 {fill:none;fill-rule:evenodd;font-size:12px;overflow:visible;stroke-linecap:square;stroke-miterlimit:3}
	
	</style>
</svg>
