<?xml version="1.0" encoding="UTF-8" standalone="no"?>
<!-- Created with Inkscape (http://www.inkscape.org/) -->

<svg
   xmlns:dc="http://purl.org/dc/elements/1.1/"
   xmlns:cc="http://creativecommons.org/ns#"
   xmlns:rdf="http://www.w3.org/1999/02/22-rdf-syntax-ns#"
   xmlns:svg="http://www.w3.org/2000/svg"
   xmlns="http://www.w3.org/2000/svg"
   xmlns:sodipodi="http://sodipodi.sourceforge.net/DTD/sodipodi-0.dtd"
   xmlns:inkscape="http://www.inkscape.org/namespaces/inkscape"
   width="493.52335"
   height="97.486832"
   id="svg3663"
   version="1.1"
   inkscape:version="0.48.4 r9939"
   sodipodi:docname="New document 7">
  <defs
     id="defs3" />
  <sodipodi:namedview
     inkscape:document-units="mm"
     id="base"
     pagecolor="#ffffff"
     bordercolor="#666666"
     borderopacity="1.0"
     inkscape:pageopacity="0.0"
     inkscape:pageshadow="2"
     inkscape:zoom="0.84528076"
     inkscape:cx="302.11682"
     inkscape:cy="-122.28652"
     inkscape:current-layer="layer1"
     showgrid="false"
     units="mm"
     fit-margin-top="0"
     fit-margin-left="0"
     fit-margin-right="0"
     fit-margin-bottom="0"
     inkscape:window-width="1920"
     inkscape:window-height="1178"
     inkscape:window-x="-8"
     inkscape:window-y="-8"
     inkscape:window-maximized="1" />
  <metadata
     id="metadata4">
    <rdf:RDF>
      <cc:Work
         rdf:about="">
        <dc:format>image/svg+xml</dc:format>
        <dc:type
           rdf:resource="http://purl.org/dc/dcmitype/StillImage" />
        <dc:title></dc:title>
      </cc:Work>
    </rdf:RDF>
  </metadata>
  <g
     inkscape:label="Layer 1"
     inkscape:groupmode="layer"
     id="layer1"
     transform="translate(-130.41598,-348.83505)">
    <g
       id="g3673"
       transform="matrix(0.63677865,0,0,0.63677865,126.7943,346.94461)">
      <path
         id="path3675"
         d="m 6.3231419,3.5909201 0,35.4408199 191.1774681,0 0,-35.4408199 -191.1774681,0 z"
         style="fill:#4f88bb;fill-opacity:1;fill-rule:evenodd;stroke:none"
         inkscape:connector-curvature="0" />
      <path
         id="path3677"
         d="m 6.3231419,39.03174 191.1774681,0 0,-35.4408199 -191.1774681,0 0,35.4408199 z"
         style="fill:none;stroke:#41719c;stroke-width:1.24901569px;stroke-linecap:square;stroke-linejoin:miter;stroke-miterlimit:4;stroke-opacity:1;stroke-dasharray:none"
         inkscape:connector-curvature="0" />
      <path
         id="path3679"
         d="m 24.980314,18.891362 c 0,0.546445 -0.07806,1.014826 -0.312254,1.405143 -0.156127,0.390317 -0.468381,0.780635 -0.780635,1.092889 -0.390317,0.312254 -0.780635,0.546444 -1.327079,0.702571 -0.546444,0.156127 -1.092889,0.23419 -1.873524,0.23419 l -1.249015,0 0,3.747048 c 0,0.07806 -0.07806,0.07806 -0.07806,0.156126 0,0 -0.07806,0.07806 -0.156127,0.07806 0,0 -0.07806,0 -0.23419,0.07806 -0.07806,0 -0.156127,0 -0.312254,0 -0.156127,0 -0.312254,0 -0.390318,0 -0.07806,-0.07806 -0.156127,-0.07806 -0.23419,-0.07806 -0.07806,0 -0.07806,-0.07806 -0.156127,-0.07806 0,-0.07806 0,-0.07806 0,-0.156126 l 0,-9.679872 c 0,-0.234191 0.07806,-0.390317 0.156127,-0.468381 0.156127,-0.07806 0.312254,-0.156127 0.468381,-0.156127 l 2.419968,0 c 0.312254,0 0.546444,0 0.780635,0.07806 0.156127,0 0.46838,0 0.780634,0.07806 0.312254,0.07806 0.624508,0.23419 0.936762,0.390317 0.312254,0.156127 0.624508,0.390318 0.858698,0.624508 0.234191,0.234191 0.390318,0.546445 0.546445,0.858699 0.07806,0.312253 0.156127,0.702571 0.156127,1.092888 z m -1.639333,0.07806 c 0,-0.390318 -0.07806,-0.780635 -0.234191,-1.014825 -0.156127,-0.312254 -0.390317,-0.546445 -0.702571,-0.702572 -0.234191,-0.07806 -0.468381,-0.23419 -0.780635,-0.23419 -0.23419,-0.07806 -0.546444,-0.07806 -0.780635,-0.07806 l -1.405142,0 0,4.215428 1.327079,0 c 0.468381,0 0.858698,0 1.170952,-0.156127 0.312254,-0.07806 0.546444,-0.23419 0.780635,-0.468381 0.23419,-0.156127 0.390317,-0.390317 0.468381,-0.702571 0.07806,-0.23419 0.156127,-0.546444 0.156127,-0.858698 z m 11.865649,3.434793 c 0,0.546444 -0.156127,1.092889 -0.312254,1.639333 -0.156127,0.468381 -0.390318,0.936762 -0.780635,1.249016 -0.312254,0.390317 -0.780635,0.702571 -1.249016,0.858698 -0.546444,0.23419 -1.092888,0.312254 -1.79546,0.312254 -0.702571,0 -1.249015,-0.07806 -1.717396,-0.234191 -0.546445,-0.23419 -0.936762,-0.46838 -1.249016,-0.780634 -0.312254,-0.390318 -0.546444,-0.780635 -0.702571,-1.249016 -0.234191,-0.468381 -0.312254,-1.092889 -0.312254,-1.639333 0,-0.624508 0.07806,-1.170952 0.312254,-1.717397 0.156127,-0.468381 0.390317,-0.936761 0.780634,-1.249015 0.312254,-0.390318 0.702572,-0.624508 1.249016,-0.858699 0.546445,-0.23419 1.092889,-0.312254 1.79546,-0.312254 0.624508,0 1.249016,0.07806 1.717397,0.312254 0.468381,0.156127 0.936762,0.390318 1.249015,0.780635 0.312254,0.312254 0.546445,0.702571 0.702572,1.170952 0.156127,0.546445 0.312254,1.092889 0.312254,1.717397 z m -1.56127,0.07806 c 0,-0.390317 -0.07806,-0.780634 -0.156127,-1.170952 -0.07806,-0.312254 -0.156127,-0.624508 -0.390317,-0.858698 -0.156127,-0.312254 -0.390318,-0.546444 -0.702572,-0.702571 -0.390317,-0.156127 -0.780634,-0.234191 -1.249015,-0.234191 -0.390318,0 -0.780635,0.07806 -1.092889,0.234191 -0.312254,0.156127 -0.624508,0.390317 -0.780635,0.624507 -0.23419,0.234191 -0.390317,0.546445 -0.468381,0.936762 -0.07806,0.312254 -0.156127,0.702572 -0.156127,1.092889 0,0.468381 0.07806,0.780635 0.156127,1.170952 0.07806,0.312254 0.156127,0.624508 0.390318,0.936762 0.156127,0.23419 0.390317,0.468381 0.780635,0.624508 0.312253,0.156127 0.702571,0.23419 1.170952,0.23419 0.390317,0 0.780635,-0.07806 1.092888,-0.23419 0.312254,-0.156127 0.624508,-0.312254 0.780635,-0.624508 0.234191,-0.234191 0.390318,-0.546444 0.468381,-0.858698 0.07806,-0.390318 0.156127,-0.780635 0.156127,-1.170953 z m 9.679872,3.668984 c 0,0 0,0.07806 0,0.07806 -0.07806,0 -0.07806,0.07806 -0.156127,0.07806 0,0 -0.07806,0 -0.156127,0.07806 -0.07806,0 -0.234191,0 -0.312254,0 -0.156127,0 -0.234191,0 -0.312254,0 -0.07806,-0.07806 -0.156127,-0.07806 -0.23419,-0.07806 -0.07806,0 -0.07806,-0.07806 -0.07806,-0.07806 -0.07806,0 -0.07806,-0.07806 -0.07806,-0.07806 l 0,-1.014825 c -0.390318,0.468381 -0.858699,0.780635 -1.32708,1.014825 -0.468381,0.23419 -0.936761,0.312254 -1.483206,0.312254 -0.624508,0 -1.092888,-0.07806 -1.483206,-0.312254 -0.468381,-0.23419 -0.780635,-0.468381 -1.014825,-0.858698 -0.312254,-0.312254 -0.468381,-0.780635 -0.624508,-1.249016 -0.07806,-0.468381 -0.156127,-0.936762 -0.156127,-1.483206 0,-0.624508 0.07806,-1.249016 0.23419,-1.717397 0.156127,-0.468381 0.390318,-0.936761 0.624508,-1.327079 0.312254,-0.312254 0.702572,-0.624508 1.092889,-0.780635 0.468381,-0.23419 0.936762,-0.312254 1.56127,-0.312254 0.468381,0 0.858698,0.07806 1.249015,0.312254 0.390318,0.156127 0.780635,0.468381 1.170953,0.780635 l 0,-4.215428 c 0,-0.07806 0,-0.07806 0,-0.156127 0.07806,0 0.07806,0 0.156127,-0.07806 0.07806,0 0.156127,0 0.23419,0 0.07806,0 0.23419,-0.07806 0.312254,-0.07806 0.156127,0 0.312254,0.07806 0.390317,0.07806 0.07806,0 0.156127,0 0.234191,0 0.07806,0.07806 0.07806,0.07806 0.07806,0.07806 0.07806,0.07806 0.07806,0.07806 0.07806,0.156127 z m -1.483206,-5.15219 c -0.390318,-0.468381 -0.780635,-0.858698 -1.170953,-1.092888 -0.390317,-0.234191 -0.780634,-0.312254 -1.170952,-0.312254 -0.390317,0 -0.702571,0.07806 -0.936762,0.23419 -0.23419,0.156127 -0.46838,0.390317 -0.624507,0.624508 -0.156127,0.312254 -0.312254,0.624508 -0.390318,0.936762 -0.07806,0.312254 -0.07806,0.702571 -0.07806,1.014825 0,0.390317 0,0.702571 0.07806,1.092889 0.07806,0.312254 0.156127,0.624507 0.312254,0.936761 0.156127,0.234191 0.390317,0.468381 0.624508,0.624508 0.23419,0.156127 0.546444,0.234191 0.936762,0.234191 0.23419,0 0.390317,0 0.624508,0 0.156126,-0.07806 0.312253,-0.156127 0.546444,-0.312254 0.156127,-0.07806 0.390317,-0.234191 0.546444,-0.390318 0.234191,-0.23419 0.468381,-0.390317 0.702572,-0.702571 z m 9.601808,3.122539 c 0,0.390318 -0.07806,0.702572 -0.234191,1.014826 -0.156127,0.312254 -0.312254,0.546444 -0.624508,0.702571 -0.23419,0.234191 -0.624507,0.390317 -1.014825,0.468381 -0.390317,0.07806 -0.780635,0.156127 -1.249016,0.156127 -0.312253,0 -0.546444,0 -0.858698,-0.07806 -0.23419,0 -0.468381,-0.07806 -0.702571,-0.156127 -0.156127,0 -0.312254,-0.07806 -0.468381,-0.156126 -0.156127,-0.07806 -0.23419,-0.156127 -0.312254,-0.156127 -0.07806,-0.07806 -0.156127,-0.156127 -0.156127,-0.234191 0,-0.156127 -0.07806,-0.23419 -0.07806,-0.390317 0,-0.156127 0,-0.234191 0.07806,-0.312254 0,-0.07806 0,-0.07806 0,-0.156127 0,-0.07806 0.07806,-0.07806 0.07806,-0.07806 0.07806,0 0.07806,-0.07806 0.156127,-0.07806 0,0 0.156126,0.07806 0.23419,0.156127 0.156127,0.07806 0.312254,0.156127 0.468381,0.23419 0.23419,0.07806 0.468381,0.156127 0.702571,0.234191 0.234191,0.07806 0.546445,0.07806 0.858698,0.07806 0.234191,0 0.468381,0 0.702572,-0.07806 0.23419,0 0.390317,-0.07806 0.546444,-0.156127 0.156127,-0.156127 0.234191,-0.234191 0.312254,-0.390318 0.07806,-0.156127 0.156127,-0.312254 0.156127,-0.546444 0,-0.156127 -0.07806,-0.312254 -0.23419,-0.468381 -0.07806,-0.156127 -0.234191,-0.312254 -0.390318,-0.390317 -0.23419,-0.07806 -0.468381,-0.234191 -0.702571,-0.312254 -0.234191,-0.07806 -0.468381,-0.156127 -0.702571,-0.234191 -0.234191,-0.07806 -0.546445,-0.23419 -0.780635,-0.312254 -0.234191,-0.156127 -0.468381,-0.23419 -0.624508,-0.46838 -0.156127,-0.156127 -0.312254,-0.312254 -0.468381,-0.546445 -0.07806,-0.23419 -0.156127,-0.546444 -0.156127,-0.858698 0,-0.312254 0.07806,-0.546444 0.156127,-0.858698 0.156127,-0.234191 0.312254,-0.468381 0.546444,-0.702572 0.234191,-0.156127 0.546445,-0.312254 0.936762,-0.468381 0.390318,-0.07806 0.780635,-0.156127 1.249016,-0.156127 0.23419,0 0.468381,0 0.702571,0.07806 0.156127,0 0.390318,0.07806 0.546445,0.07806 0.156126,0.07806 0.312253,0.156127 0.46838,0.156127 0.07806,0.07806 0.234191,0.156127 0.234191,0.156127 0.07806,0.07806 0.156127,0.07806 0.156127,0.156127 0,0 0,0.07806 0.07806,0.07806 0,0.07806 0,0.07806 0,0.156127 0,0.07806 0,0.156127 0,0.23419 0,0.07806 0,0.156127 0,0.234191 0,0.07806 0,0.156127 -0.07806,0.156127 0,0.07806 0,0.07806 -0.07806,0.07806 0,0.07806 0,0.07806 -0.07806,0.07806 -0.07806,0 -0.156127,-0.07806 -0.234191,-0.156127 -0.07806,0 -0.23419,-0.07806 -0.390317,-0.156127 -0.156127,-0.07806 -0.312254,-0.156127 -0.546444,-0.156127 -0.234191,-0.07806 -0.468381,-0.156127 -0.780635,-0.156127 -0.234191,0 -0.468381,0.07806 -0.624508,0.07806 -0.23419,0.07806 -0.390317,0.156127 -0.468381,0.234191 -0.156127,0.07806 -0.23419,0.23419 -0.312254,0.390317 -0.07806,0.07806 -0.07806,0.23419 -0.07806,0.390317 0,0.234191 0.07806,0.390318 0.156127,0.546445 0.156127,0.156127 0.312254,0.23419 0.468381,0.390317 0.23419,0.07806 0.390317,0.156127 0.702571,0.234191 0.23419,0.156127 0.468381,0.23419 0.702571,0.312254 0.234191,0.07806 0.546445,0.156126 0.780635,0.312253 0.23419,0.07806 0.468381,0.234191 0.624508,0.390318 0.23419,0.156127 0.390317,0.390317 0.468381,0.624508 0.156127,0.23419 0.156127,0.468381 0.156127,0.780634 z m 6.167015,2.185778 -1.092889,2.732222 c -0.07806,0.07806 -0.156127,0.156127 -0.312254,0.156127 -0.156127,0.07806 -0.312254,0.07806 -0.624508,0.07806 -0.156127,0 -0.312254,0 -0.390317,0 -0.07806,0 -0.156127,-0.07806 -0.234191,-0.07806 0,0 -0.07806,-0.07806 -0.07806,-0.156127 0,0 0,-0.07806 0.07806,-0.156127 l 1.092889,-2.576095 c -0.07806,0 -0.07806,-0.07806 -0.156127,-0.07806 -0.07806,-0.07806 -0.07806,-0.07806 -0.07806,-0.156126 L 52.92704,19.047489 c -0.07806,-0.07806 -0.07806,-0.156127 -0.07806,-0.23419 0,-0.07806 0,-0.156127 0.07806,-0.156127 0.07806,-0.07806 0.156127,-0.07806 0.23419,-0.07806 0.07806,0 0.234191,0 0.390318,0 0.23419,0 0.312254,0 0.468381,0 0.07806,0 0.156127,0 0.23419,0 0.07806,0.07806 0.07806,0.07806 0.156127,0.07806 0,0.07806 0,0.156127 0.07806,0.23419 l 2.263841,5.854761 0,0 2.263841,-5.932824 c 0,-0.07806 0.07806,-0.156127 0.07806,-0.156127 0.07806,-0.07806 0.156127,-0.07806 0.23419,-0.07806 0.156127,0 0.312254,0 0.468381,0 0.156127,0 0.312254,0 0.390318,0 0.156126,0 0.23419,0 0.23419,0.07806 0.07806,0 0.07806,0.07806 0.07806,0.156127 0,0.07806 0,0.156127 0,0.23419 z m 8.821173,-2.185778 c 0,0.390318 -0.07806,0.702572 -0.23419,1.014826 -0.156127,0.312254 -0.312254,0.546444 -0.624508,0.702571 -0.234191,0.234191 -0.624508,0.390317 -1.014826,0.468381 -0.390317,0.07806 -0.780634,0.156127 -1.249015,0.156127 -0.312254,0 -0.546445,0 -0.858699,-0.07806 -0.23419,0 -0.46838,-0.07806 -0.702571,-0.156127 -0.156127,0 -0.312254,-0.07806 -0.468381,-0.156126 -0.156127,-0.07806 -0.23419,-0.156127 -0.312254,-0.156127 -0.07806,-0.07806 -0.156127,-0.156127 -0.156127,-0.234191 0,-0.156127 -0.07806,-0.23419 -0.07806,-0.390317 0,-0.156127 0,-0.234191 0.07806,-0.312254 0,-0.07806 0,-0.07806 0,-0.156127 0,-0.07806 0.07806,-0.07806 0.07806,-0.07806 0.07806,0 0.07806,-0.07806 0.156127,-0.07806 0,0 0.156127,0.07806 0.23419,0.156127 0.156127,0.07806 0.312254,0.156127 0.468381,0.23419 0.234191,0.07806 0.468381,0.156127 0.702571,0.234191 0.234191,0.07806 0.546445,0.07806 0.858699,0.07806 0.23419,0 0.468381,0 0.702571,-0.07806 0.23419,0 0.390317,-0.07806 0.546444,-0.156127 0.156127,-0.156127 0.234191,-0.234191 0.312254,-0.390318 0.07806,-0.156127 0.156127,-0.312254 0.156127,-0.546444 0,-0.156127 -0.07806,-0.312254 -0.23419,-0.468381 -0.07806,-0.156127 -0.234191,-0.312254 -0.390318,-0.390317 -0.23419,-0.07806 -0.46838,-0.234191 -0.702571,-0.312254 -0.23419,-0.07806 -0.468381,-0.156127 -0.702571,-0.234191 -0.234191,-0.07806 -0.546445,-0.23419 -0.780635,-0.312254 -0.23419,-0.156127 -0.468381,-0.23419 -0.624508,-0.46838 -0.156127,-0.156127 -0.312254,-0.312254 -0.468381,-0.546445 -0.07806,-0.23419 -0.156127,-0.546444 -0.156127,-0.858698 0,-0.312254 0.07806,-0.546444 0.156127,-0.858698 0.156127,-0.234191 0.312254,-0.468381 0.546445,-0.702572 0.23419,-0.156127 0.546444,-0.312254 0.936761,-0.468381 0.390318,-0.07806 0.780635,-0.156127 1.249016,-0.156127 0.234191,0 0.468381,0 0.702571,0.07806 0.156127,0 0.390318,0.07806 0.546445,0.07806 0.156127,0.07806 0.312254,0.156127 0.468381,0.156127 0.07806,0.07806 0.23419,0.156127 0.23419,0.156127 0.07806,0.07806 0.156127,0.07806 0.156127,0.156127 0,0 0,0.07806 0.07806,0.07806 0,0.07806 0,0.07806 0,0.156127 0,0.07806 0,0.156127 0,0.23419 0,0.07806 0,0.156127 0,0.234191 0,0.07806 0,0.156127 -0.07806,0.156127 0,0.07806 0,0.07806 -0.07806,0.07806 0,0.07806 0,0.07806 -0.07806,0.07806 -0.07806,0 -0.156127,-0.07806 -0.23419,-0.156127 -0.07806,0 -0.234191,-0.07806 -0.390318,-0.156127 -0.156127,-0.07806 -0.312254,-0.156127 -0.546444,-0.156127 -0.234191,-0.07806 -0.468381,-0.156127 -0.780635,-0.156127 -0.23419,0 -0.468381,0.07806 -0.624508,0.07806 -0.23419,0.07806 -0.390317,0.156127 -0.468381,0.234191 -0.156127,0.07806 -0.23419,0.23419 -0.312254,0.390317 -0.07806,0.07806 -0.07806,0.23419 -0.07806,0.390317 0,0.234191 0.07806,0.390318 0.156127,0.546445 0.156127,0.156127 0.312254,0.23419 0.468381,0.390317 0.23419,0.07806 0.390317,0.156127 0.702571,0.234191 0.234191,0.156127 0.468381,0.23419 0.702571,0.312254 0.234191,0.07806 0.546445,0.156126 0.780635,0.312253 0.234191,0.07806 0.468381,0.234191 0.624508,0.390318 0.234191,0.156127 0.390318,0.390317 0.468381,0.624508 0.156127,0.23419 0.156127,0.468381 0.156127,0.780634 z m 6.635396,1.483207 c 0,0.156127 0,0.23419 0,0.312254 -0.07806,0.156127 -0.07806,0.23419 -0.156127,0.23419 0,0.07806 -0.07806,0.07806 -0.156127,0.156127 -0.156127,0 -0.234191,0.07806 -0.390318,0.07806 -0.07806,0 -0.23419,0 -0.312253,0.07806 -0.156127,0 -0.312254,0 -0.468381,0 -0.390318,0 -0.780635,-0.07806 -1.092889,-0.156127 -0.23419,-0.07806 -0.468381,-0.23419 -0.702571,-0.468381 -0.156127,-0.156127 -0.312254,-0.468381 -0.390318,-0.780635 -0.07806,-0.312254 -0.156127,-0.624508 -0.156127,-1.092888 l 0,-4.293492 -1.092888,0 c -0.07806,0 -0.156127,0 -0.234191,-0.07806 -0.07806,-0.07806 -0.07806,-0.234191 -0.07806,-0.468381 0,-0.07806 0,-0.156127 0,-0.234191 0,-0.07806 0.07806,-0.156127 0.07806,-0.156127 0,-0.07806 0.07806,-0.07806 0.07806,-0.156127 0.07806,0 0.07806,0 0.156127,0 l 1.092888,0 0,-1.717396 c 0,-0.07806 0,-0.07806 0,-0.156127 0.07806,0 0.07806,0 0.156127,-0.07806 0.07806,0 0.156127,0 0.234191,0 0.07806,0 0.23419,-0.07806 0.312254,-0.07806 0.156127,0 0.312254,0.07806 0.390317,0.07806 0.07806,0 0.156127,0 0.23419,0 0.07806,0.07806 0.07806,0.07806 0.156127,0.07806 0,0.07806 0,0.07806 0,0.156127 l 0,1.717396 2.029651,0 c 0.07806,0 0.156127,0 0.156127,0 0.07806,0.07806 0.07806,0.07806 0.07806,0.156127 0.07806,0 0.07806,0.07806 0.07806,0.156127 0,0.07806 0,0.156127 0,0.234191 0,0.23419 0,0.390317 -0.07806,0.468381 0,0.07806 -0.07806,0.07806 -0.23419,0.07806 l -2.029651,0 0,4.137365 c 0,0.46838 0.07806,0.858698 0.234191,1.092888 0.156127,0.312254 0.468381,0.390318 0.858698,0.390318 0.156127,0 0.312254,0 0.390318,0 0.156126,-0.07806 0.23419,-0.07806 0.312253,-0.07806 0.07806,-0.07806 0.156127,-0.07806 0.234191,-0.07806 0,-0.07806 0.07806,-0.07806 0.156127,-0.07806 0,0 0,0 0.07806,0.07806 0,0 0,0 0.07806,0.07806 0,0 0,0.07806 0,0.156127 0,0 0,0.07806 0,0.234191 z m 8.9773,-3.434794 c 0,0.156127 -0.07806,0.312254 -0.23419,0.390318 -0.07806,0.156127 -0.234191,0.156127 -0.390318,0.156127 l -5.308316,0 c 0,0.390317 0.07806,0.780635 0.156127,1.092889 0.07806,0.312253 0.23419,0.624507 0.46838,0.858698 0.234191,0.23419 0.468381,0.390317 0.780635,0.546444 0.390318,0.07806 0.780635,0.156127 1.249016,0.156127 0.390317,0 0.702571,0 1.014825,-0.07806 0.312254,-0.07806 0.546444,-0.07806 0.780635,-0.156127 0.23419,-0.07806 0.390317,-0.156127 0.546444,-0.234191 0.156127,-0.07806 0.234191,-0.07806 0.312254,-0.07806 0.07806,0 0.07806,0 0.156127,0 0,0.07806 0,0.07806 0.07806,0.156127 0,0 0,0.07806 0,0.156127 0,0 0,0.156127 0,0.23419 0,0.07806 0,0.07806 0,0.156127 0,0.07806 0,0.07806 0,0.156127 0,0 0,0.07806 -0.07806,0.07806 0,0.07806 0,0.07806 -0.07806,0.07806 0,0.07806 -0.07806,0.07806 -0.234191,0.156127 -0.23419,0.07806 -0.390317,0.156127 -0.624508,0.23419 -0.312254,0.07806 -0.624507,0.07806 -0.936761,0.156127 -0.312254,0.07806 -0.702572,0.07806 -1.092889,0.07806 -0.624508,0 -1.249016,-0.07806 -1.717397,-0.234191 C 76.42415,26.073191 75.95577,25.839 75.643516,25.448683 75.331262,25.136429 75.019008,24.746111 74.862881,24.199667 74.706754,23.731286 74.62869,23.184842 74.62869,22.48227 c 0,-0.624507 0.07806,-1.170952 0.234191,-1.717396 0.156127,-0.468381 0.468381,-0.936762 0.780635,-1.249016 0.312254,-0.312254 0.780634,-0.624508 1.249015,-0.780635 0.468381,-0.23419 1.014826,-0.312254 1.56127,-0.312254 0.624508,0 1.170952,0.07806 1.639333,0.312254 0.468381,0.156127 0.780635,0.390318 1.092889,0.702572 0.312254,0.312254 0.468381,0.702571 0.624508,1.092888 0.156127,0.468381 0.23419,0.858699 0.23419,1.32708 z m -1.483206,-0.390317 c 0,-0.780635 -0.156127,-1.327079 -0.546444,-1.717396 -0.390318,-0.390318 -0.936762,-0.546445 -1.639334,-0.546445 -0.312253,0 -0.702571,0 -0.936761,0.156127 -0.312254,0.156127 -0.546445,0.312254 -0.702572,0.468381 -0.156127,0.23419 -0.312254,0.468381 -0.390317,0.780635 -0.156127,0.23419 -0.23419,0.546444 -0.23419,0.858698 z m 15.300442,4.371555 c 0,0 -0.07806,0.07806 -0.07806,0.07806 0,0 -0.07806,0.07806 -0.07806,0.07806 -0.07806,0 -0.156127,0 -0.23419,0.07806 -0.07806,0 -0.234191,0 -0.390318,0 -0.156127,0 -0.23419,0 -0.312254,0 -0.156127,-0.07806 -0.23419,-0.07806 -0.23419,-0.07806 -0.07806,0 -0.156127,-0.07806 -0.156127,-0.07806 0,0 0,-0.07806 0,-0.07806 l 0,-4.449618 c 0,-0.312254 -0.07806,-0.624508 -0.156127,-0.858699 0,-0.312254 -0.156127,-0.468381 -0.23419,-0.702571 -0.156127,-0.156127 -0.312254,-0.312254 -0.546445,-0.390317 -0.156127,-0.07806 -0.390317,-0.156127 -0.702571,-0.156127 -0.312254,0 -0.702571,0.156127 -1.014825,0.390317 -0.312254,0.23419 -0.702572,0.546444 -1.092889,1.014825 l 0,5.15219 c 0,0 -0.07806,0.07806 -0.07806,0.07806 0,0 -0.07806,0.07806 -0.07806,0.07806 -0.07806,0 -0.156127,0 -0.23419,0.07806 -0.156127,0 -0.234191,0 -0.390318,0 -0.156127,0 -0.23419,0 -0.312254,0 -0.156127,-0.07806 -0.23419,-0.07806 -0.23419,-0.07806 -0.07806,0 -0.156127,-0.07806 -0.156127,-0.07806 0,0 0,-0.07806 0,-0.07806 l 0,-4.449618 c 0,-0.312254 -0.07806,-0.624508 -0.156127,-0.858699 0,-0.312254 -0.156127,-0.468381 -0.234191,-0.702571 -0.156127,-0.156127 -0.312254,-0.312254 -0.546444,-0.390317 -0.156127,-0.07806 -0.390317,-0.156127 -0.702571,-0.156127 -0.312254,0 -0.702572,0.156127 -1.014826,0.390317 -0.312253,0.23419 -0.702571,0.546444 -1.092888,1.014825 l 0,5.15219 c 0,0 -0.07806,0.07806 -0.07806,0.07806 0,0 -0.07806,0.07806 -0.07806,0.07806 -0.07806,0 -0.156127,0 -0.234191,0.07806 -0.156127,0 -0.23419,0 -0.390317,0 -0.156127,0 -0.234191,0 -0.390317,0 -0.07806,-0.07806 -0.156127,-0.07806 -0.156127,-0.07806 -0.07806,0 -0.156127,-0.07806 -0.156127,-0.07806 0,0 0,-0.07806 0,-0.07806 l 0,-7.337967 c 0,-0.07806 0,-0.07806 0,-0.156127 0,0 0.07806,0 0.07806,-0.07806 0.07806,0 0.156127,0 0.234191,0 0.07806,0 0.156126,0 0.312253,0 0.156127,0 0.234191,0 0.312254,0 0.156127,0 0.156127,0 0.234191,0 0.07806,0.07806 0.07806,0.07806 0.07806,0.07806 0.07806,0.07806 0.07806,0.07806 0.07806,0.156127 l 0,0.936762 c 0.468381,-0.468381 0.858698,-0.780635 1.327079,-1.014826 0.390317,-0.23419 0.858698,-0.312254 1.249016,-0.312254 0.312254,0 0.624507,0.07806 0.936761,0.07806 0.234191,0.07806 0.468381,0.23419 0.702572,0.312254 0.156127,0.156127 0.312254,0.312254 0.468381,0.468381 0.156127,0.156127 0.312254,0.390317 0.390317,0.624508 0.23419,-0.312254 0.546444,-0.546445 0.780635,-0.702572 0.23419,-0.156127 0.468381,-0.312254 0.702571,-0.468381 0.156127,-0.07806 0.390318,-0.156127 0.624508,-0.23419 0.23419,-0.07806 0.390317,-0.07806 0.624508,-0.07806 0.546444,0 0.936762,0.07806 1.327079,0.234191 0.312254,0.156127 0.624508,0.390317 0.858698,0.702571 0.234191,0.234191 0.390318,0.546445 0.468381,0.936762 0.07806,0.390317 0.156127,0.780635 0.156127,1.170952 z m 13.661106,0 c 0,0 0,0.07806 0,0.07806 -0.0781,0 -0.0781,0.07806 -0.15612,0.07806 -0.0781,0 -0.0781,0 -0.23419,0.07806 -0.0781,0 -0.15613,0 -0.31226,0 -0.0781,0 -0.23419,0 -0.31225,0 -0.0781,-0.07806 -0.15613,-0.07806 -0.23419,-0.07806 0,0 -0.0781,-0.07806 -0.0781,-0.07806 0,0 0,-0.07806 0,-0.07806 l 0,-1.014825 c -0.46838,0.468381 -0.93676,0.780635 -1.40514,1.014825 -0.39032,0.23419 -0.8587,0.312254 -1.32708,0.312254 -0.54644,0 -1.01482,-0.07806 -1.32708,-0.234191 -0.39031,-0.156126 -0.70257,-0.390317 -0.93676,-0.624507 -0.23419,-0.312254 -0.39032,-0.624508 -0.46838,-1.014826 -0.0781,-0.390317 -0.15613,-0.858698 -0.15613,-1.327079 l 0,-4.449618 c 0,-0.07806 0,-0.07806 0,-0.156127 0.0781,0 0.0781,0 0.15613,-0.07806 0.0781,0 0.15613,0 0.23419,0 0.0781,0 0.23419,0 0.39032,0 0.0781,0 0.23419,0 0.31225,0 0.0781,0 0.15613,0 0.23419,0 0.0781,0.07806 0.0781,0.07806 0.15613,0.07806 0,0.07806 0,0.07806 0,0.156127 l 0,4.215428 c 0,0.468381 0.0781,0.780635 0.0781,1.092888 0.0781,0.234191 0.23419,0.468381 0.31226,0.624508 0.15612,0.156127 0.31225,0.312254 0.54644,0.390318 0.23419,0.156127 0.46838,0.156127 0.78064,0.156127 0.39031,0 0.70257,-0.07806 1.09288,-0.312254 0.39032,-0.234191 0.78064,-0.624508 1.17096,-1.092889 l 0,-5.074126 c 0,-0.07806 0,-0.07806 0,-0.156127 0.0781,0 0.0781,0 0.15612,-0.07806 0.0781,0 0.15613,0 0.23419,0 0.0781,0 0.23419,0 0.31226,0 0.15613,0 0.31225,0 0.39032,0 0.0781,0 0.15612,0 0.23419,0 0.0781,0.07806 0.0781,0.07806 0.0781,0.07806 0.0781,0.07806 0.0781,0.07806 0.0781,0.156127 z m 7.25991,-0.546444 c 0,0.156127 0,0.23419 0,0.312254 -0.0781,0.156127 -0.0781,0.23419 -0.15613,0.23419 0,0.07806 -0.0781,0.07806 -0.15613,0.156127 -0.15612,0 -0.23419,0.07806 -0.39031,0.07806 -0.0781,0 -0.23419,0 -0.31226,0.07806 -0.15613,0 -0.31225,0 -0.46838,0 -0.39032,0 -0.78063,-0.07806 -1.09289,-0.156127 -0.23419,-0.07806 -0.46838,-0.23419 -0.70257,-0.468381 -0.15613,-0.156127 -0.31225,-0.468381 -0.39032,-0.780635 -0.0781,-0.312254 -0.15612,-0.624508 -0.15612,-1.092888 l 0,-4.293492 -1.09289,0 c -0.0781,0 -0.15613,0 -0.23419,-0.07806 -0.0781,-0.07806 -0.0781,-0.234191 -0.0781,-0.468381 0,-0.07806 0,-0.156127 0,-0.234191 0,-0.07806 0.0781,-0.156127 0.0781,-0.156127 0,-0.07806 0.0781,-0.07806 0.0781,-0.156127 0.0781,0 0.0781,0 0.15613,0 l 1.09289,0 0,-1.717396 c 0,-0.07806 0,-0.07806 0,-0.156127 0.0781,0 0.0781,0 0.15612,-0.07806 0.0781,0 0.15613,0 0.23419,0 0.0781,0 0.23419,-0.07806 0.31226,-0.07806 0.15612,0 0.31225,0.07806 0.39032,0.07806 0.0781,0 0.15612,0 0.23419,0 0.0781,0.07806 0.0781,0.07806 0.15612,0.07806 0,0.07806 0,0.07806 0,0.156127 l 0,1.717396 2.02965,0 c 0.0781,0 0.15613,0 0.15613,0 0.0781,0.07806 0.0781,0.07806 0.0781,0.156127 0.0781,0 0.0781,0.07806 0.0781,0.156127 0,0.07806 0,0.156127 0,0.234191 0,0.23419 0,0.390317 -0.0781,0.468381 0,0.07806 -0.0781,0.07806 -0.23419,0.07806 l -2.02965,0 0,4.137365 c 0,0.46838 0.0781,0.858698 0.23419,1.092888 0.15613,0.312254 0.46838,0.390318 0.8587,0.390318 0.15613,0 0.31226,0 0.39032,0 0.15613,-0.07806 0.23419,-0.07806 0.31225,-0.07806 0.0781,-0.07806 0.15613,-0.07806 0.23419,-0.07806 0,-0.07806 0.0781,-0.07806 0.15613,-0.07806 0,0 0,0 0.0781,0.07806 0,0 0,0 0.0781,0.07806 0,0 0,0.07806 0,0.156127 0,0 0,0.07806 0,0.234191 z m 6.79152,-6.323142 c 0,0.07806 0,0.23419 0,0.312254 0,0.07806 0,0.156127 -0.0781,0.156127 0,0.07806 0,0.07806 -0.0781,0.156127 0,0 0,0 -0.0781,0 -0.0781,0 -0.0781,0 -0.15613,0 -0.0781,-0.07806 -0.15612,-0.07806 -0.23419,-0.07806 -0.0781,-0.07806 -0.23419,-0.07806 -0.31225,-0.07806 -0.0781,0 -0.23419,-0.07806 -0.31226,-0.07806 -0.15612,0 -0.31225,0.07806 -0.46838,0.07806 -0.15612,0.07806 -0.31225,0.156127 -0.46838,0.312254 -0.15612,0.07806 -0.31225,0.312253 -0.46838,0.46838 -0.15613,0.234191 -0.39032,0.468381 -0.54644,0.780635 l 0,4.839936 c 0,0 -0.0781,0.07806 -0.0781,0.07806 0,0 -0.0781,0.07806 -0.0781,0.07806 -0.0781,0 -0.15613,0 -0.23419,0.07806 -0.15613,0 -0.23419,0 -0.39032,0 -0.15612,0 -0.23419,0 -0.39032,0 -0.0781,-0.07806 -0.15612,-0.07806 -0.15612,-0.07806 -0.0781,0 -0.15613,-0.07806 -0.15613,-0.07806 0,0 0,-0.07806 0,-0.07806 l 0,-7.337967 c 0,-0.07806 0,-0.07806 0,-0.156127 0,0 0.0781,0 0.0781,-0.07806 0.0781,0 0.15613,0 0.23419,0 0.0781,0 0.15613,0 0.31226,0 0.15613,0 0.23419,0 0.31225,0 0.15613,0 0.15613,0 0.23419,0 0.0781,0.07806 0.0781,0.07806 0.0781,0.07806 0.0781,0.07806 0.0781,0.07806 0.0781,0.156127 l 0,1.014825 c 0.23419,-0.23419 0.39032,-0.468381 0.62451,-0.702571 0.15612,-0.156127 0.31225,-0.312254 0.54644,-0.390318 0.15613,-0.156127 0.31226,-0.23419 0.46838,-0.23419 0.15613,-0.07806 0.39032,-0.07806 0.54645,-0.07806 0.0781,0 0.15612,0 0.23419,0 0.15612,0 0.23419,0.07806 0.31225,0.07806 0.15613,0 0.23419,0 0.31226,0.07806 0.0781,0 0.15612,0 0.15612,0.07806 0.0781,0 0.0781,0 0.0781,0.07806 0,0 0,0.07806 0.0781,0.07806 0,0 0,0.07806 0,0.156127 0,0.07806 0,0.156127 0,0.312254 z m 12.80241,-0.468381 c 0,0 0,0.07806 0,0.07806 0,0.07806 -0.0781,0.156127 -0.0781,0.234191 l -2.41997,6.94765 c 0,0.07806 0,0.07806 -0.0781,0.156126 0,0 -0.0781,0.07806 -0.15613,0.07806 -0.0781,0 -0.15613,0.07806 -0.23419,0.07806 -0.15613,0 -0.31226,0 -0.46838,0 -0.15613,0 -0.31226,0 -0.46838,0 -0.15613,-0.07806 -0.23419,-0.07806 -0.31226,-0.07806 -0.0781,0 -0.0781,-0.07806 -0.15612,-0.07806 0,-0.07806 -0.0781,-0.07806 -0.0781,-0.156126 l -1.71739,-5.308317 0,-0.07806 0,0.07806 -1.56127,5.308317 c 0,0.07806 -0.0781,0.07806 -0.0781,0.156126 -0.0781,0 -0.0781,0.07806 -0.15612,0.07806 -0.0781,0 -0.23419,0.07806 -0.31226,0.07806 -0.15613,0 -0.31225,0 -0.46838,0 -0.15613,0 -0.31225,0 -0.46838,0 -0.0781,-0.07806 -0.23419,-0.07806 -0.31225,-0.07806 0,0 -0.0781,-0.07806 -0.15613,-0.07806 0,-0.07806 0,-0.07806 -0.0781,-0.156126 l -2.34191,-6.94765 c 0,-0.07806 0,-0.156127 -0.0781,-0.234191 0,0 0,-0.07806 0,-0.07806 0,-0.07806 0,-0.156127 0.0781,-0.156127 0,0 0,-0.07806 0.0781,-0.07806 0.0781,0 0.15613,0 0.23419,0 0.0781,0 0.2342,0 0.39032,0 0.15613,0 0.23419,0 0.39032,0 0.0781,0 0.15613,0 0.23419,0 0,0 0.0781,0.07806 0.0781,0.07806 0,0.07806 0.0781,0.07806 0.0781,0.156127 l 1.95158,6.010888 0,0.07806 0,-0.07806 1.79546,-6.010888 c 0,-0.07806 0.0781,-0.07806 0.0781,-0.156127 0,0 0.0781,-0.07806 0.0781,-0.07806 0.0781,0 0.15613,0 0.23419,0 0.0781,0 0.23419,0 0.39032,0 0.15613,0 0.23419,0 0.31225,0 0.15613,0 0.23419,0 0.23419,0 0.0781,0 0.0781,0.07806 0.15613,0.07806 0,0.07806 0,0.07806 0,0.156127 l 1.95159,6.010888 0,0.07806 0,-0.07806 1.95158,-6.010888 c 0,-0.07806 0,-0.07806 0.0781,-0.156127 0,0 0,-0.07806 0.0781,-0.07806 0.0781,0 0.15613,0 0.23419,0 0.0781,0 0.23419,0 0.39032,0 0.15613,0 0.23419,0 0.31225,0 0.15613,0 0.15613,0 0.23419,0 0.0781,0 0.0781,0.07806 0.0781,0.07806 0.0781,0 0.0781,0.07806 0.0781,0.156127 z m 8.50892,7.337967 c 0,0 0,0.07806 -0.0781,0.156127 0,0 -0.0781,0 -0.15613,0 -0.0781,0.07806 -0.23419,0.07806 -0.39032,0.07806 -0.15612,0 -0.23419,0 -0.39032,-0.07806 -0.0781,0 -0.15612,0 -0.15612,0 -0.0781,-0.07806 -0.0781,-0.156127 -0.0781,-0.156127 l 0,-0.780635 c -0.31225,0.390318 -0.70257,0.624508 -1.17095,0.780635 -0.46838,0.23419 -0.8587,0.312254 -1.40514,0.312254 -0.39032,0 -0.78064,-0.07806 -1.09289,-0.156127 -0.39032,-0.07806 -0.62451,-0.23419 -0.93676,-0.390317 -0.23419,-0.234191 -0.39032,-0.468381 -0.54645,-0.702572 -0.15612,-0.312254 -0.15612,-0.624508 -0.15612,-0.936762 0,-0.46838 0.0781,-0.780634 0.23419,-1.092888 0.23419,-0.312254 0.46838,-0.546445 0.78063,-0.780635 0.39032,-0.156127 0.78064,-0.312254 1.32708,-0.468381 0.46838,-0.07806 1.01483,-0.156127 1.63934,-0.156127 l 1.17095,0 0,-0.546444 c 0,-0.234191 -0.0781,-0.546445 -0.15613,-0.702572 -0.0781,-0.23419 -0.15613,-0.46838 -0.31225,-0.546444 -0.15613,-0.156127 -0.31226,-0.312254 -0.54645,-0.390317 -0.23419,0 -0.54644,-0.07806 -0.8587,-0.07806 -0.39031,0 -0.70257,0.07806 -1.01482,0.156127 -0.23419,0.07806 -0.54645,0.156127 -0.70257,0.234191 -0.23419,0.07806 -0.39032,0.156127 -0.54645,0.23419 -0.15612,0.07806 -0.31225,0.156127 -0.39031,0.156127 0,0 -0.0781,0 -0.0781,-0.07806 -0.0781,0 -0.0781,0 -0.0781,-0.07806 -0.0781,0 -0.0781,-0.07806 -0.0781,-0.156127 0,-0.07806 0,-0.156127 0,-0.23419 0,-0.156127 0,-0.234191 0,-0.312254 0,-0.07806 0.0781,-0.156127 0.15613,-0.234191 0.0781,-0.07806 0.23419,-0.156127 0.39032,-0.23419 0.23419,-0.07806 0.46838,-0.156127 0.70257,-0.234191 0.23419,-0.07806 0.54645,-0.156127 0.8587,-0.23419 0.31225,-0.07806 0.62451,-0.07806 0.93676,-0.07806 0.54645,0 1.01483,0.07806 1.48321,0.156127 0.39031,0.156127 0.70257,0.312254 0.93676,0.546445 0.23419,0.23419 0.46838,0.546444 0.54644,0.858698 0.15613,0.312254 0.15613,0.780635 0.15613,1.170952 z m -1.40514,-3.35673 -1.32708,0 c -0.39032,0 -0.70257,0 -1.01483,0.07806 -0.31225,0.07806 -0.54644,0.156127 -0.78063,0.312254 -0.15613,0.07806 -0.31226,0.23419 -0.39032,0.390317 -0.0781,0.156127 -0.15613,0.390318 -0.15613,0.624508 0,0.390317 0.15613,0.624508 0.39032,0.858698 0.23419,0.234191 0.62451,0.390318 1.09289,0.390318 0.39032,0 0.78063,-0.07806 1.09289,-0.312254 0.31225,-0.156127 0.70257,-0.468381 1.09289,-0.780635 z m 5.62057,3.35673 c 0,0 -0.0781,0.07806 -0.0781,0.07806 0,0 -0.0781,0.07806 -0.0781,0.07806 -0.0781,0 -0.15613,0 -0.23419,0.07806 -0.15613,0 -0.23419,0 -0.39032,0 -0.15612,0 -0.23419,0 -0.39031,0 -0.0781,-0.07806 -0.15613,-0.07806 -0.15613,-0.07806 -0.0781,0 -0.15613,-0.07806 -0.15613,-0.07806 0,0 0,-0.07806 0,-0.07806 l 0,-10.928887 c 0,0 0,-0.07806 0,-0.07806 0,0 0.0781,-0.07806 0.15613,-0.07806 0,0 0.0781,-0.07806 0.15613,-0.07806 0.15612,0 0.23419,0 0.39031,0 0.15613,0 0.23419,0 0.39032,0 0.0781,0 0.15613,0.07806 0.23419,0.07806 0,0 0.0781,0.07806 0.0781,0.07806 0,0 0.0781,0.07806 0.0781,0.07806 z m 8.27473,0 c 0,0 0,0.07806 -0.0781,0.156127 0,0 -0.0781,0 -0.15612,0 -0.0781,0.07806 -0.23419,0.07806 -0.39032,0.07806 -0.15613,0 -0.23419,0 -0.39032,-0.07806 -0.0781,0 -0.15613,0 -0.15613,0 -0.0781,-0.07806 -0.0781,-0.156127 -0.0781,-0.156127 l 0,-0.780635 c -0.31225,0.390318 -0.70257,0.624508 -1.17095,0.780635 -0.46838,0.23419 -0.8587,0.312254 -1.40514,0.312254 -0.39032,0 -0.78064,-0.07806 -1.09289,-0.156127 -0.39032,-0.07806 -0.62451,-0.23419 -0.93676,-0.390317 -0.23419,-0.234191 -0.39032,-0.468381 -0.54645,-0.702572 -0.15613,-0.312254 -0.15613,-0.624508 -0.15613,-0.936762 0,-0.46838 0.0781,-0.780634 0.23419,-1.092888 0.2342,-0.312254 0.46839,-0.546445 0.78064,-0.780635 0.39032,-0.156127 0.78063,-0.312254 1.32708,-0.468381 0.46838,-0.07806 1.01482,-0.156127 1.63933,-0.156127 l 1.17095,0 0,-0.546444 c 0,-0.234191 -0.0781,-0.546445 -0.15612,-0.702572 -0.0781,-0.23419 -0.15613,-0.46838 -0.31226,-0.546444 -0.15612,-0.156127 -0.31225,-0.312254 -0.54644,-0.390317 -0.23419,0 -0.54645,-0.07806 -0.8587,-0.07806 -0.39032,0 -0.70257,0.07806 -1.01482,0.156127 -0.2342,0.07806 -0.54645,0.156127 -0.70258,0.234191 -0.23419,0.07806 -0.39031,0.156127 -0.54644,0.23419 -0.15613,0.07806 -0.31225,0.156127 -0.39032,0.156127 0,0 -0.0781,0 -0.0781,-0.07806 -0.0781,0 -0.0781,0 -0.0781,-0.07806 -0.0781,0 -0.0781,-0.07806 -0.0781,-0.156127 0,-0.07806 0,-0.156127 0,-0.23419 0,-0.156127 0,-0.234191 0,-0.312254 0,-0.07806 0.0781,-0.156127 0.15613,-0.234191 0.0781,-0.07806 0.23419,-0.156127 0.39032,-0.23419 0.23419,-0.07806 0.46838,-0.156127 0.70257,-0.234191 0.23419,-0.07806 0.54644,-0.156127 0.8587,-0.23419 0.31225,-0.07806 0.6245,-0.07806 0.93676,-0.07806 0.54644,0 1.01482,0.07806 1.4832,0.156127 0.39032,0.156127 0.70258,0.312254 0.93677,0.546445 0.23419,0.23419 0.46838,0.546444 0.54644,0.858698 0.15613,0.312254 0.15613,0.780635 0.15613,1.170952 z m -1.40515,-3.35673 -1.32708,0 c -0.39031,0 -0.70257,0 -1.01482,0.07806 -0.31225,0.07806 -0.54644,0.156127 -0.78064,0.312254 -0.15612,0.07806 -0.31225,0.23419 -0.39031,0.390317 -0.0781,0.156127 -0.15613,0.390318 -0.15613,0.624508 0,0.390317 0.15613,0.624508 0.39032,0.858698 0.23419,0.234191 0.62451,0.390318 1.09289,0.390318 0.39031,0 0.78063,-0.07806 1.09289,-0.312254 0.31225,-0.156127 0.70257,-0.468381 1.09288,-0.780635 z m 11.00695,3.35673 c 0,0 0,0.07806 0,0.07806 0,0 -0.0781,0.07806 -0.15612,0.07806 0,0 -0.0781,0 -0.15613,0.07806 -0.15613,0 -0.23419,0 -0.39032,0 -0.15612,0 -0.23419,0 -0.39031,0 -0.0781,-0.07806 -0.15613,-0.07806 -0.23419,-0.07806 0,0 -0.0781,-0.07806 -0.0781,-0.07806 0,0 0,-0.07806 0,-0.07806 l 0,-4.293491 c 0,-0.468381 -0.0781,-0.780635 -0.15612,-1.014826 -0.0781,-0.312254 -0.15613,-0.468381 -0.31226,-0.702571 -0.15613,-0.156127 -0.31225,-0.312254 -0.54644,-0.390317 -0.15613,-0.07806 -0.46838,-0.156127 -0.70257,-0.156127 -0.39032,0 -0.78064,0.156127 -1.17096,0.390317 -0.31225,0.23419 -0.70257,0.546444 -1.09289,1.014825 l 0,5.15219 c 0,0 -0.0781,0.07806 -0.0781,0.07806 0,0 -0.0781,0.07806 -0.0781,0.07806 -0.0781,0 -0.15613,0 -0.23419,0.07806 -0.15613,0 -0.23419,0 -0.39032,0 -0.15613,0 -0.23419,0 -0.39032,0 -0.0781,-0.07806 -0.15612,-0.07806 -0.15612,-0.07806 -0.0781,0 -0.15613,-0.07806 -0.15613,-0.07806 0,0 0,-0.07806 0,-0.07806 l 0,-7.337967 c 0,-0.07806 0,-0.07806 0,-0.156127 0,0 0.0781,0 0.0781,-0.07806 0.0781,0 0.15613,0 0.23419,0 0.0781,0 0.15613,0 0.31226,0 0.15612,0 0.23419,0 0.31225,0 0.15613,0 0.15613,0 0.23419,0 0.0781,0.07806 0.0781,0.07806 0.0781,0.07806 0.0781,0.07806 0.0781,0.07806 0.0781,0.156127 l 0,0.936762 c 0.46838,-0.468381 0.8587,-0.780635 1.32708,-1.014826 0.46838,-0.23419 0.93676,-0.312254 1.40514,-0.312254 0.46838,0 0.93676,0.07806 1.32708,0.234191 0.39032,0.156127 0.62451,0.390317 0.8587,0.702571 0.23419,0.234191 0.39031,0.546445 0.54644,0.936762 0.0781,0.390317 0.0781,0.858698 0.0781,1.327079 z m 4.60575,0 c 0,0 -0.0781,0.07806 -0.0781,0.07806 0,0 -0.0781,0.07806 -0.0781,0.07806 -0.0781,0 -0.15612,0 -0.23419,0.07806 -0.15612,0 -0.23419,0 -0.39031,0 -0.15613,0 -0.23419,0 -0.39032,0 -0.0781,-0.07806 -0.15613,-0.07806 -0.15613,-0.07806 -0.0781,0 -0.15613,-0.07806 -0.15613,-0.07806 0,0 0,-0.07806 0,-0.07806 l 0,-7.337967 c 0,-0.07806 0,-0.07806 0,-0.156127 0,0 0.0781,0 0.15613,-0.07806 0,0 0.0781,0 0.15613,0 0.15613,0 0.23419,0 0.39032,0 0.15612,0 0.23419,0 0.39031,0 0.0781,0 0.15613,0 0.23419,0 0,0.07806 0.0781,0.07806 0.0781,0.07806 0,0.07806 0.0781,0.07806 0.0781,0.156127 z m 0.15613,-9.835999 c 0,0.312254 -0.0781,0.546445 -0.23419,0.624508 -0.0781,0.156127 -0.39032,0.234191 -0.70257,0.234191 -0.39032,0 -0.62451,-0.07806 -0.70258,-0.234191 -0.15612,-0.07806 -0.23419,-0.312254 -0.23419,-0.624508 0,-0.312253 0.0781,-0.46838 0.23419,-0.624507 0.15613,-0.07806 0.39032,-0.156127 0.70258,-0.156127 0.39031,0 0.6245,0.07806 0.70257,0.156127 0.15612,0.07806 0.23419,0.312254 0.23419,0.624507 z m 8.1186,9.835999 c 0,0 0,0.07806 -0.0781,0.156127 0,0 -0.0781,0 -0.15613,0 -0.0781,0.07806 -0.23419,0.07806 -0.39032,0.07806 -0.15613,0 -0.23419,0 -0.39032,-0.07806 -0.0781,0 -0.15612,0 -0.15612,0 -0.0781,-0.07806 -0.0781,-0.156127 -0.0781,-0.156127 l 0,-0.780635 c -0.31225,0.390318 -0.70257,0.624508 -1.17095,0.780635 -0.46838,0.23419 -0.8587,0.312254 -1.40514,0.312254 -0.39032,0 -0.78064,-0.07806 -1.09289,-0.156127 -0.39032,-0.07806 -0.62451,-0.23419 -0.93676,-0.390317 -0.23419,-0.234191 -0.39032,-0.468381 -0.54645,-0.702572 -0.15612,-0.312254 -0.15612,-0.624508 -0.15612,-0.936762 0,-0.46838 0.0781,-0.780634 0.23419,-1.092888 0.23419,-0.312254 0.46838,-0.546445 0.78063,-0.780635 0.39032,-0.156127 0.78064,-0.312254 1.32708,-0.468381 0.46838,-0.07806 1.01483,-0.156127 1.63933,-0.156127 l 1.17096,0 0,-0.546444 c 0,-0.234191 -0.0781,-0.546445 -0.15613,-0.702572 -0.0781,-0.23419 -0.15613,-0.46838 -0.31225,-0.546444 -0.15613,-0.156127 -0.31226,-0.312254 -0.54645,-0.390317 -0.23419,0 -0.54644,-0.07806 -0.8587,-0.07806 -0.39031,0 -0.70257,0.07806 -1.01482,0.156127 -0.23419,0.07806 -0.54645,0.156127 -0.70257,0.234191 -0.23419,0.07806 -0.39032,0.156127 -0.54645,0.23419 -0.15612,0.07806 -0.31225,0.156127 -0.39032,0.156127 0,0 -0.0781,0 -0.0781,-0.07806 -0.0781,0 -0.0781,0 -0.0781,-0.07806 -0.0781,0 -0.0781,-0.07806 -0.0781,-0.156127 0,-0.07806 0,-0.156127 0,-0.23419 0,-0.156127 0,-0.234191 0,-0.312254 0,-0.07806 0.0781,-0.156127 0.15613,-0.234191 0.0781,-0.07806 0.23419,-0.156127 0.39032,-0.23419 0.23419,-0.07806 0.46838,-0.156127 0.70257,-0.234191 0.23419,-0.07806 0.54644,-0.156127 0.8587,-0.23419 0.31225,-0.07806 0.62451,-0.07806 0.93676,-0.07806 0.54644,0 1.01483,0.07806 1.48321,0.156127 0.39031,0.156127 0.70257,0.312254 0.93676,0.546445 0.23419,0.23419 0.46838,0.546444 0.54644,0.858698 0.15613,0.312254 0.15613,0.780635 0.15613,1.170952 z m -1.40514,-3.35673 -1.32708,0 c -0.39032,0 -0.70257,0 -1.01483,0.07806 -0.31225,0.07806 -0.54644,0.156127 -0.78063,0.312254 -0.15613,0.07806 -0.31226,0.23419 -0.39032,0.390317 -0.0781,0.156127 -0.15613,0.390318 -0.15613,0.624508 0,0.390317 0.15613,0.624508 0.39032,0.858698 0.23419,0.234191 0.62451,0.390318 1.09289,0.390318 0.39032,0 0.78063,-0.07806 1.09289,-0.312254 0.31225,-0.156127 0.70257,-0.468381 1.09289,-0.780635 z"
         style="fill:#ffffff;fill-opacity:1;fill-rule:nonzero;stroke:none"
         inkscape:connector-curvature="0" />
      <path
         id="path3681"
         d="m 6.3231419,39.03174 0,106.40052 266.2745281,0 0,-106.40052 -266.2745281,0 z"
         style="fill:#ffffff;fill-opacity:1;fill-rule:evenodd;stroke:none"
         inkscape:connector-curvature="0" />
      <path
         id="path3683"
         d="m 6.3231419,145.43226 266.2745281,0 0,-106.40052 -266.2745281,0 0,106.40052 z"
         style="fill:none;stroke:#41719c;stroke-width:1.24901569px;stroke-linecap:square;stroke-linejoin:miter;stroke-miterlimit:4;stroke-opacity:1;stroke-dasharray:none"
         inkscape:connector-curvature="0" />
      <path
         id="path3685"
         d="m 473.22082,81.342147 0,74.082243 306.86754,0 0,-74.082243 -306.86754,0 z"
         style="fill:#f2f2f2;fill-opacity:1;fill-rule:evenodd;stroke:none"
         inkscape:connector-curvature="0" />
      <path
         id="path3687"
         d="m 473.22082,155.42439 306.86754,0 0,-74.082243 -306.86754,0 0,74.082243 z"
         style="fill:none;stroke:#4f88bb;stroke-width:1.24901569px;stroke-linecap:square;stroke-linejoin:miter;stroke-miterlimit:4;stroke-opacity:1;stroke-dasharray:none"
         inkscape:connector-curvature="0" />
      <path
         id="path3689"
         d="m 473.22082,81.342147 306.86754,0 0,-52.302532 -306.86754,0 0,52.302532 z"
         style="fill:none;stroke:#4f88bb;stroke-width:1.24901569px;stroke-linecap:square;stroke-linejoin:miter;stroke-miterlimit:4;stroke-opacity:1;stroke-dasharray:none"
         inkscape:connector-curvature="0" />
      <text
         id="text3691"
         style="font-size:19.98425102px;font-style:normal;font-weight:normal;text-align:start;text-anchor:start;fill:#4f88bb;font-family:Calibri"
         y="61.763584"
         x="480.45633"
         xml:space="preserve">Employee</text>
      <path
         id="path3693"
         d="m 477.90463,107.80567 2.49803,0 0,1.24901 -2.49803,0 0,-1.24901 z m 3.74705,0 2.49803,0 0,1.24901 -2.49803,0 0,-1.24901 z m 3.74704,0 2.49803,0 0,1.24901 -2.49803,0 0,-1.24901 z m 3.74705,0 2.49803,0 0,1.24901 -2.49803,0 0,-1.24901 z m 3.74705,0 2.57609,0 0,1.24901 -2.57609,0 0,-1.24901 z m 3.82511,0 2.49803,0 0,1.24901 -2.49803,0 0,-1.24901 z m 3.74704,0 2.49804,0 0,1.24901 -2.49804,0 0,-1.24901 z m 3.74705,0 2.49803,0 0,1.24901 -2.49803,0 0,-1.24901 z m 3.74705,0 2.49803,0 0,1.24901 -2.49803,0 0,-1.24901 z m 3.74705,0 2.49803,0 0,1.24901 -2.49803,0 0,-1.24901 z m 3.74704,0 2.49803,0 0,1.24901 -2.49803,0 0,-1.24901 z m 3.74705,0 2.49803,0 0,1.24901 -2.49803,0 0,-1.24901 z m 3.74705,0 2.49803,0 0,1.24901 -2.49803,0 0,-1.24901 z m 3.74704,0 2.49803,0 0,1.24901 -2.49803,0 0,-1.24901 z m 3.74705,0 2.49803,0 0,1.24901 -2.49803,0 0,-1.24901 z m 3.74705,0 2.49803,0 0,1.24901 -2.49803,0 0,-1.24901 z m 3.74704,0 2.49804,0 0,1.24901 -2.49804,0 0,-1.24901 z m 3.74705,0 2.49803,0 0,1.24901 -2.49803,0 0,-1.24901 z m 3.74705,0 2.49803,0 0,1.24901 -2.49803,0 0,-1.24901 z m 3.74705,0 2.49803,0 0,1.24901 -2.49803,0 0,-1.24901 z m 3.74704,0 2.49803,0 0,1.24901 -2.49803,0 0,-1.24901 z m 3.74705,0 2.49803,0 0,1.24901 -2.49803,0 0,-1.24901 z m 3.74705,0 2.49803,0 0,1.24901 -2.49803,0 0,-1.24901 z m 3.74704,0 2.49804,0 0,1.24901 -2.49804,0 0,-1.24901 z m 3.74705,0 2.49803,0 0,1.24901 -2.49803,0 0,-1.24901 z m 3.74705,0 2.57609,0 0,1.24901 -2.57609,0 0,-1.24901 z m 3.82511,0 2.49803,0 0,1.24901 -2.49803,0 0,-1.24901 z m 3.74705,0 2.49803,0 0,1.24901 -2.49803,0 0,-1.24901 z m 3.74704,0 2.49803,0 0,1.24901 -2.49803,0 0,-1.24901 z m 3.74705,0 2.49803,0 0,1.24901 -2.49803,0 0,-1.24901 z m 3.74705,0 2.49803,0 0,1.24901 -2.49803,0 0,-1.24901 z m 3.74704,0 2.49804,0 0,1.24901 -2.49804,0 0,-1.24901 z m 3.74705,0 2.49803,0 0,1.24901 -2.49803,0 0,-1.24901 z m 3.74705,0 2.49803,0 0,1.24901 -2.49803,0 0,-1.24901 z m 3.74705,0 2.49803,0 0,1.24901 -2.49803,0 0,-1.24901 z m 3.74704,0 2.49803,0 0,1.24901 -2.49803,0 0,-1.24901 z m 3.74705,0 2.49803,0 0,1.24901 -2.49803,0 0,-1.24901 z m 3.74705,0 2.49803,0 0,1.24901 -2.49803,0 0,-1.24901 z m 3.74704,0 2.49803,0 0,1.24901 -2.49803,0 0,-1.24901 z m 3.74705,0 2.49803,0 0,1.24901 -2.49803,0 0,-1.24901 z m 3.74705,0 2.49803,0 0,1.24901 -2.49803,0 0,-1.24901 z m 3.74704,0 2.49804,0 0,1.24901 -2.49804,0 0,-1.24901 z m 3.74705,0 2.49803,0 0,1.24901 -2.49803,0 0,-1.24901 z m 3.74705,0 2.49803,0 0,1.24901 -2.49803,0 0,-1.24901 z m 3.74705,0 2.49803,0 0,1.24901 -2.49803,0 0,-1.24901 z m 3.74704,0 2.49803,0 0,1.24901 -2.49803,0 0,-1.24901 z m 3.82511,0 2.49803,0 0,1.24901 -2.49803,0 0,-1.24901 z m 3.74705,0 2.49803,0 0,1.24901 -2.49803,0 0,-1.24901 z m 3.74705,0 2.49803,0 0,1.24901 -2.49803,0 0,-1.24901 z m 3.74704,0 2.49804,0 0,1.24901 -2.49804,0 0,-1.24901 z m 3.74705,0 2.49803,0 0,1.24901 -2.49803,0 0,-1.24901 z m 3.74705,0 2.49803,0 0,1.24901 -2.49803,0 0,-1.24901 z m 3.74705,0 2.49803,0 0,1.24901 -2.49803,0 0,-1.24901 z m 3.74704,0 2.49803,0 0,1.24901 -2.49803,0 0,-1.24901 z m 3.74705,0 2.49803,0 0,1.24901 -2.49803,0 0,-1.24901 z m 3.74705,0 2.49803,0 0,1.24901 -2.49803,0 0,-1.24901 z m 3.74704,0 2.49804,0 0,1.24901 -2.49804,0 0,-1.24901 z m 3.74705,0 2.49803,0 0,1.24901 -2.49803,0 0,-1.24901 z m 3.74705,0 2.49803,0 0,1.24901 -2.49803,0 0,-1.24901 z m 3.74705,0 2.49803,0 0,1.24901 -2.49803,0 0,-1.24901 z m 3.74704,0 2.49803,0 0,1.24901 -2.49803,0 0,-1.24901 z m 3.74705,0 2.49803,0 0,1.24901 -2.49803,0 0,-1.24901 z m 3.74705,0 2.49803,0 0,1.24901 -2.49803,0 0,-1.24901 z m 3.74704,0 2.49803,0 0,1.24901 -2.49803,0 0,-1.24901 z m 3.74705,0 2.49803,0 0,1.24901 -2.49803,0 0,-1.24901 z m 3.74705,0 2.49803,0 0,1.24901 -2.49803,0 0,-1.24901 z m 3.74704,0 2.49804,0 0,1.24901 -2.49804,0 0,-1.24901 z m 3.82512,0 2.49803,0 0,1.24901 -2.49803,0 0,-1.24901 z m 3.74704,0 2.49803,0 0,1.24901 -2.49803,0 0,-1.24901 z m 3.74705,0 2.49803,0 0,1.24901 -2.49803,0 0,-1.24901 z m 3.74705,0 2.49803,0 0,1.24901 -2.49803,0 0,-1.24901 z m 3.74704,0 2.49803,0 0,1.24901 -2.49803,0 0,-1.24901 z m 3.74705,0 2.49803,0 0,1.24901 -2.49803,0 0,-1.24901 z m 3.74705,0 2.49803,0 0,1.24901 -2.49803,0 0,-1.24901 z m 3.74704,0 2.49804,0 0,1.24901 -2.49804,0 0,-1.24901 z m 3.74705,0 2.49803,0 0,1.24901 -2.49803,0 0,-1.24901 z m 3.74705,0 2.49803,0 0,1.24901 -2.49803,0 0,-1.24901 z m 3.74705,0 2.49803,0 0,1.24901 -2.49803,0 0,-1.24901 z m 3.74704,0 2.49803,0 0,1.24901 -2.49803,0 0,-1.24901 z m 3.74705,0 1.09289,0 0,1.24901 -1.09289,0 0,-1.24901 z"
         style="fill:#c8c8c8;fill-opacity:1;fill-rule:nonzero;stroke:#c8c8c8;stroke-width:0.07806348px;stroke-linecap:butt;stroke-linejoin:round;stroke-opacity:1;stroke-dasharray:none"
         inkscape:connector-curvature="0" />
      <text
         id="text3695"
         style="font-size:16.2372036px;font-style:normal;font-weight:normal;text-align:start;text-anchor:start;fill:#4f88bb;font-family:Calibri"
         y="126.33398"
         x="492.67752"
         xml:space="preserve">+ </text>
      <text
         id="text3697"
         style="font-size:16.2372036px;font-style:normal;font-weight:normal;text-align:start;text-anchor:start;fill:#4f88bb;font-family:Calibri"
         y="126.33398"
         x="504.73651"
         xml:space="preserve">CalculatePay</text>
      <text
         id="text3699"
         style="font-size:16.2372036px;font-style:normal;font-weight:normal;text-align:start;text-anchor:start;fill:#4f88bb;font-family:Calibri"
         y="126.33398"
         x="590.9895"
         xml:space="preserve">()</text>
      <text
         id="text3701"
         style="font-size:16.2372036px;font-style:normal;font-weight:normal;text-align:start;text-anchor:start;fill:#4f88bb;font-family:Calibri"
         y="146.31839"
         x="492.67752"
         xml:space="preserve">+ </text>
      <text
         id="text3703"
         style="font-size:16.2372036px;font-style:normal;font-weight:normal;text-align:start;text-anchor:start;fill:#4f88bb;font-family:Calibri"
         y="146.31839"
         x="504.73651"
         xml:space="preserve">Save</text>
      <text
         id="text3705"
         style="font-size:16.2372036px;font-style:normal;font-weight:normal;text-align:start;text-anchor:start;fill:#4f88bb;font-family:Calibri"
         y="146.31839"
         x="536.17334"
         xml:space="preserve">()</text>
      <path
         id="path3707"
         d="m 473.22082,92.271034 -200.62315,0"
         style="fill:none;stroke:#5b9bd5;stroke-width:1.63933313px;stroke-linecap:round;stroke-linejoin:round;stroke-opacity:1;stroke-dasharray:none"
         inkscape:connector-curvature="0" />
      <path
         id="path3709"
         d="m 290.16196,86.416273 -17.56429,5.854761 17.56429,5.854761"
         style="fill:none;stroke:#5b9bd5;stroke-width:1.63933313px;stroke-linecap:round;stroke-linejoin:round;stroke-opacity:1;stroke-dasharray:none"
         inkscape:connector-curvature="0" />
    </g>
  </g>
</svg>
