<?xml version="1.0" encoding="UTF-8" standalone="no"?>
<!-- Created with Inkscape (http://www.inkscape.org/) -->

<svg
   xmlns:dc="http://purl.org/dc/elements/1.1/"
   xmlns:cc="http://creativecommons.org/ns#"
   xmlns:rdf="http://www.w3.org/1999/02/22-rdf-syntax-ns#"
   xmlns:svg="http://www.w3.org/2000/svg"
   xmlns="http://www.w3.org/2000/svg"
   xmlns:sodipodi="http://sodipodi.sourceforge.net/DTD/sodipodi-0.dtd"
   xmlns:inkscape="http://www.inkscape.org/namespaces/inkscape"
   width="449.13922"
   height="345.00476"
   id="svg2"
   version="1.1"
   inkscape:version="0.48.5 r10040"
   sodipodi:docname="inheritance-types.pdf">
  <defs
     id="defs4">
    <clipPath
       id="clipEmfPath1"
       clipPathUnits="userSpaceOnUse">
      <rect
         id="rect2990"
         height="270.86923"
         width="306.22479"
         y="0"
         x="0" />
    </clipPath>
    <clipPath
       id="clipEmfPath1-1"
       clipPathUnits="userSpaceOnUse">
      <rect
         id="rect2990-7"
         height="270.86923"
         width="306.22479"
         y="0"
         x="0" />
    </clipPath>
    <clipPath
       id="clipEmfPath1-1-0"
       clipPathUnits="userSpaceOnUse">
      <rect
         id="rect2990-7-9"
         height="270.86923"
         width="306.22479"
         y="0"
         x="0" />
    </clipPath>
    <clipPath
       id="clipEmfPath1-4"
       clipPathUnits="userSpaceOnUse">
      <rect
         id="rect2990-8"
         height="270.86923"
         width="306.22479"
         y="0"
         x="0" />
    </clipPath>
    <clipPath
       id="clipEmfPath1-45"
       clipPathUnits="userSpaceOnUse">
      <rect
         id="rect2990-5"
         height="270.86923"
         width="306.22479"
         y="0"
         x="0" />
    </clipPath>
    <clipPath
       id="clipEmfPath1-7"
       clipPathUnits="userSpaceOnUse">
      <rect
         id="rect2990-1"
         height="270.86923"
         width="306.22479"
         y="0"
         x="0" />
    </clipPath>
    <clipPath
       id="clipEmfPath1-5"
       clipPathUnits="userSpaceOnUse">
      <rect
         id="rect2990-2"
         height="270.86923"
         width="306.22479"
         y="0"
         x="0" />
    </clipPath>
    <clipPath
       id="clipEmfPath1-1-0-1"
       clipPathUnits="userSpaceOnUse">
      <rect
         id="rect2990-7-9-4"
         height="270.86923"
         width="306.22479"
         y="0"
         x="0" />
    </clipPath>
  </defs>
  <sodipodi:namedview
     id="base"
     pagecolor="#ffffff"
     bordercolor="#666666"
     borderopacity="1.0"
     inkscape:pageopacity="0.0"
     inkscape:pageshadow="2"
     inkscape:zoom="0.79233662"
     inkscape:cx="388.67969"
     inkscape:cy="-43.346507"
     inkscape:document-units="px"
     inkscape:current-layer="layer1"
     showgrid="false"
     showguides="true"
     inkscape:guide-bbox="true"
     fit-margin-top="0"
     fit-margin-left="0"
     fit-margin-right="0"
     fit-margin-bottom="0"
     inkscape:window-width="1920"
     inkscape:window-height="1027"
     inkscape:window-x="292"
     inkscape:window-y="1432"
     inkscape:window-maximized="1">
    <sodipodi:guide
       orientation="1,0"
       position="247.00597,172.89682"
       id="guide3255" />
    <sodipodi:guide
       orientation="1,0"
       position="342.9248,151.44129"
       id="guide3257" />
  </sodipodi:namedview>
  <metadata
     id="metadata7">
    <rdf:RDF>
      <cc:Work
         rdf:about="">
        <dc:format>image/svg+xml</dc:format>
        <dc:type
           rdf:resource="http://purl.org/dc/dcmitype/StillImage" />
        <dc:title></dc:title>
      </cc:Work>
    </rdf:RDF>
  </metadata>
  <g
     inkscape:label="Layer 1"
     inkscape:groupmode="layer"
     id="layer1"
     transform="translate(-141.7177,-47.905988)">
    <path
       style="fill:#00aad4;stroke:#00aad4;stroke-width:0.57025099px;stroke-linecap:round;stroke-linejoin:round;stroke-opacity:1;stroke-dasharray:none"
       clip-path="url(#clipEmfPath1-5)"
       d="m 754.71875,305.40625 0,9.6875 64.375,0 0,-9.6875 -64.375,0 z"
       id="path3084-7"
       inkscape:connector-curvature="0" />
    <g
       id="g4228"
       transform="translate(3.0372806e-6,-61.842422)">
      <path
         id="path2994"
         d="m 142.00542,166.04963 0,96.11709 128.17378,0 0,-96.11709 -128.17378,0 z"
         style="fill:#ffffff;fill-opacity:1;fill-rule:evenodd;stroke:none"
         inkscape:connector-curvature="0" />
      <path
         id="path2996"
         d="m 142.00542,262.16672 128.17378,0 0,-96.11709 -128.17378,0 0,96.11709 z"
         style="fill:none;stroke:#000000;stroke-width:0.57025099px;stroke-linecap:round;stroke-linejoin:round;stroke-opacity:1;stroke-dasharray:none"
         inkscape:connector-curvature="0" />
      <text
         id="text2998"
         style="font-size:27.12896919px;font-style:normal;font-weight:normal;text-align:start;text-anchor:start;fill:#000000;font-family:Calibri"
         y="222.65308"
         x="173.1349"
         xml:space="preserve">public</text>
      <path
         id="path3000"
         d="m 142.00542,262.16672 0,96.1171 128.17378,0 0,-96.1171 -128.17378,0 z"
         style="fill:#ffffff;fill-opacity:1;fill-rule:evenodd;stroke:none"
         inkscape:connector-curvature="0" />
      <path
         id="path3002"
         d="m 142.00542,358.28382 128.17378,0 0,-96.1171 -128.17378,0 0,96.1171 z"
         style="fill:none;stroke:#000000;stroke-width:0.57025099px;stroke-linecap:round;stroke-linejoin:round;stroke-opacity:1;stroke-dasharray:none"
         inkscape:connector-curvature="0" />
      <text
         id="text3004"
         style="font-size:27.12896919px;font-style:normal;font-weight:normal;text-align:start;text-anchor:start;fill:#000000;font-family:Calibri"
         y="318.77936"
         x="152.01978"
         xml:space="preserve">protected</text>
      <path
         id="path3006"
         d="m 142.00542,358.28382 0,96.17006 128.17378,0 0,-96.17006 -128.17378,0 z"
         style="fill:#ffffff;fill-opacity:1;fill-rule:evenodd;stroke:none"
         inkscape:connector-curvature="0" />
      <path
         id="path3008"
         d="m 142.00542,454.45388 128.17378,0 0,-96.17006 -128.17378,0 0,96.17006 z"
         style="fill:none;stroke:#000000;stroke-width:0.57025099px;stroke-linecap:round;stroke-linejoin:round;stroke-opacity:1;stroke-dasharray:none"
         inkscape:connector-curvature="0" />
      <text
         id="text3010"
         style="font-size:27.12896919px;font-style:normal;font-weight:normal;text-align:start;text-anchor:start;fill:#000000;font-family:Calibri"
         y="414.90561"
         x="167.59091"
         xml:space="preserve">private</text>
      <path
         id="path3012"
         d="m 270.1792,166.04963 0,96.11709 128.17378,0 0,-96.11709 -128.17378,0 z"
         style="fill:#ffffff;fill-opacity:1;fill-rule:evenodd;stroke:none"
         inkscape:connector-curvature="0" />
      <path
         id="path3014"
         d="m 270.1792,262.16672 128.17378,0 0,-96.11709 -128.17378,0 0,96.11709 z"
         style="fill:none;stroke:#000000;stroke-width:0.57025099px;stroke-linecap:round;stroke-linejoin:round;stroke-opacity:1;stroke-dasharray:none"
         inkscape:connector-curvature="0" />
      <text
         id="text3016"
         style="font-size:20.34672737px;font-style:normal;font-weight:normal;text-align:start;text-anchor:start;fill:#000000;font-family:Calibri"
         y="196.20227"
         x="309.63837"
         xml:space="preserve">public</text>
      <text
         id="text3018"
         style="font-size:20.34672737px;font-style:normal;font-weight:normal;text-align:start;text-anchor:start;fill:#000000;font-family:Calibri"
         y="220.61829"
         x="293.80206"
         xml:space="preserve">protected</text>
      <text
         id="text3020"
         style="font-size:20.34672737px;font-style:normal;font-weight:normal;text-align:start;text-anchor:start;fill:#000000;font-family:Calibri"
         y="245.03429"
         x="305.48059"
         xml:space="preserve">private</text>
      <path
         id="path3022"
         d="m 270.1792,262.16672 0,96.1171 128.17378,0 0,-96.1171 -128.17378,0 z"
         style="fill:#ffffff;fill-opacity:1;fill-rule:evenodd;stroke:none"
         inkscape:connector-curvature="0" />
      <path
         id="path3024"
         d="m 270.1792,358.28382 128.17378,0 0,-96.1171 -128.17378,0 0,96.1171 z"
         style="fill:none;stroke:#000000;stroke-width:0.57025099px;stroke-linecap:round;stroke-linejoin:round;stroke-opacity:1;stroke-dasharray:none"
         inkscape:connector-curvature="0" />
      <text
         id="text3026"
         style="font-size:20.34672737px;font-style:normal;font-weight:normal;text-align:start;text-anchor:start;fill:#000000;font-family:Calibri"
         y="292.32852"
         x="309.63837"
         xml:space="preserve">public</text>
      <text
         id="text3028"
         style="font-size:20.34672737px;font-style:normal;font-weight:normal;text-align:start;text-anchor:start;fill:#000000;font-family:Calibri"
         y="316.74457"
         x="293.80206"
         xml:space="preserve">protected</text>
      <text
         id="text3030"
         style="font-size:20.34672737px;font-style:normal;font-weight:normal;text-align:start;text-anchor:start;fill:#000000;font-family:Calibri"
         y="341.16058"
         x="305.48059"
         xml:space="preserve">private</text>
      <path
         id="path3032"
         d="m 270.1792,358.28382 0,96.17006 128.17378,0 0,-96.17006 -128.17378,0 z"
         style="fill:#ffffff;fill-opacity:1;fill-rule:evenodd;stroke:none"
         inkscape:connector-curvature="0" />
      <path
         id="path3034"
         d="m 270.1792,454.45388 128.17378,0 0,-96.17006 -128.17378,0 0,96.17006 z"
         style="fill:none;stroke:#000000;stroke-width:0.57025099px;stroke-linecap:round;stroke-linejoin:round;stroke-opacity:1;stroke-dasharray:none"
         inkscape:connector-curvature="0" />
      <text
         id="text3036"
         style="font-size:20.34672737px;font-style:normal;font-weight:normal;text-align:start;text-anchor:start;fill:#000000;font-family:Calibri"
         y="388.4548"
         x="309.63837"
         xml:space="preserve">public</text>
      <text
         id="text3038"
         style="font-size:20.34672737px;font-style:normal;font-weight:normal;text-align:start;text-anchor:start;fill:#000000;font-family:Calibri"
         y="412.87079"
         x="293.80206"
         xml:space="preserve">protected</text>
      <text
         id="text3040"
         style="font-size:20.34672737px;font-style:normal;font-weight:normal;text-align:start;text-anchor:start;fill:#000000;font-family:Calibri"
         y="437.28683"
         x="305.48059"
         xml:space="preserve">private</text>
      <path
         id="path3042"
         d="m 462.41339,166.04963 0,96.11709 128.17378,0 0,-96.11709 -128.17378,0 z"
         style="fill:#ffffff;fill-opacity:1;fill-rule:evenodd;stroke:none"
         inkscape:connector-curvature="0" />
      <path
         transform="matrix(1.4866792,0,0,1.4866792,137.18367,97.856305)"
         id="path3044"
         d="m 218.76254,110.52177 86.21482,0 0,-64.652206 -86.21482,0 0,64.652206 z"
         clip-path="url(#clipEmfPath1)"
         style="fill:none;stroke:#000000;stroke-width:0.38357365px;stroke-linecap:round;stroke-linejoin:round;stroke-opacity:1;stroke-dasharray:none"
         inkscape:connector-curvature="0" />
      <text
         id="text3046"
         style="font-size:20.34672737px;font-style:normal;font-weight:normal;text-align:start;text-anchor:start;fill:#000000;font-family:Calibri"
         y="196.20227"
         x="501.8909"
         xml:space="preserve">public</text>
      <text
         id="text3048"
         style="font-size:20.34672737px;font-style:normal;font-weight:normal;text-align:start;text-anchor:start;fill:#000000;font-family:Calibri"
         y="220.61829"
         x="486.05463"
         xml:space="preserve">protected</text>
      <text
         id="text3050"
         style="font-size:20.34672737px;font-style:normal;font-weight:normal;text-align:start;text-anchor:start;fill:#000000;font-family:Calibri"
         y="245.03429"
         x="497.73312"
         xml:space="preserve">private</text>
      <path
         id="path3052"
         d="m 462.41339,262.16672 0,96.1171 128.17378,0 0,-96.1171 -128.17378,0 z"
         style="fill:#ffffff;fill-opacity:1;fill-rule:evenodd;stroke:none"
         inkscape:connector-curvature="0" />
      <path
         transform="matrix(1.4866792,0,0,1.4866792,137.18367,97.856305)"
         id="path3054"
         d="m 218.76254,175.17398 86.21482,0 0,-64.65221 -86.21482,0 0,64.65221 z"
         clip-path="url(#clipEmfPath1)"
         style="fill:none;stroke:#000000;stroke-width:0.38357365px;stroke-linecap:round;stroke-linejoin:round;stroke-opacity:1;stroke-dasharray:none"
         inkscape:connector-curvature="0" />
      <text
         id="text3056"
         style="font-size:20.34672737px;font-style:normal;font-weight:normal;text-align:start;text-anchor:start;fill:#000000;font-family:Calibri"
         y="292.32852"
         x="501.8909"
         xml:space="preserve">public</text>
      <text
         id="text3058"
         style="font-size:20.34672737px;font-style:normal;font-weight:normal;text-align:start;text-anchor:start;fill:#000000;font-family:Calibri"
         y="316.74457"
         x="486.05463"
         xml:space="preserve">protected</text>
      <text
         id="text3060"
         style="font-size:20.34672737px;font-style:normal;font-weight:normal;text-align:start;text-anchor:start;fill:#000000;font-family:Calibri"
         y="341.16058"
         x="497.73312"
         xml:space="preserve">private</text>
      <path
         id="path3062"
         d="m 462.41339,358.28382 0,96.17006 128.17378,0 0,-96.17006 -128.17378,0 z"
         style="fill:#ffffff;fill-opacity:1;fill-rule:evenodd;stroke:none"
         inkscape:connector-curvature="0" />
      <path
         transform="matrix(1.4866792,0,0,1.4866792,137.18367,97.856305)"
         id="path3064"
         d="m 218.76254,239.86182 86.21482,0 0,-64.68784 -86.21482,0 0,64.68784 z"
         clip-path="url(#clipEmfPath1)"
         style="fill:none;stroke:#000000;stroke-width:0.38357365px;stroke-linecap:round;stroke-linejoin:round;stroke-opacity:1;stroke-dasharray:none"
         inkscape:connector-curvature="0" />
      <text
         id="text3066"
         style="font-size:20.34672737px;font-style:normal;font-weight:normal;text-align:start;text-anchor:start;fill:#000000;font-family:Calibri"
         y="388.4548"
         x="501.8909"
         xml:space="preserve">public</text>
      <text
         id="text3068"
         style="font-size:20.34672737px;font-style:normal;font-weight:normal;text-align:start;text-anchor:start;fill:#000000;font-family:Calibri"
         y="412.87079"
         x="486.05463"
         xml:space="preserve">protected</text>
      <text
         id="text3070"
         style="font-size:20.34672737px;font-style:normal;font-weight:normal;text-align:start;text-anchor:start;fill:#000000;font-family:Calibri"
         y="437.28683"
         x="497.73312"
         xml:space="preserve">private</text>
      <text
         id="text3072"
         style="font-size:20.34672737px;font-style:normal;font-weight:normal;text-align:start;text-anchor:start;fill:#000000;font-family:Calibri"
         y="135.79593"
         x="279.25238"
         xml:space="preserve">Klasa bazowa</text>
      <text
         id="text3074"
         style="font-size:20.34672737px;font-style:normal;font-weight:normal;text-align:start;text-anchor:start;fill:#000000;font-family:Calibri"
         y="123.58776"
         x="505.55191"
         xml:space="preserve">Klasa </text>
      <text
         id="text3076"
         style="font-size:20.34672737px;font-style:normal;font-weight:normal;text-align:start;text-anchor:start;fill:#000000;font-family:Calibri"
         y="148.00377"
         x="485.61252"
         xml:space="preserve">pochodna</text>
      <text
         id="text3078"
         style="font-size:20.34672737px;font-style:normal;font-weight:normal;text-align:start;text-anchor:start;fill:#000000;font-family:Calibri"
         y="123.58776"
         x="191.56885"
         xml:space="preserve">Typ </text>
      <text
         id="text3080"
         style="font-size:20.34672737px;font-style:normal;font-weight:normal;text-align:start;text-anchor:start;fill:#000000;font-family:Calibri"
         y="148.00377"
         x="152.08249"
         xml:space="preserve">dziedziczenia</text>
      <path
         transform="matrix(-1.7109176,0,0,-1.120858,744.5929,484.10829)"
         id="path3084"
         d="m 151.93625,261.3888 8.62504,-8.62505 0,4.31252 47.43776,0 0,8.62505 -47.43776,0 0,4.31252 -8.62504,-8.62504 z"
         clip-path="url(#clipEmfPath1)"
         style="fill:#00aad4;stroke:#00aad4;stroke-width:0.41179037px;stroke-linecap:round;stroke-linejoin:round;stroke-opacity:1;stroke-dasharray:none"
         inkscape:connector-curvature="0" />
      <path
         transform="matrix(-1.7109176,0,0,-1.120858,744.5929,508.15993)"
         id="path3084-4"
         d="m 151.93625,261.3888 8.62504,-8.62505 0,4.31252 47.43776,0 0,8.62505 -47.43776,0 0,4.31252 -8.62504,-8.62504 z"
         clip-path="url(#clipEmfPath1-1)"
         style="fill:#00aad4;stroke:#00aad4;stroke-width:0.41179037px;stroke-linecap:round;stroke-linejoin:round;stroke-opacity:1;stroke-dasharray:none"
         inkscape:connector-curvature="0" />
      <path
         transform="matrix(-1.7109176,0,0,-1.120858,744.5929,605.79323)"
         id="path3084-4-2"
         d="m 151.93625,261.3888 8.62504,-8.62505 0,4.31252 47.43776,0 0,8.62505 -47.43776,0 0,4.31252 -8.62504,-8.62504 z"
         clip-path="url(#clipEmfPath1-1-0)"
         style="fill:#00aad4;stroke:#00aad4;stroke-width:0.41179037px;stroke-linecap:round;stroke-linejoin:round;stroke-opacity:1;stroke-dasharray:none"
         inkscape:connector-curvature="0" />
      <rect
         y="281.85635"
         x="388.72366"
         height="9.4656734"
         width="44.804192"
         id="rect4165"
         style="fill:#00aad4;fill-opacity:1;stroke:#00aad4;stroke-width:1;stroke-opacity:1" />
      <rect
         transform="matrix(0,1,-1,0,0,0)"
         y="-433.84341"
         x="282.17188"
         height="9.4656734"
         width="33.445385"
         id="rect4165-6"
         style="fill:#00aad4;fill-opacity:1;stroke:#00aad4;stroke-width:0.99999994;stroke-opacity:1" />
      <g
         id="g4223">
        <path
           inkscape:connector-curvature="0"
           style="fill:#00aad4;stroke:#00aad4;stroke-width:0.4266167px;stroke-linecap:round;stroke-linejoin:round;stroke-opacity:1;stroke-dasharray:none"
           clip-path="url(#clipEmfPath1-1-0-1)"
           d="m 151.93625,261.3888 8.62504,-8.62505 0,4.31252 47.43776,0 0,8.62505 -47.43776,0 0,4.31252 -8.62504,-8.62504 z"
           id="path3084-4-2-2"
           transform="matrix(-1.621526,-0.50851797,0.35756184,-0.98974217,634.07888,769.25187)" />
        <rect
           style="fill:#00aad4;fill-opacity:1;stroke:#00aad4;stroke-width:1.00045788;stroke-opacity:1"
           id="rect4165-3"
           width="44.502399"
           height="8.8871193"
           x="505.04138"
           y="240.62683"
           transform="matrix(0.95417944,0.29923503,-0.33977471,0.94050686,0,0)" />
        <rect
           style="fill:#00aad4;fill-opacity:1;stroke:#00aad4;stroke-width:1.00045788;stroke-opacity:1"
           id="rect4165-6-2"
           width="31.401161"
           height="9.4019146"
           x="240.92307"
           y="-549.85724"
           transform="matrix(-0.33977471,0.94050686,-0.95417944,-0.29923503,0,0)" />
      </g>
    </g>
  </g>
</svg>
