<?xml version="1.0" encoding="UTF-8" standalone="no"?>
<!-- Generated by Microsoft Visio, SVG Export watki_w_procesie.svg Page-1 -->

<svg
   xmlns:dc="http://purl.org/dc/elements/1.1/"
   xmlns:cc="http://creativecommons.org/ns#"
   xmlns:rdf="http://www.w3.org/1999/02/22-rdf-syntax-ns#"
   xmlns:svg="http://www.w3.org/2000/svg"
   xmlns="http://www.w3.org/2000/svg"
   xmlns:xlink="http://www.w3.org/1999/xlink"
   xmlns:sodipodi="http://sodipodi.sourceforge.net/DTD/sodipodi-0.dtd"
   xmlns:inkscape="http://www.inkscape.org/namespaces/inkscape"
   width="251.62271"
   height="136.28085"
   viewBox="0 0 201.29809 109.02478"
   xml:space="preserve"
   color-interpolation-filters="sRGB"
   class="st12"
   id="svg2"
   version="1.1"
   inkscape:version="0.48.3.1 r9886"
   sodipodi:docname="watki_w_procesie.svg"
   style="font-size:12px;fill:none;stroke-linecap:square;stroke-miterlimit:3;overflow:visible"><metadata
   id="metadata135"><rdf:RDF><cc:Work
       rdf:about=""><dc:format>image/svg+xml</dc:format><dc:type
         rdf:resource="http://purl.org/dc/dcmitype/StillImage" /></cc:Work></rdf:RDF></metadata><sodipodi:namedview
   pagecolor="#ffffff"
   bordercolor="#666666"
   borderopacity="1"
   objecttolerance="10"
   gridtolerance="10"
   guidetolerance="10"
   inkscape:pageopacity="0"
   inkscape:pageshadow="2"
   inkscape:window-width="1172"
   inkscape:window-height="801"
   id="namedview133"
   showgrid="false"
   fit-margin-top="10"
   fit-margin-left="10"
   fit-margin-right="10"
   fit-margin-bottom="10"
   inkscape:zoom="0.38976684"
   inkscape:cx="-22.913829"
   inkscape:cy="-201.04101"
   inkscape:window-x="0"
   inkscape:window-y="1"
   inkscape:window-maximized="0"
   inkscape:current-layer="svg2" />
	<style
   type="text/css"
   id="style4">
	
		.st1 {fill:url(#grad0-5);stroke:#d06d29;stroke-width:0.75}
		.st2 {fill:url(#grad0-9);stroke:#4f87bb;stroke-width:0.75}
		.st3 {fill:#000000;font-family:Calibri;font-size:1.00001em}
		.st4 {fill:none;stroke:none;stroke-width:0.25}
		.st5 {visibility:visible}
		.st6 {fill:#70ad47;fill-opacity:0.25;filter:url(#filter_2);stroke:#70ad47;stroke-opacity:0.25}
		.st7 {fill:url(#grad0-32);stroke:#507e31;stroke-width:0.75}
		.st8 {fill:#feffff;font-family:Calibri;font-size:0.666664em}
		.st9 {font-size:1em}
		.st10 {marker-end:url(#mrkr1-43);marker-start:url(#mrkr1-41);stroke:#5b9bd5;stroke-linecap:round;stroke-linejoin:round;stroke-width:1}
		.st11 {fill:#5b9bd5;fill-opacity:1;stroke:#5b9bd5;stroke-opacity:1;stroke-width:0.28409090909091}
		.st12 {fill:none;fill-rule:evenodd;font-size:12px;overflow:visible;stroke-linecap:square;stroke-miterlimit:3}
	
	</style>

	<defs
   id="Patterns_And_Gradients">
		<linearGradient
   id="grad0-5"
   x1="-0.26570198"
   y1="1.5877751"
   x2="130.81535"
   y2="1.5877751"
   gradientTransform="scale(1.4113556,0.70853864)"
   gradientUnits="userSpaceOnUse">
			<stop
   offset="0"
   stop-color="#fbece7"
   stop-opacity="1"
   id="stop8" />
			<stop
   offset="0.24"
   stop-color="#fdf5f3"
   stop-opacity="1"
   id="stop10" />
			<stop
   offset="0.54"
   stop-color="#feffff"
   stop-opacity="1"
   id="stop12" />
		</linearGradient>
		<linearGradient
   id="grad0-9"
   x1="0"
   y1="0"
   x2="1"
   y2="0"
   gradientTransform="matrix(0.5,0.8660254,-0.8660254,0.5,0.6830127,-0.1830127)">
			<stop
   offset="0"
   stop-color="#e9eff7"
   stop-opacity="1"
   id="stop15" />
			<stop
   offset="0.24"
   stop-color="#f4f7fb"
   stop-opacity="1"
   id="stop17" />
			<stop
   offset="0.54"
   stop-color="#feffff"
   stop-opacity="1"
   id="stop19" />
		</linearGradient>
		<linearGradient
   id="grad0-32"
   x1="-0.27602044"
   y1="85.428185"
   x2="42.005089"
   y2="85.428185"
   gradientTransform="scale(1.358595,0.73605452)"
   gradientUnits="userSpaceOnUse">
			<stop
   offset="0"
   stop-color="#61973d"
   stop-opacity="1"
   id="stop22" />
			<stop
   offset="0.48"
   stop-color="#61973d"
   stop-opacity="1"
   id="stop24" />
			<stop
   offset="0.82"
   stop-color="#70ad47"
   stop-opacity="1"
   id="stop26" />
		</linearGradient>
	
		
		
		
		
		
		
		
		
		
		
	
			
			
			
			
					<linearGradient
   inkscape:collect="always"
   xlink:href="#grad0-32"
   id="linearGradient3175"
   gradientUnits="userSpaceOnUse"
   gradientTransform="matrix(1.3607859,0,0,0.73724154,79.355812,-15.94195)"
   x1="-0.27602044"
   y1="85.428185"
   x2="42.005089"
   y2="85.428185" /><linearGradient
   inkscape:collect="always"
   xlink:href="#grad0-5"
   id="linearGradient3189"
   gradientUnits="userSpaceOnUse"
   gradientTransform="scale(1.4113556,0.70853864)"
   x1="-0.26570198"
   y1="1.5877751"
   x2="130.81535"
   y2="1.5877751" /><linearGradient
   inkscape:collect="always"
   xlink:href="#grad0-9"
   id="linearGradient3191"
   gradientUnits="userSpaceOnUse"
   gradientTransform="scale(1.5117032,0.66150552)"
   x1="-0.24806456"
   y1="110.66575"
   x2="31.187803"
   y2="110.66575" /><linearGradient
   inkscape:collect="always"
   xlink:href="#grad0-9"
   id="linearGradient3193"
   gradientUnits="userSpaceOnUse"
   gradientTransform="scale(1.5117032,0.66150552)"
   x1="-0.24806456"
   y1="110.66575"
   x2="31.187803"
   y2="110.66575" /><linearGradient
   inkscape:collect="always"
   xlink:href="#grad0-9"
   id="linearGradient3195"
   gradientUnits="userSpaceOnUse"
   gradientTransform="scale(1.5117032,0.66150552)"
   x1="-0.24806456"
   y1="110.66575"
   x2="31.187803"
   y2="110.66575" /><linearGradient
   inkscape:collect="always"
   xlink:href="#grad0-9"
   id="linearGradient3197"
   gradientUnits="userSpaceOnUse"
   gradientTransform="scale(1.5117032,0.66150552)"
   x1="-0.24806456"
   y1="110.66575"
   x2="31.187803"
   y2="110.66575" /></defs>
	<defs
   id="Markers">
		<g
   id="lend1">
			<path
   d="M 1,-1 0,0 1,1"
   style="fill:none;stroke-linecap:round;stroke-linejoin:round"
   id="path30"
   inkscape:connector-curvature="0" />
		</g>
		<marker
   id="mrkr1-41"
   class="st11"
   orient="auto"
   markerUnits="strokeWidth"
   overflow="visible"
   style="fill:#5b9bd5;fill-opacity:1;stroke:#5b9bd5;stroke-width:0.28409091;stroke-opacity:1;overflow:visible">
			<use
   xlink:href="#lend1"
   transform="scale(3.52,3.52)"
   id="use33"
   x="0"
   y="0"
   width="3"
   height="3" />
		</marker>
		<marker
   id="mrkr1-43"
   class="st11"
   orient="auto"
   markerUnits="strokeWidth"
   overflow="visible"
   style="fill:#5b9bd5;fill-opacity:1;stroke:#5b9bd5;stroke-width:0.28409091;stroke-opacity:1;overflow:visible">
			<use
   xlink:href="#lend1"
   transform="scale(-3.52,-3.52)"
   id="use36"
   x="0"
   y="0"
   width="3"
   height="3" />
		</marker>
	</defs>
	<defs
   id="Filters">
		<filter
   id="filter_2"
   color-interpolation-filters="sRGB">
			<feGaussianBlur
   stdDeviation="2"
   id="feGaussianBlur40" />
		</filter>
	</defs>
	<g
   transform="matrix(1.0016126,0,0,1.0016126,8.3754349,6.8731931)"
   id="group1-1">
			<title
   id="title47">Sheet.1</title>
			<g
   id="shape2-2">
				<title
   id="title50">Sheet.2</title>
				<rect
   style="fill:url(#linearGradient3189);stroke:#d06d29;stroke-width:0.75"
   id="rect52"
   class="st1"
   height="92.125999"
   width="184.252"
   y="1.5"
   x="0" />
			</g>
			<g
   transform="translate(132.52,-4.75816)"
   id="shape3-6">
				<title
   id="title55">Sheet.3</title>
				<desc
   id="desc57">Wątek</desc>
				<rect
   style="fill:url(#linearGradient3191);stroke:#4f87bb;stroke-width:0.75"
   id="rect59"
   class="st2"
   height="20.045"
   width="46.771702"
   y="73.581001"
   x="0" />
				<text
   style="fill:#000000;font-family:Calibri"
   id="text61"
   class="st3"
   y="87.199997"
   x="7.4499998">Wątek</text>

			</g>
			<g
   transform="translate(0,-72.126)"
   id="shape4-11">
				<title
   id="title64">Sheet.4</title>
				<desc
   id="desc66">Proces</desc>
				<rect
   style="fill:none;stroke:none"
   id="rect68"
   class="st4"
   height="20"
   width="41.938499"
   y="73.625999"
   x="0" />
				<text
   style="fill:#000000;font-family:Calibri"
   id="text70"
   class="st3"
   y="87.230003"
   x="4.7399998">Proces</text>

			</g>
		</g><g
   transform="matrix(1.0016126,0,0,1.0016126,136.14014,-57.617636)"
   id="shape5-14">
			<title
   id="title73">Sheet.5</title>
			<desc
   id="desc75">Wątek</desc>
			<rect
   style="fill:url(#linearGradient3193);stroke:#4f87bb;stroke-width:0.75"
   id="rect77"
   class="st2"
   height="20.045"
   width="46.771702"
   y="73.581001"
   x="0" />
			<text
   style="fill:#000000;font-family:Calibri"
   id="text79"
   class="st3"
   y="87.199997"
   x="7.4499998">Wątek</text>

		</g><g
   transform="matrix(1.0016126,0,0,1.0016126,20.442064,-36.323453)"
   id="shape6-18">
			<title
   id="title82">Sheet.6</title>
			<desc
   id="desc84">Wątek</desc>
			<rect
   style="fill:url(#linearGradient3195);stroke:#4f87bb;stroke-width:0.75"
   id="rect86"
   class="st2"
   height="20.045"
   width="46.771702"
   y="73.581001"
   x="0" />
			<text
   style="fill:#000000;font-family:Calibri"
   id="text88"
   class="st3"
   y="87.199997"
   x="7.4499998">Wątek</text>

		</g><g
   transform="matrix(1.0016126,0,0,1.0016126,20.442064,3.3241686)"
   id="shape7-22">
			<title
   id="title91">Sheet.7</title>
			<desc
   id="desc93">Wątek</desc>
			<rect
   style="fill:url(#linearGradient3197);stroke:#4f87bb;stroke-width:0.75"
   id="rect95"
   class="st2"
   height="20.045"
   width="46.771702"
   y="73.581001"
   x="0" />
			<text
   style="fill:#000000;font-family:Calibri"
   id="text97"
   class="st3"
   y="87.199997"
   x="7.4499998">Wątek</text>

		</g><g
   id="shadow8-27"
   transform="matrix(1.0016126,0,0,1.0016126,79.701973,-13.96597)"
   class="st5"
   style="visibility:visible">
				<rect
   x="0"
   y="63.254799"
   width="56.692902"
   height="30.371201"
   class="st6"
   id="rect105"
   style="fill:#70ad47;fill-opacity:0.25;stroke:#70ad47;stroke-opacity:0.25;filter:url(#filter_2)" />
			</g><rect
   x="79.355812"
   y="47.414829"
   width="56.784325"
   height="30.420179"
   class="st7"
   id="rect107"
   style="fill:url(#linearGradient3175);stroke:#507e31;stroke-width:0.7512095" /><g
   transform="matrix(1.0016126,0,0,1.0016126,66.224473,-34.244707)"
   id="shape9-35">
			<title
   id="title114">Dynamic connector</title>
			<path
   style="stroke:#5b9bd5;stroke-width:1;stroke-linecap:round;stroke-linejoin:round;marker-start:url(#mrkr1-41);marker-end:url(#mrkr1-43)"
   inkscape:connector-curvature="0"
   id="path116"
   class="st10"
   d="m 1.06,86.54 12.05,0" />
		</g><g
   transform="matrix(1.0016126,0,0,1.0016126,67.28919,-4.0273534)"
   id="shape10-44">
			<title
   id="title119">Dynamic connector.36</title>
			<path
   style="stroke:#5b9bd5;stroke-width:1;stroke-linecap:round;stroke-linejoin:round;marker-start:url(#mrkr1-41);marker-end:url(#mrkr1-43)"
   inkscape:connector-curvature="0"
   id="path121"
   class="st10"
   d="m 0,91.35 40.39,0 0,-9.62" />
		</g><g
   transform="matrix(1.0016126,0,0,1.0016126,164.53285,-17.969906)"
   id="shape11-51">
			<title
   id="title124">Dynamic connector.37</title>
			<path
   style="stroke:#5b9bd5;stroke-width:1;stroke-linecap:round;stroke-linejoin:round;marker-start:url(#mrkr1-41);marker-end:url(#mrkr1-43)"
   inkscape:connector-curvature="0"
   id="path126"
   class="st10"
   d="m 0,93.63 0,-14.18 -28.35,0" />
		</g><g
   transform="matrix(1.0016126,0,0,1.0016126,136.14014,-67.656199)"
   id="shape12-58">
			<title
   id="title129">Dynamic connector.40</title>
			<path
   style="stroke:#5b9bd5;stroke-width:1;stroke-linecap:round;stroke-linejoin:round;marker-start:url(#mrkr1-41);marker-end:url(#mrkr1-43)"
   inkscape:connector-curvature="0"
   id="path131"
   class="st10"
   d="m 0,93.63 -29.23,0 0,21.26" />
		</g>
<text
   xml:space="preserve"
   style="font-size:7.47131109px;font-style:normal;font-variant:normal;font-weight:normal;font-stretch:normal;text-align:center;line-height:125%;letter-spacing:0px;word-spacing:0px;writing-mode:lr-tb;text-anchor:middle;fill:#ffffff;fill-opacity:1;stroke:none;font-family:Sans;-inkscape-font-specification:Sans"
   x="107.36025"
   y="60.194885"
   id="text3179"
   sodipodi:linespacing="125%"><tspan
     sodipodi:role="line"
     id="tspan3181"
     x="107.36025"
     y="60.194885">Pamięc</tspan><tspan
     sodipodi:role="line"
     x="107.36025"
     y="69.534027"
     id="tspan3185">współdzielona</tspan></text>

</svg>