<?xml version="1.0" encoding="UTF-8" standalone="no"?>
<!-- Created with Inkscape (http://www.inkscape.org/) -->

<svg
   xmlns:dc="http://purl.org/dc/elements/1.1/"
   xmlns:cc="http://creativecommons.org/ns#"
   xmlns:rdf="http://www.w3.org/1999/02/22-rdf-syntax-ns#"
   xmlns:svg="http://www.w3.org/2000/svg"
   xmlns="http://www.w3.org/2000/svg"
   version="1.1"
   width="556.34607"
   height="209.73"
   id="svg2">
  <defs
     id="defs4">
    <marker
       refX="0"
       refY="0"
       orient="auto"
       id="Arrow2Mstart"
       style="overflow:visible">
      <path
         d="M 8.7185878,4.0337352 -2.2072895,0.01601326 8.7185884,-4.0017078 c -1.7454984,2.3720609 -1.7354408,5.6174519 -6e-7,8.035443 z"
         transform="scale(0.6,0.6)"
         id="path4106"
         style="fill-rule:evenodd;stroke-width:0.625;stroke-linejoin:round" />
    </marker>
    <marker
       refX="0"
       refY="0"
       orient="auto"
       id="Arrow2Lstart"
       style="overflow:visible">
      <path
         d="M 8.7185878,4.0337352 -2.2072895,0.01601326 8.7185884,-4.0017078 c -1.7454984,2.3720609 -1.7354408,5.6174519 -6e-7,8.035443 z"
         transform="matrix(1.1,0,0,1.1,1.1,0)"
         id="path4100"
         style="fill-rule:evenodd;stroke-width:0.625;stroke-linejoin:round" />
    </marker>
    <marker
       refX="0"
       refY="0"
       orient="auto"
       id="Arrow2Mstart-0"
       style="overflow:visible">
      <path
         d="M 8.7185878,4.0337352 -2.2072895,0.01601326 8.7185884,-4.0017078 c -1.7454984,2.3720609 -1.7354408,5.6174519 -6e-7,8.035443 z"
         transform="scale(0.6,0.6)"
         id="path4106-1"
         style="fill-rule:evenodd;stroke-width:0.625;stroke-linejoin:round" />
    </marker>
    <marker
       refX="0"
       refY="0"
       orient="auto"
       id="Arrow2Mstart-6"
       style="overflow:visible">
      <path
         d="M 8.7185878,4.0337352 -2.2072895,0.01601326 8.7185884,-4.0017078 c -1.7454984,2.3720609 -1.7354408,5.6174519 -6e-7,8.035443 z"
         transform="scale(0.6,0.6)"
         id="path4106-2"
         style="fill-rule:evenodd;stroke-width:0.625;stroke-linejoin:round" />
    </marker>
    <marker
       refX="0"
       refY="0"
       orient="auto"
       id="Arrow2Mstart-07"
       style="overflow:visible">
      <path
         d="M 8.7185878,4.0337352 -2.2072895,0.01601326 8.7185884,-4.0017078 c -1.7454984,2.3720609 -1.7354408,5.6174519 -6e-7,8.035443 z"
         transform="scale(0.6,0.6)"
         id="path4106-6"
         style="fill-rule:evenodd;stroke-width:0.625;stroke-linejoin:round" />
    </marker>
    <marker
       refX="0"
       refY="0"
       orient="auto"
       id="marker4770"
       style="overflow:visible">
      <path
         d="M 8.7185878,4.0337352 -2.2072895,0.01601326 8.7185884,-4.0017078 c -1.7454984,2.3720609 -1.7354408,5.6174519 -6e-7,8.035443 z"
         transform="scale(0.6,0.6)"
         id="path4772"
         style="fill-rule:evenodd;stroke-width:0.625;stroke-linejoin:round" />
    </marker>
    <marker
       refX="0"
       refY="0"
       orient="auto"
       id="Arrow2Mstart-7"
       style="overflow:visible">
      <path
         d="M 8.7185878,4.0337352 -2.2072895,0.01601326 8.7185884,-4.0017078 c -1.7454984,2.3720609 -1.7354408,5.6174519 -6e-7,8.035443 z"
         transform="scale(0.6,0.6)"
         id="path4106-9"
         style="fill-rule:evenodd;stroke-width:0.625;stroke-linejoin:round" />
    </marker>
    <marker
       refX="0"
       refY="0"
       orient="auto"
       id="marker4770-3"
       style="overflow:visible">
      <path
         d="M 8.7185878,4.0337352 -2.2072895,0.01601326 8.7185884,-4.0017078 c -1.7454984,2.3720609 -1.7354408,5.6174519 -6e-7,8.035443 z"
         transform="scale(0.6,0.6)"
         id="path4772-7"
         style="fill-rule:evenodd;stroke-width:0.625;stroke-linejoin:round" />
    </marker>
    <marker
       refX="0"
       refY="0"
       orient="auto"
       id="Arrow2Mstart-4"
       style="overflow:visible">
      <path
         d="M 8.7185878,4.0337352 -2.2072895,0.01601326 8.7185884,-4.0017078 c -1.7454984,2.3720609 -1.7354408,5.6174519 -6e-7,8.035443 z"
         transform="scale(0.6,0.6)"
         id="path4106-8"
         style="fill-rule:evenodd;stroke-width:0.625;stroke-linejoin:round" />
    </marker>
    <marker
       refX="0"
       refY="0"
       orient="auto"
       id="marker4872"
       style="overflow:visible">
      <path
         d="M 8.7185878,4.0337352 -2.2072895,0.01601326 8.7185884,-4.0017078 c -1.7454984,2.3720609 -1.7354408,5.6174519 -6e-7,8.035443 z"
         transform="scale(0.6,0.6)"
         id="path4874"
         style="fill-rule:evenodd;stroke-width:0.625;stroke-linejoin:round" />
    </marker>
    <marker
       refX="0"
       refY="0"
       orient="auto"
       id="Arrow2Mstart-8"
       style="overflow:visible">
      <path
         d="M 8.7185878,4.0337352 -2.2072895,0.01601326 8.7185884,-4.0017078 c -1.7454984,2.3720609 -1.7354408,5.6174519 -6e-7,8.035443 z"
         transform="scale(0.6,0.6)"
         id="path4106-5"
         style="fill-rule:evenodd;stroke-width:0.625;stroke-linejoin:round" />
    </marker>
    <marker
       refX="0"
       refY="0"
       orient="auto"
       id="Arrow2Mstart-9"
       style="overflow:visible">
      <path
         d="M 8.7185878,4.0337352 -2.2072895,0.01601326 8.7185884,-4.0017078 c -1.7454984,2.3720609 -1.7354408,5.6174519 -6e-7,8.035443 z"
         transform="scale(0.6,0.6)"
         id="path4106-14"
         style="fill-rule:evenodd;stroke-width:0.625;stroke-linejoin:round" />
    </marker>
    <marker
       refX="0"
       refY="0"
       orient="auto"
       id="marker4934"
       style="overflow:visible">
      <path
         d="M 8.7185878,4.0337352 -2.2072895,0.01601326 8.7185884,-4.0017078 c -1.7454984,2.3720609 -1.7354408,5.6174519 -6e-7,8.035443 z"
         transform="scale(0.6,0.6)"
         id="path4936"
         style="fill-rule:evenodd;stroke-width:0.625;stroke-linejoin:round" />
    </marker>
    <marker
       refX="0"
       refY="0"
       orient="auto"
       id="Arrow2Mstart-2"
       style="overflow:visible">
      <path
         d="M 8.7185878,4.0337352 -2.2072895,0.01601326 8.7185884,-4.0017078 c -1.7454984,2.3720609 -1.7354408,5.6174519 -6e-7,8.035443 z"
         transform="scale(0.6,0.6)"
         id="path4106-98"
         style="fill-rule:evenodd;stroke-width:0.625;stroke-linejoin:round" />
    </marker>
    <marker
       refX="0"
       refY="0"
       orient="auto"
       id="marker3696"
       style="overflow:visible">
      <path
         d="M 8.7185878,4.0337352 -2.2072895,0.01601326 8.7185884,-4.0017078 c -1.7454984,2.3720609 -1.7354408,5.6174519 -6e-7,8.035443 z"
         transform="scale(0.6,0.6)"
         id="path3698"
         style="fill-rule:evenodd;stroke-width:0.625;stroke-linejoin:round" />
    </marker>
    <marker
       refX="0"
       refY="0"
       orient="auto"
       id="Arrow2Mstart-5"
       style="overflow:visible">
      <path
         d="M 8.7185878,4.0337352 -2.2072895,0.01601326 8.7185884,-4.0017078 c -1.7454984,2.3720609 -1.7354408,5.6174519 -6e-7,8.035443 z"
         transform="scale(0.6,0.6)"
         id="path4106-0"
         style="fill-rule:evenodd;stroke-width:0.625;stroke-linejoin:round" />
    </marker>
    <marker
       refX="0"
       refY="0"
       orient="auto"
       id="marker3731"
       style="overflow:visible">
      <path
         d="M 8.7185878,4.0337352 -2.2072895,0.01601326 8.7185884,-4.0017078 c -1.7454984,2.3720609 -1.7354408,5.6174519 -6e-7,8.035443 z"
         transform="scale(0.6,0.6)"
         id="path3733"
         style="fill-rule:evenodd;stroke-width:0.625;stroke-linejoin:round" />
    </marker>
    <marker
       refX="0"
       refY="0"
       orient="auto"
       id="Arrow2Mstart-59"
       style="overflow:visible">
      <path
         d="M 8.7185878,4.0337352 -2.2072895,0.01601326 8.7185884,-4.0017078 c -1.7454984,2.3720609 -1.7354408,5.6174519 -6e-7,8.035443 z"
         transform="scale(0.6,0.6)"
         id="path4106-3"
         style="fill-rule:evenodd;stroke-width:0.625;stroke-linejoin:round" />
    </marker>
    <marker
       refX="0"
       refY="0"
       orient="auto"
       id="marker3766"
       style="overflow:visible">
      <path
         d="M 8.7185878,4.0337352 -2.2072895,0.01601326 8.7185884,-4.0017078 c -1.7454984,2.3720609 -1.7354408,5.6174519 -6e-7,8.035443 z"
         transform="scale(0.6,0.6)"
         id="path3768"
         style="fill-rule:evenodd;stroke-width:0.625;stroke-linejoin:round" />
    </marker>
    <marker
       refX="0"
       refY="0"
       orient="auto"
       id="Arrow2Mstart-60"
       style="overflow:visible">
      <path
         d="M 8.7185878,4.0337352 -2.2072895,0.01601326 8.7185884,-4.0017078 c -1.7454984,2.3720609 -1.7354408,5.6174519 -6e-7,8.035443 z"
         transform="scale(0.6,0.6)"
         id="path4106-82"
         style="fill-rule:evenodd;stroke-width:0.625;stroke-linejoin:round" />
    </marker>
    <marker
       refX="0"
       refY="0"
       orient="auto"
       id="marker3801"
       style="overflow:visible">
      <path
         d="M 8.7185878,4.0337352 -2.2072895,0.01601326 8.7185884,-4.0017078 c -1.7454984,2.3720609 -1.7354408,5.6174519 -6e-7,8.035443 z"
         transform="scale(0.6,0.6)"
         id="path3803"
         style="fill-rule:evenodd;stroke-width:0.625;stroke-linejoin:round" />
    </marker>
    <marker
       refX="0"
       refY="0"
       orient="auto"
       id="Arrow2Mstart-69"
       style="overflow:visible">
      <path
         d="M 8.7185878,4.0337352 -2.2072895,0.01601326 8.7185884,-4.0017078 c -1.7454984,2.3720609 -1.7354408,5.6174519 -6e-7,8.035443 z"
         transform="scale(0.6,0.6)"
         id="path4106-27"
         style="fill-rule:evenodd;stroke-width:0.625;stroke-linejoin:round" />
    </marker>
    <marker
       refX="0"
       refY="0"
       orient="auto"
       id="marker3836"
       style="overflow:visible">
      <path
         d="M 8.7185878,4.0337352 -2.2072895,0.01601326 8.7185884,-4.0017078 c -1.7454984,2.3720609 -1.7354408,5.6174519 -6e-7,8.035443 z"
         transform="scale(0.6,0.6)"
         id="path3838"
         style="fill-rule:evenodd;stroke-width:0.625;stroke-linejoin:round" />
    </marker>
  </defs>
  <metadata
     id="metadata7">
    <rdf:RDF>
      <cc:Work
         rdf:about="">
        <dc:format>image/svg+xml</dc:format>
        <dc:type
           rdf:resource="http://purl.org/dc/dcmitype/StillImage" />
        <dc:title></dc:title>
      </cc:Work>
    </rdf:RDF>
  </metadata>
  <g
     transform="translate(-102.61803,-61.363564)"
     id="layer1">
    <rect
       width="62.523991"
       height="79.790619"
       x="239.27269"
       y="81.225182"
       id="rect2985"
       style="fill:#fedcab;fill-opacity:1;stroke:#ce5c00;stroke-width:1;stroke-miterlimit:4;stroke-dasharray:none" />
    <path
       d="m 197.98989,-119.7066 a 19.192898,19.192898 0 1 1 -38.38579,0 19.192898,19.192898 0 1 1 38.38579,0 z"
       transform="matrix(0.6089592,0,0,0.6089592,147.57699,214.08477)"
       id="path3961"
       style="fill:#eeeeec;fill-opacity:1;stroke:#75507b;stroke-width:1.64214611;stroke-linecap:round;stroke-linejoin:round;stroke-miterlimit:4;stroke-opacity:1;stroke-dasharray:none" />
    <text
       x="252.12061"
       y="145.7594"
       id="text3957"
       xml:space="preserve"
       style="font-size:14px;font-style:normal;font-variant:normal;font-weight:normal;font-stretch:normal;line-height:125%;letter-spacing:0px;word-spacing:0px;fill:#000000;fill-opacity:1;stroke:none;font-family:Droid Sans;-inkscape-font-specification:Droid Sans"><tspan
         x="252.12061"
         y="145.7594"
         id="tspan3959"
         style="font-weight:bold">E</tspan></text>
    <rect
       width="62.524017"
       height="22.583426"
       x="239.27269"
       y="81.106018"
       id="rect2985-9-4"
       style="fill:#fcaf3e;fill-opacity:1;stroke:#ce5c00;stroke-width:1;stroke-miterlimit:4;stroke-dasharray:none" />
    <text
       x="244.32344"
       y="97.605377"
       id="text4887"
       xml:space="preserve"
       style="font-size:14px;font-style:normal;font-variant:normal;font-weight:normal;font-stretch:normal;line-height:125%;letter-spacing:0px;word-spacing:0px;fill:#000000;fill-opacity:1;stroke:none;font-family:Droid Sans;-inkscape-font-specification:Droid Sans"><tspan
         x="244.32344"
         y="97.605377"
         id="tspan4889">bucket 1</tspan></text>
    <rect
       width="62.523991"
       height="79.790619"
       x="312.12982"
       y="81.225182"
       id="rect2985-96"
       style="fill:#fedcab;fill-opacity:1;stroke:#ce5c00;stroke-width:1;stroke-miterlimit:4;stroke-dasharray:none" />
    <path
       d="m 197.98989,-119.7066 a 19.192898,19.192898 0 1 1 -38.38579,0 19.192898,19.192898 0 1 1 38.38579,0 z"
       transform="matrix(0.6089592,0,0,0.6089592,220.43413,214.08476)"
       id="path3961-3"
       style="fill:#eeeeec;fill-opacity:1;stroke:#75507b;stroke-width:1.64214611;stroke-linecap:round;stroke-linejoin:round;stroke-miterlimit:4;stroke-opacity:1;stroke-dasharray:none" />
    <text
       x="324.97775"
       y="145.7594"
       id="text3957-6"
       xml:space="preserve"
       style="font-size:14px;font-style:normal;font-variant:normal;font-weight:normal;font-stretch:normal;line-height:125%;letter-spacing:0px;word-spacing:0px;fill:#000000;fill-opacity:1;stroke:none;font-family:Droid Sans;-inkscape-font-specification:Droid Sans"><tspan
         x="324.97775"
         y="145.7594"
         id="tspan3959-4"
         style="font-weight:bold">B</tspan></text>
    <rect
       width="62.524017"
       height="22.583426"
       x="312.12982"
       y="81.10601"
       id="rect2985-9-4-5"
       style="fill:#fcaf3e;fill-opacity:1;stroke:#ce5c00;stroke-width:1;stroke-miterlimit:4;stroke-dasharray:none" />
    <text
       x="317.18057"
       y="97.60537"
       id="text4887-7"
       xml:space="preserve"
       style="font-size:14px;font-style:normal;font-variant:normal;font-weight:normal;font-stretch:normal;line-height:125%;letter-spacing:0px;word-spacing:0px;fill:#000000;fill-opacity:1;stroke:none;font-family:Droid Sans;-inkscape-font-specification:Droid Sans"><tspan
         x="317.18057"
         y="97.60537"
         id="tspan4889-3">bucket 2</tspan></text>
    <rect
       width="62.523991"
       height="79.790619"
       x="384.98697"
       y="81.225182"
       id="rect2985-96-2"
       style="fill:#fedcab;fill-opacity:1;stroke:#ce5c00;stroke-width:1;stroke-miterlimit:4;stroke-dasharray:none" />
    <rect
       width="62.524017"
       height="22.583426"
       x="384.98697"
       y="81.10601"
       id="rect2985-9-4-5-3"
       style="fill:#fcaf3e;fill-opacity:1;stroke:#ce5c00;stroke-width:1;stroke-miterlimit:4;stroke-dasharray:none" />
    <text
       x="390.03772"
       y="97.60537"
       id="text4887-7-9"
       xml:space="preserve"
       style="font-size:14px;font-style:normal;font-variant:normal;font-weight:normal;font-stretch:normal;line-height:125%;letter-spacing:0px;word-spacing:0px;fill:#000000;fill-opacity:1;stroke:none;font-family:Droid Sans;-inkscape-font-specification:Droid Sans"><tspan
         x="390.03772"
         y="97.60537"
         id="tspan4889-3-3">bucket 3</tspan></text>
    <rect
       width="62.523991"
       height="79.790619"
       x="457.84412"
       y="81.225182"
       id="rect2985-96-2-4"
       style="fill:#fedcab;fill-opacity:1;stroke:#ce5c00;stroke-width:1;stroke-miterlimit:4;stroke-dasharray:none" />
    <path
       d="m 197.98989,-119.7066 a 19.192898,19.192898 0 1 1 -38.38579,0 19.192898,19.192898 0 1 1 38.38579,0 z"
       transform="matrix(0.6089592,0,0,0.6089592,366.14843,214.08476)"
       id="path3961-3-8-0"
       style="fill:#eeeeec;fill-opacity:1;stroke:#75507b;stroke-width:1.64214611;stroke-linecap:round;stroke-linejoin:round;stroke-miterlimit:4;stroke-opacity:1;stroke-dasharray:none" />
    <text
       x="470.69205"
       y="145.7594"
       id="text3957-6-0-1"
       xml:space="preserve"
       style="font-size:14px;font-style:normal;font-variant:normal;font-weight:normal;font-stretch:normal;line-height:125%;letter-spacing:0px;word-spacing:0px;fill:#000000;fill-opacity:1;stroke:none;font-family:Droid Sans;-inkscape-font-specification:Droid Sans"><tspan
         x="470.69205"
         y="145.7594"
         id="tspan3959-4-0-4"
         style="font-weight:bold">D</tspan></text>
    <rect
       width="62.524017"
       height="22.583426"
       x="457.84412"
       y="81.10601"
       id="rect2985-9-4-5-3-8"
       style="fill:#fcaf3e;fill-opacity:1;stroke:#ce5c00;stroke-width:1;stroke-miterlimit:4;stroke-dasharray:none" />
    <text
       x="462.89487"
       y="97.60537"
       id="text4887-7-9-3"
       xml:space="preserve"
       style="font-size:14px;font-style:normal;font-variant:normal;font-weight:normal;font-stretch:normal;line-height:125%;letter-spacing:0px;word-spacing:0px;fill:#000000;fill-opacity:1;stroke:none;font-family:Droid Sans;-inkscape-font-specification:Droid Sans"><tspan
         x="462.89487"
         y="97.60537"
         id="tspan4889-3-3-5">bucket 4</tspan></text>
    <rect
       width="62.523991"
       height="79.790619"
       x="274.98697"
       y="172.65375"
       id="rect2985-97"
       style="fill:#fedcab;fill-opacity:1;stroke:#ce5c00;stroke-width:1;stroke-miterlimit:4;stroke-dasharray:none" />
    <rect
       width="62.524017"
       height="22.583426"
       x="274.98697"
       y="172.53458"
       id="rect2985-9-4-7"
       style="fill:#fcaf3e;fill-opacity:1;stroke:#ce5c00;stroke-width:1;stroke-miterlimit:4;stroke-dasharray:none" />
    <text
       x="280.03772"
       y="189.03394"
       id="text4887-3"
       xml:space="preserve"
       style="font-size:14px;font-style:normal;font-variant:normal;font-weight:normal;font-stretch:normal;line-height:125%;letter-spacing:0px;word-spacing:0px;fill:#000000;fill-opacity:1;stroke:none;font-family:Droid Sans;-inkscape-font-specification:Droid Sans"><tspan
         x="280.03772"
         y="189.03394"
         id="tspan4889-0">bucket 5</tspan></text>
    <rect
       width="62.523991"
       height="79.790619"
       x="347.84412"
       y="172.65375"
       id="rect2985-96-9"
       style="fill:#fedcab;fill-opacity:1;stroke:#ce5c00;stroke-width:1;stroke-miterlimit:4;stroke-dasharray:none" />
    <path
       d="m 197.98989,-119.7066 a 19.192898,19.192898 0 1 1 -38.38579,0 19.192898,19.192898 0 1 1 38.38579,0 z"
       transform="matrix(0.6089592,0,0,0.6089592,280.39208,286.32043)"
       id="path3961-3-5"
       style="fill:#eeeeec;fill-opacity:1;stroke:#75507b;stroke-width:1.64214611;stroke-linecap:round;stroke-linejoin:round;stroke-miterlimit:4;stroke-opacity:1;stroke-dasharray:none" />
    <text
       x="384.43063"
       y="218.2476"
       id="text3957-6-6"
       xml:space="preserve"
       style="font-size:14px;font-style:normal;font-variant:normal;font-weight:normal;font-stretch:normal;line-height:125%;letter-spacing:0px;word-spacing:0px;fill:#000000;fill-opacity:1;stroke:none;font-family:Droid Sans;-inkscape-font-specification:Droid Sans"><tspan
         x="384.43063"
         y="218.2476"
         id="tspan3959-4-4"
         style="font-weight:bold">C</tspan></text>
    <rect
       width="62.524017"
       height="22.583426"
       x="347.84412"
       y="172.53458"
       id="rect2985-9-4-5-36"
       style="fill:#fcaf3e;fill-opacity:1;stroke:#ce5c00;stroke-width:1;stroke-miterlimit:4;stroke-dasharray:none" />
    <text
       x="352.89487"
       y="189.03394"
       id="text4887-7-7"
       xml:space="preserve"
       style="font-size:14px;font-style:normal;font-variant:normal;font-weight:normal;font-stretch:normal;line-height:125%;letter-spacing:0px;word-spacing:0px;fill:#000000;fill-opacity:1;stroke:none;font-family:Droid Sans;-inkscape-font-specification:Droid Sans"><tspan
         x="352.89487"
         y="189.03394"
         id="tspan4889-3-5">bucket 6</tspan></text>
    <rect
       width="62.523991"
       height="79.790619"
       x="420.70126"
       y="172.65375"
       id="rect2985-96-2-9"
       style="fill:#fedcab;fill-opacity:1;stroke:#ce5c00;stroke-width:1;stroke-miterlimit:4;stroke-dasharray:none" />
    <rect
       width="62.524017"
       height="22.583426"
       x="420.70126"
       y="172.53458"
       id="rect2985-9-4-5-3-1"
       style="fill:#fcaf3e;fill-opacity:1;stroke:#ce5c00;stroke-width:1;stroke-miterlimit:4;stroke-dasharray:none" />
    <text
       x="425.75201"
       y="189.03394"
       id="text4887-7-9-5"
       xml:space="preserve"
       style="font-size:14px;font-style:normal;font-variant:normal;font-weight:normal;font-stretch:normal;line-height:125%;letter-spacing:0px;word-spacing:0px;fill:#000000;fill-opacity:1;stroke:none;font-family:Droid Sans;-inkscape-font-specification:Droid Sans"><tspan
         x="425.75201"
         y="189.03394"
         id="tspan4889-3-3-8">bucket 7</tspan></text>
    <path
       d="m 197.98989,-119.7066 a 19.192898,19.192898 0 1 1 -38.38579,0 19.192898,19.192898 0 1 1 38.38579,0 z"
       transform="matrix(0.6089592,0,0,0.6089592,393.29639,193.37663)"
       id="path3961-3-8"
       style="fill:#eeeeec;fill-opacity:1;stroke:#75507b;stroke-width:1.64214611;stroke-linecap:round;stroke-linejoin:round;stroke-miterlimit:4;stroke-opacity:1;stroke-dasharray:none" />
    <text
       x="497.84"
       y="125.05128"
       id="text3957-6-0"
       xml:space="preserve"
       style="font-size:14px;font-style:normal;font-variant:normal;font-weight:normal;font-stretch:normal;line-height:125%;letter-spacing:0px;word-spacing:0px;fill:#000000;fill-opacity:1;stroke:none;font-family:Droid Sans;-inkscape-font-specification:Droid Sans"><tspan
         x="497.84"
         y="125.05128"
         id="tspan3959-4-0"
         style="font-weight:bold">A</tspan></text>
  </g>
</svg>
