<?xml version="1.0" encoding="UTF-8" standalone="no"?>
<!-- Created with Inkscape (http://www.inkscape.org/) -->

<svg
   xmlns:dc="http://purl.org/dc/elements/1.1/"
   xmlns:cc="http://creativecommons.org/ns#"
   xmlns:rdf="http://www.w3.org/1999/02/22-rdf-syntax-ns#"
   xmlns:svg="http://www.w3.org/2000/svg"
   xmlns="http://www.w3.org/2000/svg"
   xmlns:xlink="http://www.w3.org/1999/xlink"
   xmlns:sodipodi="http://sodipodi.sourceforge.net/DTD/sodipodi-0.dtd"
   xmlns:inkscape="http://www.inkscape.org/namespaces/inkscape"
   width="417.63715"
   height="251.72836"
   id="svg2"
   version="1.1"
   inkscape:version="0.48.5 r10040"
   sodipodi:docname="New document 1">
  <defs
     id="defs4">
    <linearGradient
       inkscape:collect="always"
       id="linearGradient5419">
      <stop
         style="stop-color:#00aa00;stop-opacity:1;"
         offset="0"
         id="stop5421" />
      <stop
         style="stop-color:#00aa00;stop-opacity:0;"
         offset="1"
         id="stop5423" />
    </linearGradient>
    <linearGradient
       inkscape:collect="always"
       id="linearGradient5352">
      <stop
         style="stop-color:#d40000;stop-opacity:1;"
         offset="0"
         id="stop5354" />
      <stop
         style="stop-color:#d40000;stop-opacity:0;"
         offset="1"
         id="stop5356" />
    </linearGradient>
    <linearGradient
       inkscape:collect="always"
       id="linearGradient5306">
      <stop
         style="stop-color:#ffd42a;stop-opacity:1;"
         offset="0"
         id="stop5308" />
      <stop
         style="stop-color:#ffd42a;stop-opacity:0;"
         offset="1"
         id="stop5310" />
    </linearGradient>
    <marker
       inkscape:stockid="Arrow2Send"
       orient="auto"
       refY="0"
       refX="0"
       id="Arrow2Send"
       style="overflow:visible">
      <path
         id="path4222"
         style="fill-rule:evenodd;stroke-width:0.625;stroke-linejoin:round"
         d="M 8.7185878,4.0337352 -2.2072895,0.01601326 8.7185884,-4.0017078 c -1.7454984,2.3720609 -1.7354408,5.6174519 -6e-7,8.035443 z"
         transform="matrix(-0.3,0,0,-0.3,0.69,0)"
         inkscape:connector-curvature="0" />
    </marker>
    <marker
       inkscape:stockid="TriangleOutM"
       orient="auto"
       refY="0"
       refX="0"
       id="TriangleOutM"
       style="overflow:visible">
      <path
         id="path4334"
         d="m 5.77,0 -8.65,5 0,-10 8.65,5 z"
         style="fill-rule:evenodd;stroke:#000000;stroke-width:1pt"
         transform="scale(0.4,0.4)"
         inkscape:connector-curvature="0" />
    </marker>
    <marker
       inkscape:stockid="Arrow1Send"
       orient="auto"
       refY="0"
       refX="0"
       id="Arrow1Send"
       style="overflow:visible">
      <path
         id="path4204"
         d="M 0,0 5,-5 -12.5,0 5,5 0,0 z"
         style="fill-rule:evenodd;stroke:#000000;stroke-width:1pt"
         transform="matrix(-0.2,0,0,-0.2,-1.2,0)"
         inkscape:connector-curvature="0" />
    </marker>
    <radialGradient
       inkscape:collect="always"
       xlink:href="#linearGradient2989-7"
       id="radialGradient2995-1"
       cx="163.3665"
       cy="443.8306"
       fx="163.3665"
       fy="443.8306"
       r="62.363808"
       gradientUnits="userSpaceOnUse"
       gradientTransform="matrix(4.3360006,2.3606642,-0.93103664,1.7100988,-143.50506,-706.14094)" />
    <linearGradient
       inkscape:collect="always"
       id="linearGradient2989-7">
      <stop
         style="stop-color:#ff6600;stop-opacity:1;"
         offset="0"
         id="stop2991-4" />
      <stop
         style="stop-color:#ff6600;stop-opacity:0;"
         offset="1"
         id="stop2993-0" />
    </linearGradient>
    <radialGradient
       inkscape:collect="always"
       xlink:href="#linearGradient3031-8"
       id="radialGradient3037-8"
       cx="138.17863"
       cy="440.95233"
       fx="138.17863"
       fy="440.95233"
       r="62.363808"
       gradientUnits="userSpaceOnUse"
       gradientTransform="matrix(2.6190404,-1.7623917,0.83936877,1.2473692,-593.83842,134.44685)" />
    <linearGradient
       inkscape:collect="always"
       id="linearGradient3031-8">
      <stop
         style="stop-color:#55d400;stop-opacity:1;"
         offset="0"
         id="stop3033-2" />
      <stop
         style="stop-color:#55d400;stop-opacity:0;"
         offset="1"
         id="stop3035-7" />
    </linearGradient>
    <radialGradient
       r="62.363808"
       fy="440.95233"
       fx="138.17863"
       cy="440.95233"
       cx="138.17863"
       gradientTransform="matrix(2.6190404,-1.7623917,0.83936877,1.2473692,-593.83842,134.44685)"
       gradientUnits="userSpaceOnUse"
       id="radialGradient3062-1"
       xlink:href="#linearGradient3039-2"
       inkscape:collect="always" />
    <linearGradient
       inkscape:collect="always"
       id="linearGradient3039-2">
      <stop
         style="stop-color:#d40000;stop-opacity:1;"
         offset="0"
         id="stop3041-6" />
      <stop
         style="stop-color:#d40000;stop-opacity:0;"
         offset="1"
         id="stop3043-0" />
    </linearGradient>
    <inkscape:path-effect
       fuse_tolerance="0"
       vertical_pattern="false"
       prop_units="false"
       tang_offset="0"
       normal_offset="0"
       spacing="0"
       scale_y_rel="false"
       prop_scale="1"
       copytype="single_stretched"
       pattern="M 0,5 10,10 10,0 z"
       is_visible="true"
       id="path-effect4638"
       effect="skeletal" />
    <inkscape:path-effect
       fuse_tolerance="0"
       vertical_pattern="false"
       prop_units="false"
       tang_offset="0"
       normal_offset="0"
       spacing="0"
       scale_y_rel="false"
       prop_scale="1"
       copytype="single_stretched"
       pattern="M 0,5 10,10 10,0 z"
       is_visible="true"
       id="path-effect4642"
       effect="skeletal" />
    <radialGradient
       inkscape:collect="always"
       xlink:href="#linearGradient5306"
       id="radialGradient5312"
       cx="359.37845"
       cy="142.86273"
       fx="359.37845"
       fy="142.86273"
       r="74.838158"
       gradientUnits="userSpaceOnUse"
       gradientTransform="matrix(-0.86027111,-2.2004166,1.4691005,-0.57434234,508.22095,1053.4819)" />
    <radialGradient
       inkscape:collect="always"
       xlink:href="#linearGradient5306-1"
       id="radialGradient5312-8"
       cx="359.37845"
       cy="142.86273"
       fx="359.37845"
       fy="142.86273"
       r="74.838158"
       gradientUnits="userSpaceOnUse"
       gradientTransform="matrix(-0.86027111,-2.2004166,1.4691005,-0.57434234,508.22095,1053.4819)" />
    <linearGradient
       inkscape:collect="always"
       id="linearGradient5306-1">
      <stop
         style="stop-color:#ffd42a;stop-opacity:1;"
         offset="0"
         id="stop5308-2" />
      <stop
         style="stop-color:#ffd42a;stop-opacity:0;"
         offset="1"
         id="stop5310-1" />
    </linearGradient>
    <radialGradient
       inkscape:collect="always"
       xlink:href="#linearGradient5352"
       id="radialGradient5362"
       cx="505.33887"
       cy="191.03993"
       fx="505.33887"
       fy="191.03993"
       r="74.338158"
       gradientUnits="userSpaceOnUse"
       gradientTransform="matrix(0.2708932,2.0756328,-2.6387359,0.3443854,747.67833,-947.73563)" />
    <radialGradient
       inkscape:collect="always"
       xlink:href="#linearGradient5352-8"
       id="radialGradient5362-9"
       cx="505.33887"
       cy="191.03993"
       fx="505.33887"
       fy="191.03993"
       r="74.338158"
       gradientUnits="userSpaceOnUse"
       gradientTransform="matrix(0.2708932,2.0756328,-2.6387359,0.3443854,747.67833,-947.73563)" />
    <linearGradient
       inkscape:collect="always"
       id="linearGradient5352-8">
      <stop
         style="stop-color:#d40000;stop-opacity:1;"
         offset="0"
         id="stop5354-2" />
      <stop
         style="stop-color:#d40000;stop-opacity:0;"
         offset="1"
         id="stop5356-4" />
    </linearGradient>
    <radialGradient
       inkscape:collect="always"
       xlink:href="#linearGradient5352-9"
       id="radialGradient5362-2"
       cx="505.33887"
       cy="191.03993"
       fx="505.33887"
       fy="191.03993"
       r="74.338158"
       gradientUnits="userSpaceOnUse"
       gradientTransform="matrix(0.2708932,2.0756328,-2.6387359,0.3443854,747.67833,-947.73563)" />
    <linearGradient
       inkscape:collect="always"
       id="linearGradient5352-9">
      <stop
         style="stop-color:#d40000;stop-opacity:1;"
         offset="0"
         id="stop5354-9" />
      <stop
         style="stop-color:#d40000;stop-opacity:0;"
         offset="1"
         id="stop5356-8" />
    </linearGradient>
    <radialGradient
       inkscape:collect="always"
       xlink:href="#linearGradient5419"
       id="radialGradient5427"
       cx="297.15564"
       cy="213.68057"
       fx="297.15564"
       fy="213.68057"
       r="74.838158"
       gradientUnits="userSpaceOnUse"
       gradientTransform="matrix(-0.67647359,-1.9305306,1.4026573,-0.49149536,296.62902,859.86071)" />
    <radialGradient
       inkscape:collect="always"
       xlink:href="#linearGradient5352"
       id="radialGradient5456"
       gradientUnits="userSpaceOnUse"
       gradientTransform="matrix(0.2708932,2.0756328,-2.6387359,0.3443854,747.67833,-947.73563)"
       cx="505.33887"
       cy="191.03993"
       fx="505.33887"
       fy="191.03993"
       r="74.338158" />
    <radialGradient
       inkscape:collect="always"
       xlink:href="#linearGradient5306"
       id="radialGradient5458"
       gradientUnits="userSpaceOnUse"
       gradientTransform="matrix(-0.86027111,-2.2004166,1.4691005,-0.57434234,508.22095,1053.4819)"
       cx="359.37845"
       cy="142.86273"
       fx="359.37845"
       fy="142.86273"
       r="74.838158" />
    <radialGradient
       inkscape:collect="always"
       xlink:href="#linearGradient5419"
       id="radialGradient5460"
       gradientUnits="userSpaceOnUse"
       gradientTransform="matrix(-0.67647359,-1.9305306,1.4026573,-0.49149536,296.62902,859.86071)"
       cx="297.15564"
       cy="213.68057"
       fx="297.15564"
       fy="213.68057"
       r="74.838158" />
    <radialGradient
       inkscape:collect="always"
       xlink:href="#linearGradient5352"
       id="radialGradient5540"
       gradientUnits="userSpaceOnUse"
       gradientTransform="matrix(0.2708932,2.0756328,-2.6387359,0.3443854,747.67833,-947.73563)"
       cx="505.33887"
       cy="191.03993"
       fx="505.33887"
       fy="191.03993"
       r="74.338158" />
    <radialGradient
       inkscape:collect="always"
       xlink:href="#linearGradient5306"
       id="radialGradient5542"
       gradientUnits="userSpaceOnUse"
       gradientTransform="matrix(-0.86027111,-2.2004166,1.4691005,-0.57434234,508.22095,1053.4819)"
       cx="359.37845"
       cy="142.86273"
       fx="359.37845"
       fy="142.86273"
       r="74.838158" />
    <radialGradient
       inkscape:collect="always"
       xlink:href="#linearGradient5419"
       id="radialGradient5544"
       gradientUnits="userSpaceOnUse"
       gradientTransform="matrix(-0.67647359,-1.9305306,1.4026573,-0.49149536,296.62902,859.86071)"
       cx="297.15564"
       cy="213.68057"
       fx="297.15564"
       fy="213.68057"
       r="74.838158" />
  </defs>
  <sodipodi:namedview
     id="base"
     pagecolor="#ffffff"
     bordercolor="#666666"
     borderopacity="1.0"
     inkscape:pageopacity="0.0"
     inkscape:pageshadow="2"
     inkscape:zoom="1.5883171"
     inkscape:cx="442.7639"
     inkscape:cy="-24.381359"
     inkscape:document-units="px"
     inkscape:current-layer="layer1"
     showgrid="false"
     showguides="true"
     inkscape:guide-bbox="true"
     fit-margin-top="0"
     fit-margin-left="0"
     fit-margin-right="0"
     fit-margin-bottom="0"
     inkscape:window-width="2560"
     inkscape:window-height="1417"
     inkscape:window-x="-8"
     inkscape:window-y="-8"
     inkscape:window-maximized="1" />
  <metadata
     id="metadata7">
    <rdf:RDF>
      <cc:Work
         rdf:about="">
        <dc:format>image/svg+xml</dc:format>
        <dc:type
           rdf:resource="http://purl.org/dc/dcmitype/StillImage" />
        <dc:title></dc:title>
      </cc:Work>
    </rdf:RDF>
  </metadata>
  <g
     inkscape:label="Layer 1"
     inkscape:groupmode="layer"
     id="layer1"
     transform="translate(-143.61768,-94.224164)">
    <g
       id="g5512">
      <text
         sodipodi:linespacing="125%"
         id="text4693"
         y="154.4021"
         x="373.85266"
         style="font-size:11.87278461px;font-style:normal;font-variant:normal;font-weight:normal;font-stretch:normal;text-align:start;line-height:125%;letter-spacing:0px;word-spacing:0px;writing-mode:lr-tb;text-anchor:start;fill:#000000;fill-opacity:1;stroke:none;font-family:Segoe UI;-inkscape-font-specification:Segoe UI"
         xml:space="preserve"><tspan
           y="154.4021"
           x="373.85266"
           id="tspan4695"
           sodipodi:role="line">1. Napisać test, który nie przechodzi</tspan></text>
      <g
         id="g5487">
        <path
           sodipodi:type="arc"
           style="fill:#ffffff;stroke:#373e48;stroke-width:14.40529156;stroke-miterlimit:4;stroke-dasharray:none"
           id="path4632"
           sodipodi:cx="439.2709"
           sodipodi:cy="447.89539"
           sodipodi:rx="165.94679"
           sodipodi:ry="146.42365"
           d="m 605.2177,447.89539 c 0,80.86754 -74.29691,146.42364 -165.9468,146.42364 -91.64988,0 -165.94679,-65.5561 -165.94679,-146.42364 0,-80.86755 74.29691,-146.42365 165.94679,-146.42365 91.64989,0 165.9468,65.5561 165.9468,146.42365 z"
           transform="matrix(0.53957124,0,0,0.60874652,90.110918,-32.546146)" />
        <path
           sodipodi:type="arc"
           style="fill:#ffffff;fill-opacity:1;stroke:none"
           id="path4544-5"
           sodipodi:cx="401.72638"
           sodipodi:cy="177.57481"
           sodipodi:rx="74.338158"
           sodipodi:ry="74.338158"
           d="m 476.06454,177.57481 c 0,41.05583 -33.28233,74.33816 -74.33816,74.33816 -41.05583,0 -74.33816,-33.28233 -74.33816,-74.33816 0,-41.05583 33.28233,-74.33815 74.33816,-74.33815 41.05583,0 74.33816,33.28232 74.33816,74.33815 z"
           transform="matrix(0.53967201,0,0,0.53967201,112.74898,38.51023)" />
        <path
           sodipodi:type="arc"
           style="fill:url(#radialGradient5540);fill-opacity:1;stroke:none"
           id="path4544"
           sodipodi:cx="401.72638"
           sodipodi:cy="177.57481"
           sodipodi:rx="74.338158"
           sodipodi:ry="74.338158"
           d="m 476.06454,177.57481 c 0,41.05583 -33.28233,74.33816 -74.33816,74.33816 -41.05583,0 -74.33816,-33.28233 -74.33816,-74.33816 0,-41.05583 33.28233,-74.33815 74.33816,-74.33815 41.05583,0 74.33816,33.28232 74.33816,74.33815 z"
           transform="matrix(0.53967201,0,0,0.53967201,112.74898,38.51023)" />
        <text
           xml:space="preserve"
           style="font-size:11.87278461px;font-style:normal;font-variant:normal;font-weight:normal;font-stretch:normal;text-align:start;line-height:125%;letter-spacing:0px;word-spacing:0px;writing-mode:lr-tb;text-anchor:start;fill:#000000;fill-opacity:1;stroke:none;font-family:Segoe UI;-inkscape-font-specification:Segoe UI"
           x="380.89374"
           y="328.31726"
           id="text4697"
           sodipodi:linespacing="125%"><tspan
             y="328.31726"
             x="380.89374"
             sodipodi:role="line"
             id="tspan4709">2. Napisać tylko tyle kodu,</tspan><tspan
             y="343.15823"
             x="380.89374"
             sodipodi:role="line"
             id="tspan4711">    żeby test przeszedł</tspan></text>
        <text
           xml:space="preserve"
           style="font-size:11.87278461px;font-style:normal;font-variant:normal;font-weight:normal;font-stretch:normal;text-align:start;line-height:125%;letter-spacing:0px;word-spacing:0px;writing-mode:lr-tb;text-anchor:start;fill:#000000;fill-opacity:1;stroke:none;font-family:Segoe UI;-inkscape-font-specification:Segoe UI"
           x="142.90462"
           y="328.31726"
           id="text4701"
           sodipodi:linespacing="125%"><tspan
             sodipodi:role="line"
             id="tspan4703"
             x="142.90462"
             y="328.31726">3. Poprawić jakość kodu</tspan></text>
        <path
           transform="matrix(0.53967201,0,0,0.53967201,7.7824157,161.2963)"
           sodipodi:type="arc"
           style="fill:#ffffff;fill-opacity:1;stroke:#ffffff;stroke-width:1.42386711"
           id="path4544-9-4"
           sodipodi:cx="401.72638"
           sodipodi:cy="177.57481"
           sodipodi:rx="74.338158"
           sodipodi:ry="74.338158"
           d="m 476.06454,177.57481 c 0,41.05583 -33.28233,74.33816 -74.33816,74.33816 -41.05583,0 -74.33816,-33.28233 -74.33816,-74.33816 0,-41.05583 33.28233,-74.33815 74.33816,-74.33815 41.05583,0 74.33816,33.28232 74.33816,74.33815 z" />
        <path
           transform="matrix(0.53967201,0,0,0.53967201,7.7824157,161.2963)"
           sodipodi:type="arc"
           style="fill:url(#radialGradient5542);fill-opacity:1;stroke:#ffffff;stroke-width:1.42386711"
           id="path4544-9"
           sodipodi:cx="401.72638"
           sodipodi:cy="177.57481"
           sodipodi:rx="74.338158"
           sodipodi:ry="74.338158"
           d="m 476.06454,177.57481 c 0,41.05583 -33.28233,74.33816 -74.33816,74.33816 -41.05583,0 -74.33816,-33.28233 -74.33816,-74.33816 0,-41.05583 33.28233,-74.33815 74.33816,-74.33815 41.05583,0 74.33816,33.28232 74.33816,74.33815 z" />
        <text
           xml:space="preserve"
           style="font-size:14.04625416px;font-style:normal;font-variant:normal;font-weight:bold;font-stretch:normal;text-align:center;line-height:125%;letter-spacing:0px;word-spacing:0px;writing-mode:lr-tb;text-anchor:middle;fill:#000000;fill-opacity:1;stroke:none;font-family:Segoe UI;-inkscape-font-specification:Segoe UI Bold"
           x="223.93831"
           y="261.86542"
           id="text4546-4"
           sodipodi:linespacing="125%"><tspan
             sodipodi:role="line"
             id="tspan4596"
             x="223.93831"
             y="261.86542">REFACTOR</tspan></text>
        <text
           xml:space="preserve"
           style="font-size:14.04625416px;font-style:normal;font-variant:normal;font-weight:bold;font-stretch:normal;text-align:center;line-height:125%;letter-spacing:0px;word-spacing:0px;writing-mode:lr-tb;text-anchor:middle;fill:#000000;fill-opacity:1;stroke:none;font-family:Segoe UI;-inkscape-font-specification:Segoe UI Bold"
           x="329.54102"
           y="129.3631"
           id="text4546"
           sodipodi:linespacing="125%"><tspan
             sodipodi:role="line"
             id="tspan4548"
             x="329.54102"
             y="129.3631">RED</tspan><tspan
             sodipodi:role="line"
             x="329.54102"
             y="146.92091"
             id="tspan4550">(fail)</tspan></text>
        <path
           sodipodi:type="star"
           style="fill:#373e48;stroke:#373e48;stroke-width:1.15286279"
           id="path4646-4"
           sodipodi:sides="3"
           sodipodi:cx="523.23584"
           sodipodi:cy="327.10172"
           sodipodi:r1="15.557394"
           sodipodi:r2="7.778697"
           sodipodi:arg1="1.2966289"
           sodipodi:arg2="2.3438264"
           inkscape:flatsided="false"
           inkscape:rounded="0"
           inkscape:randomized="0"
           d="m 527.44794,342.07806 -9.64402,-9.40837 -9.64402,-9.40836 12.96989,-3.64778 12.96989,-3.64779 -3.32587,13.05615 z"
           transform="matrix(0.62233322,0.23748941,-0.24154915,0.63401355,47.433431,-174.9717)"
           inkscape:transform-center-x="-0.70920484"
           inkscape:transform-center-y="3.1896795" />
        <path
           sodipodi:type="star"
           style="fill:#373e48;stroke:#373e48;stroke-width:1.08323693"
           id="path4646-2"
           sodipodi:sides="3"
           sodipodi:cx="523.23584"
           sodipodi:cy="327.10172"
           sodipodi:r1="15.557394"
           sodipodi:r2="7.778697"
           sodipodi:arg1="1.2966289"
           sodipodi:arg2="2.3438264"
           inkscape:flatsided="false"
           inkscape:rounded="0"
           inkscape:randomized="0"
           d="m 527.44794,342.07806 -9.64402,-9.40837 -9.64402,-9.40836 12.96989,-3.64778 12.96989,-3.64779 -3.32587,13.05615 z"
           transform="matrix(0.56594487,0.42743529,-0.43546373,0.5756113,98.875636,-122.7764)"
           inkscape:transform-center-x="-2.9458617"
           inkscape:transform-center-y="1.2575578" />
        <path
           sodipodi:type="arc"
           style="fill:#ffffff;fill-opacity:1;stroke:none"
           id="path4544-3"
           sodipodi:cx="401.72638"
           sodipodi:cy="177.57481"
           sodipodi:rx="74.338158"
           sodipodi:ry="74.338158"
           d="m 476.06454,177.57481 c 0,41.05583 -33.28233,74.33816 -74.33816,74.33816 -41.05583,0 -74.33816,-33.28233 -74.33816,-74.33816 0,-41.05583 33.28233,-74.33815 74.33816,-74.33815 41.05583,0 74.33816,33.28232 74.33816,74.33815 z"
           transform="matrix(0.53967201,0,0,0.53967201,217.98539,161.56613)" />
        <path
           transform="matrix(0.53967201,0,0,0.53967201,217.71555,161.2963)"
           sodipodi:type="arc"
           style="fill:url(#radialGradient5544);fill-opacity:1;stroke:#ffffff;stroke-width:1.42386711"
           id="path4544-1"
           sodipodi:cx="401.72638"
           sodipodi:cy="177.57481"
           sodipodi:rx="74.338158"
           sodipodi:ry="74.338158"
           d="m 476.06454,177.57481 c 0,41.05583 -33.28233,74.33816 -74.33816,74.33816 -41.05583,0 -74.33816,-33.28233 -74.33816,-74.33816 0,-41.05583 33.28233,-74.33815 74.33816,-74.33815 41.05583,0 74.33816,33.28232 74.33816,74.33815 z" />
        <text
           xml:space="preserve"
           style="font-size:14.04625416px;font-style:normal;font-variant:normal;font-weight:bold;font-stretch:normal;text-align:center;line-height:125%;letter-spacing:0px;word-spacing:0px;writing-mode:lr-tb;text-anchor:middle;fill:#000000;fill-opacity:1;stroke:none;font-family:Segoe UI;-inkscape-font-specification:Segoe UI Bold"
           x="434.90393"
           y="251.73422"
           id="text4546-7"
           sodipodi:linespacing="125%"><tspan
             sodipodi:role="line"
             id="tspan4579"
             x="434.90393"
             y="251.73422">GREEN</tspan><tspan
             sodipodi:role="line"
             id="tspan4581"
             x="434.90393"
             y="269.29205">(pass)</tspan></text>
        <path
           sodipodi:type="star"
           style="fill:#373e48;stroke:#373e48;stroke-width:1.1268369"
           id="path4646"
           sodipodi:sides="3"
           sodipodi:cx="523.23584"
           sodipodi:cy="327.10172"
           sodipodi:r1="15.557394"
           sodipodi:r2="7.778697"
           sodipodi:arg1="1.2966289"
           sodipodi:arg2="2.3438264"
           inkscape:flatsided="false"
           inkscape:rounded="0"
           inkscape:randomized="0"
           d="m 527.44794,342.07806 -9.64402,-9.40837 -9.64402,-9.40836 12.96989,-3.64778 12.96989,-3.64779 -3.32587,13.05615 z"
           transform="matrix(0.68179176,0,0,0.69383385,57.422939,-6.8390629)"
           inkscape:transform-center-x="2.0445177"
           inkscape:transform-center-y="1.8970163" />
      </g>
    </g>
  </g>
</svg>
