<?xml version="1.0" encoding="UTF-8" standalone="no"?>
<!DOCTYPE svg PUBLIC "-//W3C//DTD SVG 1.1//EN" "http://www.w3.org/Graphics/SVG/1.1/DTD/svg11.dtd">
<!-- Generated by Microsoft Visio, SVG Export aggregate-after.svg Page-1 -->
<svg xmlns="http://www.w3.org/2000/svg" xmlns:xlink="http://www.w3.org/1999/xlink" xmlns:ev="http://www.w3.org/2001/xml-events"
		xmlns:v="http://schemas.microsoft.com/visio/2003/SVGExtensions/" width="9.03175in" height="5.27922in"
		viewBox="0 0 650.286 380.104" xml:space="preserve" color-interpolation-filters="sRGB" class="st11">
	<v:documentProperties v:langID="1033" v:metric="true" v:viewMarkup="false"/>

	<style type="text/css">
	<![CDATA[
		.st1 {visibility:visible}
		.st2 {fill:#5b9bd5;fill-opacity:0.25;filter:url(#filter_2);stroke:#5b9bd5;stroke-opacity:0.25}
		.st3 {fill:#4f87bb;stroke:#40709c;stroke-width:0.75}
		.st4 {fill:#feffff;font-family:Calibri;font-size:1.16666em}
		.st5 {font-size:1em}
		.st6 {stroke:#5b9bd5;stroke-linecap:round;stroke-linejoin:round;stroke-width:1}
		.st7 {fill:none;filter:url(#filter_2);stroke:#5b9bd5;stroke-dasharray:1.75,1.25;stroke-opacity:0.22}
		.st8 {stroke:#ff0000;stroke-dasharray:1.75,1.25;stroke-width:0.25}
		.st9 {fill:none;stroke:none;stroke-width:0.25}
		.st10 {fill:#ff0000;font-family:Calibri;font-size:1.5em}
		.st11 {fill:none;fill-rule:evenodd;font-size:12px;overflow:visible;stroke-linecap:square;stroke-miterlimit:3}
	]]>
	</style>

	<defs id="Filters">
		<filter id="filter_2">
			<feGaussianBlur stdDeviation="2"/>
		</filter>
	</defs>
	<g v:mID="0" v:index="1" v:groupContext="foregroundPage">
		<title>Page-1</title>
		<v:pageProperties v:drawingScale="0.0393701" v:pageScale="0.0393701" v:drawingUnits="24" v:shadowOffsetX="8.50394"
				v:shadowOffsetY="-8.50394"/>
		<v:layer v:name="Connector" v:index="0"/>
		<g id="group37-1" transform="translate(3.18473,-0.80014)" v:mID="37" v:groupContext="group">
			<title>Sheet.37</title>
			<g id="group1-2" transform="translate(24.8559,-35.4883)" v:mID="1" v:groupContext="group">
				<title>Sheet.1</title>
				<g id="shape2-3" v:mID="2" v:groupContext="shape" transform="translate(54.2504,-265.307)">
					<title>Rounded Rectangle</title>
					<desc>Credit Card</desc>
					<v:userDefs>
						<v:ud v:nameU="CTypeTopLeftSnip" v:prompt="" v:val="VT0(0):5"/>
						<v:ud v:nameU="CTypeTopRightSnip" v:prompt="" v:val="VT0(0):5"/>
						<v:ud v:nameU="CTypeBotLeftSnip" v:prompt="" v:val="VT0(0):5"/>
						<v:ud v:nameU="CTypeBotRightSnip" v:prompt="" v:val="VT0(0):5"/>
						<v:ud v:nameU="CornerLockHoriz" v:prompt="" v:val="VT0(1):5"/>
						<v:ud v:nameU="CornerLockVert" v:prompt="" v:val="VT0(1):5"/>
						<v:ud v:nameU="CornerLockDiag" v:prompt="" v:val="VT0(0):5"/>
						<v:ud v:nameU="TopLeftOffset" v:prompt="" v:val="VT0(0.15748031496063):24"/>
						<v:ud v:nameU="TopRightOffset" v:prompt="" v:val="VT0(0.15748031496063):24"/>
						<v:ud v:nameU="BotLeftOffset" v:prompt="" v:val="VT0(0.15748031496063):24"/>
						<v:ud v:nameU="BotRightOffset" v:prompt="" v:val="VT0(0.15748031496063):24"/>
						<v:ud v:nameU="visVersion" v:prompt="" v:val="VT0(15):26"/>
						<v:ud v:nameU="TopLeftOffset" v:prompt="" v:val="VT0(0.11456981474384):1"/>
						<v:ud v:nameU="TopRightOffset" v:prompt="" v:val="VT0(0.11456981474384):1"/>
						<v:ud v:nameU="BotLeftOffset" v:prompt="" v:val="VT0(0.11456981474384):1"/>
						<v:ud v:nameU="BotRightOffset" v:prompt="" v:val="VT0(0.11456981474384):1"/>
					</v:userDefs>
					<v:textBlock v:margins="rect(4,4,4,4)" v:tabSpace="42.5197"/>
					<v:textRect cx="41.2451" cy="355.487" width="82.5" height="49.2341"/>
					<g id="shadow2-4" v:groupContext="shadow" v:shadowOffsetX="0.345598" v:shadowOffsetY="-1.97279"
							v:shadowType="1" transform="matrix(1,0,0,1,0.345598,1.97279)" class="st1">
						<path d="M8.25 380.1 L74.24 380.1 A8.24889 8.24889 -180 0 0 82.49 371.85 L82.49 339.12 A8.24889 8.24889 -180
									 0 0 74.24 330.87 L8.25 330.87 A8.24889 8.24889 -180 0 0 0 339.12 L0 371.85 A8.24889 8.24889
									 -180 0 0 8.25 380.1 Z" class="st2"/>
					</g>
					<path d="M8.25 380.1 L74.24 380.1 A8.24889 8.24889 -180 0 0 82.49 371.85 L82.49 339.12 A8.24889 8.24889 -180
								 0 0 74.24 330.87 L8.25 330.87 A8.24889 8.24889 -180 0 0 0 339.12 L0 371.85 A8.24889 8.24889 -180
								 0 0 8.25 380.1 Z" class="st3"/>
					<text x="23.96" y="351.29" class="st4" v:langID="1045"><v:paragraph v:horizAlign="1"/><v:tabList/>Credit <v:lf/><tspan
								x="28.04" dy="1.2em" class="st5">Card</tspan></text>				</g>
				<g id="shape3-10" v:mID="3" v:groupContext="shape" transform="translate(155.691,-202.138)">
					<title>Rounded Rectangle.2</title>
					<desc>Customer</desc>
					<v:userDefs>
						<v:ud v:nameU="CTypeTopLeftSnip" v:prompt="" v:val="VT0(0):5"/>
						<v:ud v:nameU="CTypeTopRightSnip" v:prompt="" v:val="VT0(0):5"/>
						<v:ud v:nameU="CTypeBotLeftSnip" v:prompt="" v:val="VT0(0):5"/>
						<v:ud v:nameU="CTypeBotRightSnip" v:prompt="" v:val="VT0(0):5"/>
						<v:ud v:nameU="CornerLockHoriz" v:prompt="" v:val="VT0(1):5"/>
						<v:ud v:nameU="CornerLockVert" v:prompt="" v:val="VT0(1):5"/>
						<v:ud v:nameU="CornerLockDiag" v:prompt="" v:val="VT0(0):5"/>
						<v:ud v:nameU="TopLeftOffset" v:prompt="" v:val="VT0(0.15748031496063):24"/>
						<v:ud v:nameU="TopRightOffset" v:prompt="" v:val="VT0(0.15748031496063):24"/>
						<v:ud v:nameU="BotLeftOffset" v:prompt="" v:val="VT0(0.15748031496063):24"/>
						<v:ud v:nameU="BotRightOffset" v:prompt="" v:val="VT0(0.15748031496063):24"/>
						<v:ud v:nameU="visVersion" v:prompt="" v:val="VT0(15):26"/>
						<v:ud v:nameU="TopLeftOffset" v:prompt="" v:val="VT0(0.11456981474384):1"/>
						<v:ud v:nameU="TopRightOffset" v:prompt="" v:val="VT0(0.11456981474384):1"/>
						<v:ud v:nameU="BotLeftOffset" v:prompt="" v:val="VT0(0.11456981474384):1"/>
						<v:ud v:nameU="BotRightOffset" v:prompt="" v:val="VT0(0.11456981474384):1"/>
					</v:userDefs>
					<v:textBlock v:margins="rect(4,4,4,4)" v:tabSpace="42.5197"/>
					<v:textRect cx="41.2451" cy="355.487" width="82.5" height="49.2341"/>
					<g id="shadow3-11" v:groupContext="shadow" v:shadowOffsetX="0.345598" v:shadowOffsetY="-1.97279"
							v:shadowType="1" transform="matrix(1,0,0,1,0.345598,1.97279)" class="st1">
						<path d="M8.25 380.1 L74.24 380.1 A8.24889 8.24889 -180 0 0 82.49 371.85 L82.49 339.12 A8.24889 8.24889 -180
									 0 0 74.24 330.87 L8.25 330.87 A8.24889 8.24889 -180 0 0 0 339.12 L0 371.85 A8.24889 8.24889
									 -180 0 0 8.25 380.1 Z" class="st2"/>
					</g>
					<path d="M8.25 380.1 L74.24 380.1 A8.24889 8.24889 -180 0 0 82.49 371.85 L82.49 339.12 A8.24889 8.24889 -180
								 0 0 74.24 330.87 L8.25 330.87 A8.24889 8.24889 -180 0 0 0 339.12 L0 371.85 A8.24889 8.24889 -180
								 0 0 8.25 380.1 Z" class="st3"/>
					<text x="13.55" y="359.69" class="st4" v:langID="1045"><v:paragraph v:horizAlign="1"/><v:tabList/>Customer</text>				</g>
				<g id="shape4-16" v:mID="4" v:groupContext="shape" transform="translate(101.441,-127.637)">
					<title>Rounded Rectangle.3</title>
					<desc>Address</desc>
					<v:userDefs>
						<v:ud v:nameU="CTypeTopLeftSnip" v:prompt="" v:val="VT0(0):5"/>
						<v:ud v:nameU="CTypeTopRightSnip" v:prompt="" v:val="VT0(0):5"/>
						<v:ud v:nameU="CTypeBotLeftSnip" v:prompt="" v:val="VT0(0):5"/>
						<v:ud v:nameU="CTypeBotRightSnip" v:prompt="" v:val="VT0(0):5"/>
						<v:ud v:nameU="CornerLockHoriz" v:prompt="" v:val="VT0(1):5"/>
						<v:ud v:nameU="CornerLockVert" v:prompt="" v:val="VT0(1):5"/>
						<v:ud v:nameU="CornerLockDiag" v:prompt="" v:val="VT0(0):5"/>
						<v:ud v:nameU="TopLeftOffset" v:prompt="" v:val="VT0(0.15748031496063):24"/>
						<v:ud v:nameU="TopRightOffset" v:prompt="" v:val="VT0(0.15748031496063):24"/>
						<v:ud v:nameU="BotLeftOffset" v:prompt="" v:val="VT0(0.15748031496063):24"/>
						<v:ud v:nameU="BotRightOffset" v:prompt="" v:val="VT0(0.15748031496063):24"/>
						<v:ud v:nameU="visVersion" v:prompt="" v:val="VT0(15):26"/>
						<v:ud v:nameU="TopLeftOffset" v:prompt="" v:val="VT0(0.11456981474384):1"/>
						<v:ud v:nameU="TopRightOffset" v:prompt="" v:val="VT0(0.11456981474384):1"/>
						<v:ud v:nameU="BotLeftOffset" v:prompt="" v:val="VT0(0.11456981474384):1"/>
						<v:ud v:nameU="BotRightOffset" v:prompt="" v:val="VT0(0.11456981474384):1"/>
					</v:userDefs>
					<v:textBlock v:margins="rect(4,4,4,4)" v:tabSpace="42.5197"/>
					<v:textRect cx="41.2451" cy="355.487" width="82.5" height="49.2341"/>
					<g id="shadow4-17" v:groupContext="shadow" v:shadowOffsetX="0.345598" v:shadowOffsetY="-1.97279"
							v:shadowType="1" transform="matrix(1,0,0,1,0.345598,1.97279)" class="st1">
						<path d="M8.25 380.1 L74.24 380.1 A8.24889 8.24889 -180 0 0 82.49 371.85 L82.49 339.12 A8.24889 8.24889 -180
									 0 0 74.24 330.87 L8.25 330.87 A8.24889 8.24889 -180 0 0 0 339.12 L0 371.85 A8.24889 8.24889
									 -180 0 0 8.25 380.1 Z" class="st2"/>
					</g>
					<path d="M8.25 380.1 L74.24 380.1 A8.24889 8.24889 -180 0 0 82.49 371.85 L82.49 339.12 A8.24889 8.24889 -180
								 0 0 74.24 330.87 L8.25 330.87 A8.24889 8.24889 -180 0 0 0 339.12 L0 371.85 A8.24889 8.24889 -180
								 0 0 8.25 380.1 Z" class="st3"/>
					<text x="18.44" y="359.69" class="st4" v:langID="1045"><v:paragraph v:horizAlign="1"/><v:tabList/>Address</text>				</g>
				<g id="shape5-22" v:mID="5" v:groupContext="shape" transform="translate(2.39808E-14,-127.637)">
					<title>Rounded Rectangle.4</title>
					<desc>Postcode</desc>
					<v:userDefs>
						<v:ud v:nameU="CTypeTopLeftSnip" v:prompt="" v:val="VT0(0):5"/>
						<v:ud v:nameU="CTypeTopRightSnip" v:prompt="" v:val="VT0(0):5"/>
						<v:ud v:nameU="CTypeBotLeftSnip" v:prompt="" v:val="VT0(0):5"/>
						<v:ud v:nameU="CTypeBotRightSnip" v:prompt="" v:val="VT0(0):5"/>
						<v:ud v:nameU="CornerLockHoriz" v:prompt="" v:val="VT0(1):5"/>
						<v:ud v:nameU="CornerLockVert" v:prompt="" v:val="VT0(1):5"/>
						<v:ud v:nameU="CornerLockDiag" v:prompt="" v:val="VT0(0):5"/>
						<v:ud v:nameU="TopLeftOffset" v:prompt="" v:val="VT0(0.15748031496063):24"/>
						<v:ud v:nameU="TopRightOffset" v:prompt="" v:val="VT0(0.15748031496063):24"/>
						<v:ud v:nameU="BotLeftOffset" v:prompt="" v:val="VT0(0.15748031496063):24"/>
						<v:ud v:nameU="BotRightOffset" v:prompt="" v:val="VT0(0.15748031496063):24"/>
						<v:ud v:nameU="visVersion" v:prompt="" v:val="VT0(15):26"/>
						<v:ud v:nameU="TopLeftOffset" v:prompt="" v:val="VT0(0.11456981474384):1"/>
						<v:ud v:nameU="TopRightOffset" v:prompt="" v:val="VT0(0.11456981474384):1"/>
						<v:ud v:nameU="BotLeftOffset" v:prompt="" v:val="VT0(0.11456981474384):1"/>
						<v:ud v:nameU="BotRightOffset" v:prompt="" v:val="VT0(0.11456981474384):1"/>
					</v:userDefs>
					<v:textBlock v:margins="rect(4,4,4,4)" v:tabSpace="42.5197"/>
					<v:textRect cx="41.2451" cy="355.487" width="82.5" height="49.2341"/>
					<g id="shadow5-23" v:groupContext="shadow" v:shadowOffsetX="0.345598" v:shadowOffsetY="-1.97279"
							v:shadowType="1" transform="matrix(1,0,0,1,0.345598,1.97279)" class="st1">
						<path d="M8.25 380.1 L74.24 380.1 A8.24889 8.24889 -180 0 0 82.49 371.85 L82.49 339.12 A8.24889 8.24889 -180
									 0 0 74.24 330.87 L8.25 330.87 A8.24889 8.24889 -180 0 0 0 339.12 L0 371.85 A8.24889 8.24889
									 -180 0 0 8.25 380.1 Z" class="st2"/>
					</g>
					<path d="M8.25 380.1 L74.24 380.1 A8.24889 8.24889 -180 0 0 82.49 371.85 L82.49 339.12 A8.24889 8.24889 -180
								 0 0 74.24 330.87 L8.25 330.87 A8.24889 8.24889 -180 0 0 0 339.12 L0 371.85 A8.24889 8.24889 -180
								 0 0 8.25 380.1 Z" class="st3"/>
					<text x="15.04" y="359.69" class="st4" v:langID="1045"><v:paragraph v:horizAlign="1"/><v:tabList/>Postcode</text>				</g>
				<g id="shape6-28" v:mID="6" v:groupContext="shape" transform="translate(297.634,-219.417)">
					<title>Rounded Rectangle.5</title>
					<desc>Order</desc>
					<v:userDefs>
						<v:ud v:nameU="CTypeTopLeftSnip" v:prompt="" v:val="VT0(0):5"/>
						<v:ud v:nameU="CTypeTopRightSnip" v:prompt="" v:val="VT0(0):5"/>
						<v:ud v:nameU="CTypeBotLeftSnip" v:prompt="" v:val="VT0(0):5"/>
						<v:ud v:nameU="CTypeBotRightSnip" v:prompt="" v:val="VT0(0):5"/>
						<v:ud v:nameU="CornerLockHoriz" v:prompt="" v:val="VT0(1):5"/>
						<v:ud v:nameU="CornerLockVert" v:prompt="" v:val="VT0(1):5"/>
						<v:ud v:nameU="CornerLockDiag" v:prompt="" v:val="VT0(0):5"/>
						<v:ud v:nameU="TopLeftOffset" v:prompt="" v:val="VT0(0.15748031496063):24"/>
						<v:ud v:nameU="TopRightOffset" v:prompt="" v:val="VT0(0.15748031496063):24"/>
						<v:ud v:nameU="BotLeftOffset" v:prompt="" v:val="VT0(0.15748031496063):24"/>
						<v:ud v:nameU="BotRightOffset" v:prompt="" v:val="VT0(0.15748031496063):24"/>
						<v:ud v:nameU="visVersion" v:prompt="" v:val="VT0(15):26"/>
						<v:ud v:nameU="TopLeftOffset" v:prompt="" v:val="VT0(0.11456981474384):1"/>
						<v:ud v:nameU="TopRightOffset" v:prompt="" v:val="VT0(0.11456981474384):1"/>
						<v:ud v:nameU="BotLeftOffset" v:prompt="" v:val="VT0(0.11456981474384):1"/>
						<v:ud v:nameU="BotRightOffset" v:prompt="" v:val="VT0(0.11456981474384):1"/>
					</v:userDefs>
					<v:textBlock v:margins="rect(4,4,4,4)" v:tabSpace="42.5197"/>
					<v:textRect cx="41.2451" cy="355.487" width="82.5" height="49.2341"/>
					<g id="shadow6-29" v:groupContext="shadow" v:shadowOffsetX="0.345598" v:shadowOffsetY="-1.97279"
							v:shadowType="1" transform="matrix(1,0,0,1,0.345598,1.97279)" class="st1">
						<path d="M8.25 380.1 L74.24 380.1 A8.24889 8.24889 -180 0 0 82.49 371.85 L82.49 339.12 A8.24889 8.24889 -180
									 0 0 74.24 330.87 L8.25 330.87 A8.24889 8.24889 -180 0 0 0 339.12 L0 371.85 A8.24889 8.24889
									 -180 0 0 8.25 380.1 Z" class="st2"/>
					</g>
					<path d="M8.25 380.1 L74.24 380.1 A8.24889 8.24889 -180 0 0 82.49 371.85 L82.49 339.12 A8.24889 8.24889 -180
								 0 0 74.24 330.87 L8.25 330.87 A8.24889 8.24889 -180 0 0 0 339.12 L0 371.85 A8.24889 8.24889 -180
								 0 0 8.25 380.1 Z" class="st3"/>
					<text x="24.57" y="359.69" class="st4" v:langID="1045"><v:paragraph v:horizAlign="1"/><v:tabList/>Order</text>				</g>
				<g id="shape7-34" v:mID="7" v:groupContext="shape" transform="translate(392.015,-276.64)">
					<title>Rounded Rectangle.6</title>
					<desc>Address</desc>
					<v:userDefs>
						<v:ud v:nameU="CTypeTopLeftSnip" v:prompt="" v:val="VT0(0):5"/>
						<v:ud v:nameU="CTypeTopRightSnip" v:prompt="" v:val="VT0(0):5"/>
						<v:ud v:nameU="CTypeBotLeftSnip" v:prompt="" v:val="VT0(0):5"/>
						<v:ud v:nameU="CTypeBotRightSnip" v:prompt="" v:val="VT0(0):5"/>
						<v:ud v:nameU="CornerLockHoriz" v:prompt="" v:val="VT0(1):5"/>
						<v:ud v:nameU="CornerLockVert" v:prompt="" v:val="VT0(1):5"/>
						<v:ud v:nameU="CornerLockDiag" v:prompt="" v:val="VT0(0):5"/>
						<v:ud v:nameU="TopLeftOffset" v:prompt="" v:val="VT0(0.15748031496063):24"/>
						<v:ud v:nameU="TopRightOffset" v:prompt="" v:val="VT0(0.15748031496063):24"/>
						<v:ud v:nameU="BotLeftOffset" v:prompt="" v:val="VT0(0.15748031496063):24"/>
						<v:ud v:nameU="BotRightOffset" v:prompt="" v:val="VT0(0.15748031496063):24"/>
						<v:ud v:nameU="visVersion" v:prompt="" v:val="VT0(15):26"/>
						<v:ud v:nameU="TopLeftOffset" v:prompt="" v:val="VT0(0.11456981474384):1"/>
						<v:ud v:nameU="TopRightOffset" v:prompt="" v:val="VT0(0.11456981474384):1"/>
						<v:ud v:nameU="BotLeftOffset" v:prompt="" v:val="VT0(0.11456981474384):1"/>
						<v:ud v:nameU="BotRightOffset" v:prompt="" v:val="VT0(0.11456981474384):1"/>
					</v:userDefs>
					<v:textBlock v:margins="rect(4,4,4,4)" v:tabSpace="42.5197"/>
					<v:textRect cx="41.2451" cy="355.487" width="82.5" height="49.2341"/>
					<g id="shadow7-35" v:groupContext="shadow" v:shadowOffsetX="0.345598" v:shadowOffsetY="-1.97279"
							v:shadowType="1" transform="matrix(1,0,0,1,0.345598,1.97279)" class="st1">
						<path d="M8.25 380.1 L74.24 380.1 A8.24889 8.24889 -180 0 0 82.49 371.85 L82.49 339.12 A8.24889 8.24889 -180
									 0 0 74.24 330.87 L8.25 330.87 A8.24889 8.24889 -180 0 0 0 339.12 L0 371.85 A8.24889 8.24889
									 -180 0 0 8.25 380.1 Z" class="st2"/>
					</g>
					<path d="M8.25 380.1 L74.24 380.1 A8.24889 8.24889 -180 0 0 82.49 371.85 L82.49 339.12 A8.24889 8.24889 -180
								 0 0 74.24 330.87 L8.25 330.87 A8.24889 8.24889 -180 0 0 0 339.12 L0 371.85 A8.24889 8.24889 -180
								 0 0 8.25 380.1 Z" class="st3"/>
					<text x="18.44" y="359.69" class="st4" v:langID="1045"><v:paragraph v:horizAlign="1"/><v:tabList/>Address</text>				</g>
				<g id="shape8-40" v:mID="8" v:groupContext="shape" transform="translate(392.015,-176.871)">
					<title>Rounded Rectangle.7</title>
					<desc>Line</desc>
					<v:userDefs>
						<v:ud v:nameU="CTypeTopLeftSnip" v:prompt="" v:val="VT0(0):5"/>
						<v:ud v:nameU="CTypeTopRightSnip" v:prompt="" v:val="VT0(0):5"/>
						<v:ud v:nameU="CTypeBotLeftSnip" v:prompt="" v:val="VT0(0):5"/>
						<v:ud v:nameU="CTypeBotRightSnip" v:prompt="" v:val="VT0(0):5"/>
						<v:ud v:nameU="CornerLockHoriz" v:prompt="" v:val="VT0(1):5"/>
						<v:ud v:nameU="CornerLockVert" v:prompt="" v:val="VT0(1):5"/>
						<v:ud v:nameU="CornerLockDiag" v:prompt="" v:val="VT0(0):5"/>
						<v:ud v:nameU="TopLeftOffset" v:prompt="" v:val="VT0(0.15748031496063):24"/>
						<v:ud v:nameU="TopRightOffset" v:prompt="" v:val="VT0(0.15748031496063):24"/>
						<v:ud v:nameU="BotLeftOffset" v:prompt="" v:val="VT0(0.15748031496063):24"/>
						<v:ud v:nameU="BotRightOffset" v:prompt="" v:val="VT0(0.15748031496063):24"/>
						<v:ud v:nameU="visVersion" v:prompt="" v:val="VT0(15):26"/>
						<v:ud v:nameU="TopLeftOffset" v:prompt="" v:val="VT0(0.11456981474384):1"/>
						<v:ud v:nameU="TopRightOffset" v:prompt="" v:val="VT0(0.11456981474384):1"/>
						<v:ud v:nameU="BotLeftOffset" v:prompt="" v:val="VT0(0.11456981474384):1"/>
						<v:ud v:nameU="BotRightOffset" v:prompt="" v:val="VT0(0.11456981474384):1"/>
					</v:userDefs>
					<v:textBlock v:margins="rect(4,4,4,4)" v:tabSpace="42.5197"/>
					<v:textRect cx="41.2451" cy="355.487" width="82.5" height="49.2341"/>
					<g id="shadow8-41" v:groupContext="shadow" v:shadowOffsetX="0.345598" v:shadowOffsetY="-1.97279"
							v:shadowType="1" transform="matrix(1,0,0,1,0.345598,1.97279)" class="st1">
						<path d="M8.25 380.1 L74.24 380.1 A8.24889 8.24889 -180 0 0 82.49 371.85 L82.49 339.12 A8.24889 8.24889 -180
									 0 0 74.24 330.87 L8.25 330.87 A8.24889 8.24889 -180 0 0 0 339.12 L0 371.85 A8.24889 8.24889
									 -180 0 0 8.25 380.1 Z" class="st2"/>
					</g>
					<path d="M8.25 380.1 L74.24 380.1 A8.24889 8.24889 -180 0 0 82.49 371.85 L82.49 339.12 A8.24889 8.24889 -180
								 0 0 74.24 330.87 L8.25 330.87 A8.24889 8.24889 -180 0 0 0 339.12 L0 371.85 A8.24889 8.24889 -180
								 0 0 8.25 380.1 Z" class="st3"/>
					<text x="29.54" y="359.69" class="st4" v:langID="1045"><v:paragraph v:horizAlign="1"/><v:tabList/>Line</text>				</g>
				<g id="shape9-46" v:mID="9" v:groupContext="shape" transform="translate(499.029,-176.871)">
					<title>Rounded Rectangle.8</title>
					<desc>Price</desc>
					<v:userDefs>
						<v:ud v:nameU="CTypeTopLeftSnip" v:prompt="" v:val="VT0(0):5"/>
						<v:ud v:nameU="CTypeTopRightSnip" v:prompt="" v:val="VT0(0):5"/>
						<v:ud v:nameU="CTypeBotLeftSnip" v:prompt="" v:val="VT0(0):5"/>
						<v:ud v:nameU="CTypeBotRightSnip" v:prompt="" v:val="VT0(0):5"/>
						<v:ud v:nameU="CornerLockHoriz" v:prompt="" v:val="VT0(1):5"/>
						<v:ud v:nameU="CornerLockVert" v:prompt="" v:val="VT0(1):5"/>
						<v:ud v:nameU="CornerLockDiag" v:prompt="" v:val="VT0(0):5"/>
						<v:ud v:nameU="TopLeftOffset" v:prompt="" v:val="VT0(0.15748031496063):24"/>
						<v:ud v:nameU="TopRightOffset" v:prompt="" v:val="VT0(0.15748031496063):24"/>
						<v:ud v:nameU="BotLeftOffset" v:prompt="" v:val="VT0(0.15748031496063):24"/>
						<v:ud v:nameU="BotRightOffset" v:prompt="" v:val="VT0(0.15748031496063):24"/>
						<v:ud v:nameU="visVersion" v:prompt="" v:val="VT0(15):26"/>
						<v:ud v:nameU="TopLeftOffset" v:prompt="" v:val="VT0(0.11456981474384):1"/>
						<v:ud v:nameU="TopRightOffset" v:prompt="" v:val="VT0(0.11456981474384):1"/>
						<v:ud v:nameU="BotLeftOffset" v:prompt="" v:val="VT0(0.11456981474384):1"/>
						<v:ud v:nameU="BotRightOffset" v:prompt="" v:val="VT0(0.11456981474384):1"/>
					</v:userDefs>
					<v:textBlock v:margins="rect(4,4,4,4)" v:tabSpace="42.5197"/>
					<v:textRect cx="41.2451" cy="355.487" width="82.5" height="49.2341"/>
					<g id="shadow9-47" v:groupContext="shadow" v:shadowOffsetX="0.345598" v:shadowOffsetY="-1.97279"
							v:shadowType="1" transform="matrix(1,0,0,1,0.345598,1.97279)" class="st1">
						<path d="M8.25 380.1 L74.24 380.1 A8.24889 8.24889 -180 0 0 82.49 371.85 L82.49 339.12 A8.24889 8.24889 -180
									 0 0 74.24 330.87 L8.25 330.87 A8.24889 8.24889 -180 0 0 0 339.12 L0 371.85 A8.24889 8.24889
									 -180 0 0 8.25 380.1 Z" class="st2"/>
					</g>
					<path d="M8.25 380.1 L74.24 380.1 A8.24889 8.24889 -180 0 0 82.49 371.85 L82.49 339.12 A8.24889 8.24889 -180
								 0 0 74.24 330.87 L8.25 330.87 A8.24889 8.24889 -180 0 0 0 339.12 L0 371.85 A8.24889 8.24889 -180
								 0 0 8.25 380.1 Z" class="st3"/>
					<text x="27.14" y="359.69" class="st4" v:langID="1045"><v:paragraph v:horizAlign="1"/><v:tabList/>Price</text>				</g>
				<g id="shape10-52" v:mID="10" v:groupContext="shape" transform="translate(297.634,-77.1024)">
					<title>Rounded Rectangle.9</title>
					<desc>Product</desc>
					<v:userDefs>
						<v:ud v:nameU="CTypeTopLeftSnip" v:prompt="" v:val="VT0(0):5"/>
						<v:ud v:nameU="CTypeTopRightSnip" v:prompt="" v:val="VT0(0):5"/>
						<v:ud v:nameU="CTypeBotLeftSnip" v:prompt="" v:val="VT0(0):5"/>
						<v:ud v:nameU="CTypeBotRightSnip" v:prompt="" v:val="VT0(0):5"/>
						<v:ud v:nameU="CornerLockHoriz" v:prompt="" v:val="VT0(1):5"/>
						<v:ud v:nameU="CornerLockVert" v:prompt="" v:val="VT0(1):5"/>
						<v:ud v:nameU="CornerLockDiag" v:prompt="" v:val="VT0(0):5"/>
						<v:ud v:nameU="TopLeftOffset" v:prompt="" v:val="VT0(0.15748031496063):24"/>
						<v:ud v:nameU="TopRightOffset" v:prompt="" v:val="VT0(0.15748031496063):24"/>
						<v:ud v:nameU="BotLeftOffset" v:prompt="" v:val="VT0(0.15748031496063):24"/>
						<v:ud v:nameU="BotRightOffset" v:prompt="" v:val="VT0(0.15748031496063):24"/>
						<v:ud v:nameU="visVersion" v:prompt="" v:val="VT0(15):26"/>
						<v:ud v:nameU="TopLeftOffset" v:prompt="" v:val="VT0(0.11456981474384):1"/>
						<v:ud v:nameU="TopRightOffset" v:prompt="" v:val="VT0(0.11456981474384):1"/>
						<v:ud v:nameU="BotLeftOffset" v:prompt="" v:val="VT0(0.11456981474384):1"/>
						<v:ud v:nameU="BotRightOffset" v:prompt="" v:val="VT0(0.11456981474384):1"/>
					</v:userDefs>
					<v:textBlock v:margins="rect(4,4,4,4)" v:tabSpace="42.5197"/>
					<v:textRect cx="41.2451" cy="355.487" width="82.5" height="49.2341"/>
					<g id="shadow10-53" v:groupContext="shadow" v:shadowOffsetX="0.345598" v:shadowOffsetY="-1.97279"
							v:shadowType="1" transform="matrix(1,0,0,1,0.345598,1.97279)" class="st1">
						<path d="M8.25 380.1 L74.24 380.1 A8.24889 8.24889 -180 0 0 82.49 371.85 L82.49 339.12 A8.24889 8.24889 -180
									 0 0 74.24 330.87 L8.25 330.87 A8.24889 8.24889 -180 0 0 0 339.12 L0 371.85 A8.24889 8.24889
									 -180 0 0 8.25 380.1 Z" class="st2"/>
					</g>
					<path d="M8.25 380.1 L74.24 380.1 A8.24889 8.24889 -180 0 0 82.49 371.85 L82.49 339.12 A8.24889 8.24889 -180
								 0 0 74.24 330.87 L8.25 330.87 A8.24889 8.24889 -180 0 0 0 339.12 L0 371.85 A8.24889 8.24889 -180
								 0 0 8.25 380.1 Z" class="st3"/>
					<text x="18.84" y="359.69" class="st4" v:langID="1045"><v:paragraph v:horizAlign="1"/><v:tabList/>Product</text>				</g>
				<g id="shape11-58" v:mID="11" v:groupContext="shape" transform="translate(214.007,-15.0712)">
					<title>Rounded Rectangle.10</title>
					<desc>Color</desc>
					<v:userDefs>
						<v:ud v:nameU="CTypeTopLeftSnip" v:prompt="" v:val="VT0(0):5"/>
						<v:ud v:nameU="CTypeTopRightSnip" v:prompt="" v:val="VT0(0):5"/>
						<v:ud v:nameU="CTypeBotLeftSnip" v:prompt="" v:val="VT0(0):5"/>
						<v:ud v:nameU="CTypeBotRightSnip" v:prompt="" v:val="VT0(0):5"/>
						<v:ud v:nameU="CornerLockHoriz" v:prompt="" v:val="VT0(1):5"/>
						<v:ud v:nameU="CornerLockVert" v:prompt="" v:val="VT0(1):5"/>
						<v:ud v:nameU="CornerLockDiag" v:prompt="" v:val="VT0(0):5"/>
						<v:ud v:nameU="TopLeftOffset" v:prompt="" v:val="VT0(0.15748031496063):24"/>
						<v:ud v:nameU="TopRightOffset" v:prompt="" v:val="VT0(0.15748031496063):24"/>
						<v:ud v:nameU="BotLeftOffset" v:prompt="" v:val="VT0(0.15748031496063):24"/>
						<v:ud v:nameU="BotRightOffset" v:prompt="" v:val="VT0(0.15748031496063):24"/>
						<v:ud v:nameU="visVersion" v:prompt="" v:val="VT0(15):26"/>
						<v:ud v:nameU="TopLeftOffset" v:prompt="" v:val="VT0(0.11456981474384):1"/>
						<v:ud v:nameU="TopRightOffset" v:prompt="" v:val="VT0(0.11456981474384):1"/>
						<v:ud v:nameU="BotLeftOffset" v:prompt="" v:val="VT0(0.11456981474384):1"/>
						<v:ud v:nameU="BotRightOffset" v:prompt="" v:val="VT0(0.11456981474384):1"/>
					</v:userDefs>
					<v:textBlock v:margins="rect(4,4,4,4)" v:tabSpace="42.5197"/>
					<v:textRect cx="41.2451" cy="355.487" width="82.5" height="49.2341"/>
					<g id="shadow11-59" v:groupContext="shadow" v:shadowOffsetX="0.345598" v:shadowOffsetY="-1.97279"
							v:shadowType="1" transform="matrix(1,0,0,1,0.345598,1.97279)" class="st1">
						<path d="M8.25 380.1 L74.24 380.1 A8.24889 8.24889 -180 0 0 82.49 371.85 L82.49 339.12 A8.24889 8.24889 -180
									 0 0 74.24 330.87 L8.25 330.87 A8.24889 8.24889 -180 0 0 0 339.12 L0 371.85 A8.24889 8.24889
									 -180 0 0 8.25 380.1 Z" class="st2"/>
					</g>
					<path d="M8.25 380.1 L74.24 380.1 A8.24889 8.24889 -180 0 0 82.49 371.85 L82.49 339.12 A8.24889 8.24889 -180
								 0 0 74.24 330.87 L8.25 330.87 A8.24889 8.24889 -180 0 0 0 339.12 L0 371.85 A8.24889 8.24889 -180
								 0 0 8.25 380.1 Z" class="st3"/>
					<text x="26.08" y="359.69" class="st4" v:langID="1045"><v:paragraph v:horizAlign="1"/><v:tabList/>Color</text>				</g>
				<g id="shape12-64" v:mID="12" v:groupContext="shape" transform="translate(315.447,1.13687E-13)">
					<title>Rounded Rectangle.11</title>
					<desc>Size</desc>
					<v:userDefs>
						<v:ud v:nameU="CTypeTopLeftSnip" v:prompt="" v:val="VT0(0):5"/>
						<v:ud v:nameU="CTypeTopRightSnip" v:prompt="" v:val="VT0(0):5"/>
						<v:ud v:nameU="CTypeBotLeftSnip" v:prompt="" v:val="VT0(0):5"/>
						<v:ud v:nameU="CTypeBotRightSnip" v:prompt="" v:val="VT0(0):5"/>
						<v:ud v:nameU="CornerLockHoriz" v:prompt="" v:val="VT0(1):5"/>
						<v:ud v:nameU="CornerLockVert" v:prompt="" v:val="VT0(1):5"/>
						<v:ud v:nameU="CornerLockDiag" v:prompt="" v:val="VT0(0):5"/>
						<v:ud v:nameU="TopLeftOffset" v:prompt="" v:val="VT0(0.15748031496063):24"/>
						<v:ud v:nameU="TopRightOffset" v:prompt="" v:val="VT0(0.15748031496063):24"/>
						<v:ud v:nameU="BotLeftOffset" v:prompt="" v:val="VT0(0.15748031496063):24"/>
						<v:ud v:nameU="BotRightOffset" v:prompt="" v:val="VT0(0.15748031496063):24"/>
						<v:ud v:nameU="visVersion" v:prompt="" v:val="VT0(15):26"/>
						<v:ud v:nameU="TopLeftOffset" v:prompt="" v:val="VT0(0.11456981474384):1"/>
						<v:ud v:nameU="TopRightOffset" v:prompt="" v:val="VT0(0.11456981474384):1"/>
						<v:ud v:nameU="BotLeftOffset" v:prompt="" v:val="VT0(0.11456981474384):1"/>
						<v:ud v:nameU="BotRightOffset" v:prompt="" v:val="VT0(0.11456981474384):1"/>
					</v:userDefs>
					<v:textBlock v:margins="rect(4,4,4,4)" v:tabSpace="42.5197"/>
					<v:textRect cx="41.2451" cy="355.487" width="82.5" height="49.2341"/>
					<g id="shadow12-65" v:groupContext="shadow" v:shadowOffsetX="0.345598" v:shadowOffsetY="-1.97279"
							v:shadowType="1" transform="matrix(1,0,0,1,0.345598,1.97279)" class="st1">
						<path d="M8.25 380.1 L74.24 380.1 A8.24889 8.24889 -180 0 0 82.49 371.85 L82.49 339.12 A8.24889 8.24889 -180
									 0 0 74.24 330.87 L8.25 330.87 A8.24889 8.24889 -180 0 0 0 339.12 L0 371.85 A8.24889 8.24889
									 -180 0 0 8.25 380.1 Z" class="st2"/>
					</g>
					<path d="M8.25 380.1 L74.24 380.1 A8.24889 8.24889 -180 0 0 82.49 371.85 L82.49 339.12 A8.24889 8.24889 -180
								 0 0 74.24 330.87 L8.25 330.87 A8.24889 8.24889 -180 0 0 0 339.12 L0 371.85 A8.24889 8.24889 -180
								 0 0 8.25 380.1 Z" class="st3"/>
					<text x="30.17" y="359.69" class="st4" v:langID="1045"><v:paragraph v:horizAlign="1"/><v:tabList/>Size</text>				</g>
				<g id="shape13-70" v:mID="13" v:groupContext="shape" transform="translate(416.888,-15.0712)">
					<title>Rounded Rectangle.12</title>
					<desc>Price</desc>
					<v:userDefs>
						<v:ud v:nameU="CTypeTopLeftSnip" v:prompt="" v:val="VT0(0):5"/>
						<v:ud v:nameU="CTypeTopRightSnip" v:prompt="" v:val="VT0(0):5"/>
						<v:ud v:nameU="CTypeBotLeftSnip" v:prompt="" v:val="VT0(0):5"/>
						<v:ud v:nameU="CTypeBotRightSnip" v:prompt="" v:val="VT0(0):5"/>
						<v:ud v:nameU="CornerLockHoriz" v:prompt="" v:val="VT0(1):5"/>
						<v:ud v:nameU="CornerLockVert" v:prompt="" v:val="VT0(1):5"/>
						<v:ud v:nameU="CornerLockDiag" v:prompt="" v:val="VT0(0):5"/>
						<v:ud v:nameU="TopLeftOffset" v:prompt="" v:val="VT0(0.15748031496063):24"/>
						<v:ud v:nameU="TopRightOffset" v:prompt="" v:val="VT0(0.15748031496063):24"/>
						<v:ud v:nameU="BotLeftOffset" v:prompt="" v:val="VT0(0.15748031496063):24"/>
						<v:ud v:nameU="BotRightOffset" v:prompt="" v:val="VT0(0.15748031496063):24"/>
						<v:ud v:nameU="visVersion" v:prompt="" v:val="VT0(15):26"/>
						<v:ud v:nameU="TopLeftOffset" v:prompt="" v:val="VT0(0.11456981474384):1"/>
						<v:ud v:nameU="TopRightOffset" v:prompt="" v:val="VT0(0.11456981474384):1"/>
						<v:ud v:nameU="BotLeftOffset" v:prompt="" v:val="VT0(0.11456981474384):1"/>
						<v:ud v:nameU="BotRightOffset" v:prompt="" v:val="VT0(0.11456981474384):1"/>
					</v:userDefs>
					<v:textBlock v:margins="rect(4,4,4,4)" v:tabSpace="42.5197"/>
					<v:textRect cx="41.2451" cy="355.487" width="82.5" height="49.2341"/>
					<g id="shadow13-71" v:groupContext="shadow" v:shadowOffsetX="0.345598" v:shadowOffsetY="-1.97279"
							v:shadowType="1" transform="matrix(1,0,0,1,0.345598,1.97279)" class="st1">
						<path d="M8.25 380.1 L74.24 380.1 A8.24889 8.24889 -180 0 0 82.49 371.85 L82.49 339.12 A8.24889 8.24889 -180
									 0 0 74.24 330.87 L8.25 330.87 A8.24889 8.24889 -180 0 0 0 339.12 L0 371.85 A8.24889 8.24889
									 -180 0 0 8.25 380.1 Z" class="st2"/>
					</g>
					<path d="M8.25 380.1 L74.24 380.1 A8.24889 8.24889 -180 0 0 82.49 371.85 L82.49 339.12 A8.24889 8.24889 -180
								 0 0 74.24 330.87 L8.25 330.87 A8.24889 8.24889 -180 0 0 0 339.12 L0 371.85 A8.24889 8.24889 -180
								 0 0 8.25 380.1 Z" class="st3"/>
					<text x="27.14" y="359.69" class="st4" v:langID="1045"><v:paragraph v:horizAlign="1"/><v:tabList/>Price</text>				</g>
				<g id="shape14-76" v:mID="14" v:groupContext="shape" v:layerMember="0" transform="translate(134.324,-267.723)">
					<title>Dynamic connector</title>
					<path d="M0 380.1 C13.05 380.1 13.05 398.87 23.78 398.87" class="st6"/>
				</g>
				<g id="shape15-79" v:mID="15" v:groupContext="shape" v:layerMember="0" transform="translate(196.936,-202.138)">
					<title>Dynamic connector.15</title>
					<path d="M0 380.1 C0 390.73 -13.45 390.73 -26.9 390.73 C-40.58 390.73 -54.25 390.73 -54.25 405.37" class="st6"/>
				</g>
				<g id="shape16-82" v:mID="16" v:groupContext="shape" v:layerMember="0" transform="translate(101.441,-145.167)">
					<title>Dynamic connector.16</title>
					<path d="M0 373.02 L-18.95 373.02" class="st6"/>
				</g>
				<g id="shape17-85" v:mID="17" v:groupContext="shape" v:layerMember="0" transform="translate(238.181,-226.755)">
					<title>Dynamic connector.17</title>
					<path d="M0 380.1 C10.63 380.1 10.63 362.83 59.45 362.83" class="st6"/>
				</g>
				<g id="shape18-88" v:mID="18" v:groupContext="shape" v:layerMember="0" transform="translate(338.879,-219.417)">
					<title>Dynamic connector.18</title>
					<path d="M0 380.1 C0 384.59 -0 390.55 7.84 393.87 C17.68 398.03 39.85 398.03 53.14 398.03" class="st6"/>
				</g>
				<g id="shape19-91" v:mID="19" v:groupContext="shape" v:layerMember="0" transform="translate(338.879,-268.651)">
					<title>Dynamic connector.19</title>
					<path d="M0 380.1 C-0 371.95 0 360.5 8.73 354.41 C18.66 347.5 39.85 347.5 53.14 347.5" class="st6"/>
				</g>
				<g id="shape20-94" v:mID="20" v:groupContext="shape" v:layerMember="0" transform="translate(474.505,-194.401)">
					<title>Dynamic connector.20</title>
					<path d="M0 373.02 C6.13 373.02 18.39 373.02 24.52 373.02" class="st6"/>
				</g>
				<g id="shape21-97" v:mID="21" v:groupContext="shape" v:layerMember="0" transform="translate(433.26,-176.871)">
					<title>Dynamic connector.21</title>
					<path d="M0 380.1 C-0 420.01 -24.49 420.01 -48.98 420.01 C-71.68 420.01 -94.38 420.01 -94.38 430.64"
							class="st6"/>
				</g>
				<g id="shape22-100" v:mID="22" v:groupContext="shape" v:layerMember="0" transform="translate(380.124,-101.719)">
					<title>Dynamic connector.22</title>
					<path d="M0 380.1 C19.5 380.1 51.34 380.1 65.85 388.41 C78.01 395.37 78.01 408.16 78.01 417.52" class="st6"/>
				</g>
				<g id="shape23-103" v:mID="23" v:groupContext="shape" v:layerMember="0" transform="translate(338.879,-77.1024)">
					<title>Dynamic connector.23</title>
					<path d="M0 380.1 C0 390.73 17.81 390.73 17.81 407.97" class="st6"/>
				</g>
				<g id="shape24-106" v:mID="24" v:groupContext="shape" v:layerMember="0" transform="translate(297.634,-101.719)">
					<title>Dynamic connector.24</title>
					<path d="M0 380.1 C-10.6 380.1 -26.76 380.1 -34.71 387.36 C-42.38 394.38 -42.38 408.16 -42.38 417.52"
							class="st6"/>
				</g>
			</g>
			<g id="shape29-109" v:mID="29" v:groupContext="shape" transform="translate(-268.774,30.3639) rotate(-45)">
				<title>Multi-Line</title>
				<v:userDefs>
					<v:ud v:nameU="VertexCount" v:prompt="" v:val="VT0(4):26"/>
					<v:ud v:nameU="SegmentType" v:prompt="" v:val="VT0(1):26"/>
					<v:ud v:nameU="DrawType" v:prompt="" v:val="VT0(1):26"/>
					<v:ud v:nameU="StartWidth" v:prompt="" v:val="VT0(0.15748031496063):24"/>
					<v:ud v:nameU="EndWidth" v:prompt="" v:val="VT0(0.098425196850394):24"/>
					<v:ud v:nameU="LastAngle" v:prompt="" v:val="VT0(0.28841564641324):32"/>
					<v:ud v:nameU="CtrlAngle" v:prompt="" v:val="VT0(-1.7168275610178):32"/>
					<v:ud v:nameU="ArrowFeatherAngle" v:prompt="" v:val="VT0(8.5768441610239):32"/>
					<v:ud v:nameU="ArrowFeatherDist" v:prompt="" v:val="VT0(0.19896813608374):24"/>
					<v:ud v:nameU="Joint1_2Pcnt" v:prompt="" v:val="VT0(0.36297127302829):26"/>
					<v:ud v:nameU="Joint1_2Angle" v:prompt="" v:val="VT0(1.4628840514671):32"/>
					<v:ud v:nameU="Joint2_3Pcnt" v:prompt="" v:val="VT0(0.7333465724344):26"/>
					<v:ud v:nameU="Joint2_3Angle" v:prompt="" v:val="VT0(1.4659193082736):32"/>
					<v:ud v:nameU="Joint3_4Pcnt" v:prompt="" v:val="VT0(1):26"/>
					<v:ud v:nameU="Joint3_4Angle" v:prompt="" v:val="VT0(1.8592119732081):32"/>
					<v:ud v:nameU="Joint4_5Pcnt" v:prompt="" v:val="VT0(1):26"/>
					<v:ud v:nameU="Joint4_5Angle" v:prompt="" v:val="VT0(1.8592119732081):32"/>
					<v:ud v:nameU="Joint5_6Pcnt" v:prompt="" v:val="VT0(1):26"/>
					<v:ud v:nameU="Joint5_6Angle" v:prompt="" v:val="VT0(1.8592119732081):32"/>
					<v:ud v:nameU="Joint6_7Pcnt" v:prompt="" v:val="VT0(1):26"/>
					<v:ud v:nameU="Joint6_7Angle" v:prompt="" v:val="VT0(1.8592119732081):32"/>
					<v:ud v:nameU="Joint7_8Pcnt" v:prompt="" v:val="VT0(1):26"/>
					<v:ud v:nameU="Joint7_8Angle" v:prompt="" v:val="VT0(1.8592119732081):32"/>
					<v:ud v:nameU="Joint8_9Pcnt" v:prompt="" v:val="VT0(1):26"/>
					<v:ud v:nameU="Joint8_9Angle" v:prompt="" v:val="VT0(1.8592119732081):32"/>
					<v:ud v:nameU="visVersion" v:prompt="" v:val="VT0(15):26"/>
					<v:ud v:nameU="LastAngle" v:prompt="" v:val="VT0(0.72754095491142):32"/>
					<v:ud v:nameU="CtrlAngle" v:prompt="" v:val="VT0(-2.0920065965631):32"/>
					<v:ud v:nameU="ArrowFeatherAngle" v:prompt="" v:val="VT0(9.8302738135655):32"/>
					<v:ud v:nameU="ArrowFeatherDist" v:prompt="" v:val="VT0(0.22699088192675):24"/>
					<v:ud v:nameU="Joint1_2Pcnt" v:prompt="" v:val="VT0(0.35221163397358):26"/>
					<v:ud v:nameU="Joint1_2Angle" v:prompt="" v:val="VT0(1.2406071788407):32"/>
					<v:ud v:nameU="Joint2_3Pcnt" v:prompt="" v:val="VT0(0.67122246920614):26"/>
					<v:ud v:nameU="Joint2_3Angle" v:prompt="" v:val="VT0(1.8940712496052):32"/>
					<v:ud v:nameU="Joint3_4Angle" v:prompt="" v:val="VT0(2.2983372817063):32"/>
					<v:ud v:nameU="Joint4_5Angle" v:prompt="" v:val="VT0(2.2983372817063):32"/>
					<v:ud v:nameU="Joint5_6Angle" v:prompt="" v:val="VT0(2.2983372817063):32"/>
					<v:ud v:nameU="Joint6_7Angle" v:prompt="" v:val="VT0(2.2983372817063):32"/>
					<v:ud v:nameU="Joint7_8Angle" v:prompt="" v:val="VT0(2.2983372817063):32"/>
					<v:ud v:nameU="Joint8_9Angle" v:prompt="" v:val="VT0(2.2983372817063):32"/>
				</v:userDefs>
				<g id="shadow29-110" v:groupContext="shadow" v:shadowOffsetX="0.345598" v:shadowOffsetY="-1.97279" v:shadowType="1"
						transform="matrix(1,0,0,1,-1.1506,1.63935)" class="st1">
					<path d="M0 380.1 L139.73 471.53 L290.48 483.77 L406.89 380.1" class="st7"/>
				</g>
				<path d="M0 380.1 L139.73 471.53 L290.48 483.77 L406.89 380.1" class="st8"/>
			</g>
			<g id="shape30-117" v:mID="30" v:groupContext="shape" transform="translate(445.678,548.935) rotate(-148.686)">
				<title>Multi-Line.30</title>
				<v:userDefs>
					<v:ud v:nameU="VertexCount" v:prompt="" v:val="VT0(4):26"/>
					<v:ud v:nameU="SegmentType" v:prompt="" v:val="VT0(1):26"/>
					<v:ud v:nameU="DrawType" v:prompt="" v:val="VT0(1):26"/>
					<v:ud v:nameU="StartWidth" v:prompt="" v:val="VT0(0.15748031496063):24"/>
					<v:ud v:nameU="EndWidth" v:prompt="" v:val="VT0(0.098425196850394):24"/>
					<v:ud v:nameU="LastAngle" v:prompt="" v:val="VT0(0.28841564641324):32"/>
					<v:ud v:nameU="CtrlAngle" v:prompt="" v:val="VT0(-1.7168275610178):32"/>
					<v:ud v:nameU="ArrowFeatherAngle" v:prompt="" v:val="VT0(8.5768441610239):32"/>
					<v:ud v:nameU="ArrowFeatherDist" v:prompt="" v:val="VT0(0.19896813608374):24"/>
					<v:ud v:nameU="Joint1_2Pcnt" v:prompt="" v:val="VT0(0.36297127302829):26"/>
					<v:ud v:nameU="Joint1_2Angle" v:prompt="" v:val="VT0(1.4628840514671):32"/>
					<v:ud v:nameU="Joint2_3Pcnt" v:prompt="" v:val="VT0(0.7333465724344):26"/>
					<v:ud v:nameU="Joint2_3Angle" v:prompt="" v:val="VT0(1.4659193082736):32"/>
					<v:ud v:nameU="Joint3_4Pcnt" v:prompt="" v:val="VT0(1):26"/>
					<v:ud v:nameU="Joint3_4Angle" v:prompt="" v:val="VT0(1.8592119732081):32"/>
					<v:ud v:nameU="Joint4_5Pcnt" v:prompt="" v:val="VT0(1):26"/>
					<v:ud v:nameU="Joint4_5Angle" v:prompt="" v:val="VT0(1.8592119732081):32"/>
					<v:ud v:nameU="Joint5_6Pcnt" v:prompt="" v:val="VT0(1):26"/>
					<v:ud v:nameU="Joint5_6Angle" v:prompt="" v:val="VT0(1.8592119732081):32"/>
					<v:ud v:nameU="Joint6_7Pcnt" v:prompt="" v:val="VT0(1):26"/>
					<v:ud v:nameU="Joint6_7Angle" v:prompt="" v:val="VT0(1.8592119732081):32"/>
					<v:ud v:nameU="Joint7_8Pcnt" v:prompt="" v:val="VT0(1):26"/>
					<v:ud v:nameU="Joint7_8Angle" v:prompt="" v:val="VT0(1.8592119732081):32"/>
					<v:ud v:nameU="Joint8_9Pcnt" v:prompt="" v:val="VT0(1):26"/>
					<v:ud v:nameU="Joint8_9Angle" v:prompt="" v:val="VT0(1.8592119732081):32"/>
					<v:ud v:nameU="visVersion" v:prompt="" v:val="VT0(15):26"/>
					<v:ud v:nameU="LastAngle" v:prompt="" v:val="VT0(-0.97779376491337):32"/>
					<v:ud v:nameU="CtrlAngle" v:prompt="" v:val="VT0(-2.0826841551864):32"/>
					<v:ud v:nameU="ArrowFeatherAngle" v:prompt="" v:val="VT0(6.4102819325393):32"/>
					<v:ud v:nameU="ArrowFeatherDist" v:prompt="" v:val="VT0(0.22579212112951):24"/>
					<v:ud v:nameU="Joint1_2Pcnt" v:prompt="" v:val="VT0(0.3451984557626):26"/>
					<v:ud v:nameU="Joint1_2Angle" v:prompt="" v:val="VT0(1.876632842073):32"/>
					<v:ud v:nameU="Joint2_3Pcnt" v:prompt="" v:val="VT0(0.74023367528855):26"/>
					<v:ud v:nameU="Joint2_3Angle" v:prompt="" v:val="VT0(1.1736695710706):32"/>
					<v:ud v:nameU="Joint3_4Angle" v:prompt="" v:val="VT0(0.59300256188153):32"/>
					<v:ud v:nameU="Joint4_5Angle" v:prompt="" v:val="VT0(0.59300256188153):32"/>
					<v:ud v:nameU="Joint5_6Angle" v:prompt="" v:val="VT0(0.59300256188153):32"/>
					<v:ud v:nameU="Joint6_7Angle" v:prompt="" v:val="VT0(0.59300256188153):32"/>
					<v:ud v:nameU="Joint7_8Angle" v:prompt="" v:val="VT0(0.59300256188153):32"/>
					<v:ud v:nameU="Joint8_9Angle" v:prompt="" v:val="VT0(0.59300256188153):32"/>
				</v:userDefs>
				<g id="shadow30-118" v:groupContext="shadow" v:shadowOffsetX="0.345598" v:shadowOffsetY="-1.97279" v:shadowType="1"
						transform="matrix(1,0,0,1,-1.32056,-1.50581)" class="st1">
					<path d="M0 380.1 L147.52 312.78 L329.96 278.92 L398.15 380.1" class="st7"/>
				</g>
				<path d="M0 380.1 L147.52 312.78 L329.96 278.92 L398.15 380.1" class="st8"/>
			</g>
			<g id="shape31-125" v:mID="31" v:groupContext="shape" transform="translate(36.7212,-30.2023) rotate(-2.07945)">
				<title>Multi-Line.31</title>
				<v:userDefs>
					<v:ud v:nameU="VertexCount" v:prompt="" v:val="VT0(4):26"/>
					<v:ud v:nameU="SegmentType" v:prompt="" v:val="VT0(1):26"/>
					<v:ud v:nameU="DrawType" v:prompt="" v:val="VT0(1):26"/>
					<v:ud v:nameU="StartWidth" v:prompt="" v:val="VT0(0.15748031496063):24"/>
					<v:ud v:nameU="EndWidth" v:prompt="" v:val="VT0(0.098425196850394):24"/>
					<v:ud v:nameU="LastAngle" v:prompt="" v:val="VT0(0.28841564641324):32"/>
					<v:ud v:nameU="CtrlAngle" v:prompt="" v:val="VT0(-1.7168275610178):32"/>
					<v:ud v:nameU="ArrowFeatherAngle" v:prompt="" v:val="VT0(8.5768441610239):32"/>
					<v:ud v:nameU="ArrowFeatherDist" v:prompt="" v:val="VT0(0.19896813608374):24"/>
					<v:ud v:nameU="Joint1_2Pcnt" v:prompt="" v:val="VT0(0.36297127302829):26"/>
					<v:ud v:nameU="Joint1_2Angle" v:prompt="" v:val="VT0(1.4628840514671):32"/>
					<v:ud v:nameU="Joint2_3Pcnt" v:prompt="" v:val="VT0(0.7333465724344):26"/>
					<v:ud v:nameU="Joint2_3Angle" v:prompt="" v:val="VT0(1.4659193082736):32"/>
					<v:ud v:nameU="Joint3_4Pcnt" v:prompt="" v:val="VT0(1):26"/>
					<v:ud v:nameU="Joint3_4Angle" v:prompt="" v:val="VT0(1.8592119732081):32"/>
					<v:ud v:nameU="Joint4_5Pcnt" v:prompt="" v:val="VT0(1):26"/>
					<v:ud v:nameU="Joint4_5Angle" v:prompt="" v:val="VT0(1.8592119732081):32"/>
					<v:ud v:nameU="Joint5_6Pcnt" v:prompt="" v:val="VT0(1):26"/>
					<v:ud v:nameU="Joint5_6Angle" v:prompt="" v:val="VT0(1.8592119732081):32"/>
					<v:ud v:nameU="Joint6_7Pcnt" v:prompt="" v:val="VT0(1):26"/>
					<v:ud v:nameU="Joint6_7Angle" v:prompt="" v:val="VT0(1.8592119732081):32"/>
					<v:ud v:nameU="Joint7_8Pcnt" v:prompt="" v:val="VT0(1):26"/>
					<v:ud v:nameU="Joint7_8Angle" v:prompt="" v:val="VT0(1.8592119732081):32"/>
					<v:ud v:nameU="Joint8_9Pcnt" v:prompt="" v:val="VT0(1):26"/>
					<v:ud v:nameU="Joint8_9Angle" v:prompt="" v:val="VT0(1.8592119732081):32"/>
					<v:ud v:nameU="visVersion" v:prompt="" v:val="VT0(15):26"/>
					<v:ud v:nameU="LastAngle" v:prompt="" v:val="VT0(-0.62415721185132):32"/>
					<v:ud v:nameU="CtrlAngle" v:prompt="" v:val="VT0(-2.2484129587488):32"/>
					<v:ud v:nameU="ArrowFeatherAngle" v:prompt="" v:val="VT0(7.2832838422258):32"/>
					<v:ud v:nameU="ArrowFeatherDist" v:prompt="" v:val="VT0(0.25267383861382):24"/>
					<v:ud v:nameU="Joint1_2Pcnt" v:prompt="" v:val="VT0(0.43655585006637):26"/>
					<v:ud v:nameU="Joint1_2Angle" v:prompt="" v:val="VT0(1.7765225720689):32"/>
					<v:ud v:nameU="Joint2_3Pcnt" v:prompt="" v:val="VT0(0.68186146971487):26"/>
					<v:ud v:nameU="Joint2_3Angle" v:prompt="" v:val="VT0(1.2204440200005):32"/>
					<v:ud v:nameU="Joint3_4Angle" v:prompt="" v:val="VT0(0.94663911494358):32"/>
					<v:ud v:nameU="Joint4_5Angle" v:prompt="" v:val="VT0(0.94663911494358):32"/>
					<v:ud v:nameU="Joint5_6Angle" v:prompt="" v:val="VT0(0.94663911494358):32"/>
					<v:ud v:nameU="Joint6_7Angle" v:prompt="" v:val="VT0(0.94663911494358):32"/>
					<v:ud v:nameU="Joint7_8Angle" v:prompt="" v:val="VT0(0.94663911494358):32"/>
					<v:ud v:nameU="Joint8_9Angle" v:prompt="" v:val="VT0(0.94663911494358):32"/>
				</v:userDefs>
				<g id="shadow31-126" v:groupContext="shadow" v:shadowOffsetX="0.345598" v:shadowOffsetY="-1.97279" v:shadowType="1"
						transform="matrix(1,0,0,1,0.273787,1.98403)" class="st1">
					<path d="M0 380.1 L247.54 248.71 L404.55 260.75 L570.28 380.1" class="st7"/>
				</g>
				<path d="M0 380.1 L247.54 248.71 L404.55 260.75 L570.28 380.1" class="st8"/>
			</g>
			<g id="shape32-133" v:mID="32" v:groupContext="shape" transform="translate(41.4646,-358.504)">
				<title>Sheet.32</title>
				<desc>Customer Aggregate</desc>
				<v:textBlock v:margins="rect(4,4,4,4)" v:tabSpace="42.5197"/>
				<v:textRect cx="111.367" cy="370.104" width="222.74" height="20"/>
				<rect x="0" y="360.104" width="222.735" height="20" class="st9"/>
				<text x="36.38" y="375.5" class="st10" v:langID="1045"><v:paragraph v:horizAlign="1"/><v:tabList/>Customer Aggregate</text>			</g>
			<g id="shape35-136" v:mID="35" v:groupContext="shape" transform="translate(411.987,-277.638)">
				<title>Sheet.35</title>
				<desc>Order Aggregate</desc>
				<v:textBlock v:margins="rect(4,4,4,4)" v:tabSpace="42.5197"/>
				<v:textRect cx="111.367" cy="370.104" width="222.74" height="20"/>
				<rect x="0" y="360.104" width="222.735" height="20" class="st9"/>
				<text x="50.56" y="375.5" class="st10" v:langID="1045"><v:paragraph v:horizAlign="1"/><v:tabList/>Order Aggregate</text>			</g>
			<g id="shape36-139" v:mID="36" v:groupContext="shape" transform="translate(266.218,0)">
				<title>Sheet.36</title>
				<desc>Product Aggregate</desc>
				<v:textBlock v:margins="rect(4,4,4,4)" v:tabSpace="42.5197"/>
				<v:textRect cx="111.367" cy="370.104" width="222.74" height="20"/>
				<rect x="0" y="360.104" width="222.735" height="20" class="st9"/>
				<text x="43.19" y="375.5" class="st10" v:langID="1045"><v:paragraph v:horizAlign="1"/><v:tabList/>Product Aggregate</text>			</g>
		</g>
	</g>
</svg>
