<?xml version="1.0" encoding="UTF-8" standalone="no"?>
<!DOCTYPE svg PUBLIC "-//W3C//DTD SVG 1.1//EN" "http://www.w3.org/Graphics/SVG/1.1/DTD/svg11.dtd">
<!-- Generated by Microsoft Visio, SVG Export DIP-LEDLight-After.svg Page-1 -->
<svg xmlns="http://www.w3.org/2000/svg" xmlns:xlink="http://www.w3.org/1999/xlink" xmlns:ev="http://www.w3.org/2001/xml-events"
		xmlns:v="http://schemas.microsoft.com/visio/2003/SVGExtensions/" width="7.42645in" height="3.10559in"
		viewBox="0 0 534.705 223.602" xml:space="preserve" color-interpolation-filters="sRGB" class="st21">
	<v:documentProperties v:langID="1033" v:metric="true" v:viewMarkup="false"/>

	<style type="text/css">
	<![CDATA[
		.st1 {fill:#f2f2f2;stroke:#686868;stroke-linecap:butt;stroke-width:1.25}
		.st2 {fill:#7e7e7e;stroke:#686868;stroke-linecap:butt;stroke-width:1.25}
		.st3 {fill:#ffffff;font-family:Segoe UI Semilight;font-size:1.00001em}
		.st4 {fill:#7e7e7e;fill-opacity:0}
		.st5 {stroke:#686868;stroke-linecap:butt;stroke-width:1.25;visibility:hidden}
		.st6 {fill:#ffffff}
		.st7 {stroke:#686868;stroke-dasharray:2,1;stroke-linecap:butt;stroke-width:1}
		.st8 {fill:#686868;font-family:Segoe UI Semilight;font-size:0.833336em}
		.st9 {fill:#ffffff;font-family:Segoe UI Semilight;font-size:1.00001em;font-style:italic}
		.st10 {font-size:1em;font-style:italic}
		.st11 {font-size:1em}
		.st12 {marker-end:url(#mrkr12-45);stroke:#686868;stroke-linecap:butt;stroke-width:1}
		.st13 {fill:#686868;fill-opacity:1;stroke:#686868;stroke-opacity:1;stroke-width:0.28409090909091}
		.st14 {marker-end:url(#mrkr14-83);stroke:#686868;stroke-linecap:butt;stroke-width:1}
		.st15 {fill:#ffffff;stroke:none;stroke-linecap:butt}
		.st16 {fill:#7f7f7f;font-family:Franklin Gothic Book;font-size:0.666664em}
		.st17 {fill:#f6f4f2}
		.st18 {stroke:#836b41;stroke-linecap:butt;stroke-width:1.25}
		.st19 {fill:#9f8351;font-family:Segoe UI Semilight;font-size:0.666664em}
		.st20 {fill:#ffffff;stroke:#836b41;stroke-linecap:round;stroke-linejoin:round;stroke-width:1.25}
		.st21 {fill:none;fill-rule:evenodd;font-size:12px;overflow:visible;stroke-linecap:square;stroke-miterlimit:3}
	]]>
	</style>

	<defs id="Markers">
		<g id="lend12">
			<path d="M 3 1 L 0 0 L 3 -1 " style="stroke-linecap:round;stroke-linejoin:round;fill:none"/>
		</g>
		<marker id="mrkr12-45" class="st13" v:arrowType="12" v:arrowSize="2" orient="auto" markerUnits="strokeWidth"
				overflow="visible">
			<use xlink:href="#lend12" transform="scale(-3.52,-3.52) "/>
		</marker>
		<g id="lend14">
			<path d="M 3 -1 L 0 0 L 3 1 L 3 -1 " style="stroke-linecap:round;stroke-linejoin:round;fill:none"/>
		</g>
		<marker id="mrkr14-83" class="st13" v:arrowType="14" v:arrowSize="2" v:setback="10.56" refX="-10.56" orient="auto"
				markerUnits="strokeWidth" overflow="visible">
			<use xlink:href="#lend14" transform="scale(-3.52,-3.52) "/>
		</marker>
	</defs>
	<g v:mID="0" v:index="1" v:groupContext="foregroundPage">
		<title>Page-1</title>
		<v:pageProperties v:drawingScale="0.0393701" v:pageScale="0.0393701" v:drawingUnits="24" v:shadowOffsetX="8.50394"
				v:shadowOffsetY="-8.50394"/>
		<v:layer v:name="Connector" v:index="0"/>
		<g id="group4-1" transform="translate(1.25,-158.439)" v:mID="4" v:groupContext="group">
			<v:userDefs>
				<v:ud v:nameU="msvStructureType" v:prompt="" v:val="VT4(List)"/>
				<v:ud v:nameU="msvSDContainerResize" v:prompt="" v:val="VT0(2):26"/>
				<v:ud v:nameU="msvSDContainerNoRibbon" v:prompt="" v:val="VT0(1):5"/>
				<v:ud v:nameU="msvSDListAlignment" v:prompt="" v:val="VT0(0):26"/>
				<v:ud v:nameU="msvSDListDirection" v:prompt="" v:val="VT0(2):26"/>
				<v:ud v:nameU="msvSDListItemMaster1" v:prompt="" v:val="VT0(254):26"/>
				<v:ud v:nameU="msvSDListItemMaster2" v:prompt="" v:val="VT0(254):26"/>
				<v:ud v:nameU="msvSDListItemMaster3" v:prompt="" v:val="VT0(254):26"/>
				<v:ud v:nameU="msvSDListRequiredCategories" v:prompt="" v:val="VT4(Member;Separator)"/>
				<v:ud v:nameU="msvSDContainerMargin" v:prompt="" v:val="VT0(0.039370078740157):24"/>
				<v:ud v:nameU="msvSDListSpacing" v:prompt="" v:val="VT0(0):26"/>
				<v:ud v:nameU="TemplateParm" v:prompt="" v:val="VT0(0):5"/>
				<v:ud v:nameU="TemplateParmHgt" v:prompt="" v:val="VT0(0):1"/>
				<v:ud v:nameU="StereoType" v:prompt="" v:val="VT0(0):5"/>
				<v:ud v:nameU="StereoTypeHgt" v:prompt="" v:val="VT0(0.22227273084852):1"/>
				<v:ud v:nameU="TextOffset" v:prompt="" v:val="VT0(0):26"/>
				<v:ud v:nameU="WidthMin" v:prompt="" v:val="VT0(0):26"/>
				<v:ud v:nameU="EntityName" v:prompt="" v:val="VT4(ClassName)"/>
				<v:ud v:nameU="HdrHgt" v:prompt="" v:val="VT0(0.43616263699002):1"/>
				<v:ud v:nameU="BackGrnd" v:prompt="" v:val="VT5(#f2f2f2)"/>
				<v:ud v:nameU="BackGrndLine" v:prompt="" v:val="VT0(0):26"/>
				<v:ud v:nameU="Test" v:prompt="" v:val="VT0(0):5"/>
				<v:ud v:nameU="visVersion" v:prompt="" v:val="VT0(15):26"/>
				<v:ud v:nameU="WidthMin" v:prompt="" v:val="VT0(1.009826649574):1"/>
				<v:ud v:nameU="EntityName" v:prompt="" v:val="VT4(ToggleButton)"/>
				<v:ud v:nameU="BackGrndLine" v:prompt="" v:val="VT5(#696969)"/>
			</v:userDefs>
			<title>Class</title>
			<desc>ToggleButton</desc>
			<g id="shape5-2" v:mID="5" v:groupContext="shape">
				<title>Sheet.5</title>
				<v:userDefs>
					<v:ud v:nameU="DOPS" v:prompt="" v:val="VT0(1):27"/>
					<v:ud v:nameU="HdrHgt" v:prompt="" v:val="VT0(0.43616263699002):1"/>
					<v:ud v:nameU="EmblOffset" v:prompt="" v:val="VT0(0):26"/>
					<v:ud v:nameU="Spacer" v:prompt="" v:val="VT0(0):26"/>
				</v:userDefs>
				<path d="M0 223.6 L184.25 223.6 L184.25 191.09 L0 191.09 L0 223.6 Z" class="st1"/>
			</g>
			<g id="shape6-4" v:mID="6" v:groupContext="shape" transform="translate(0,-32.5076)">
				<title>Sheet.6</title>
				<v:userDefs>
					<v:ud v:nameU="msvStructureType" v:prompt="" v:val="VT4(Heading)"/>
					<v:ud v:nameU="msvSDContainerHeadingEdge" v:prompt="" v:val="VT4(Bottom)"/>
					<v:ud v:nameU="StereoType" v:prompt="" v:val="VT0(0):5"/>
					<v:ud v:nameU="StereoTypeHgt" v:prompt="" v:val="VT0(0.22227273084852):1"/>
					<v:ud v:nameU="TemplateParm" v:prompt="" v:val="VT0(0):5"/>
					<v:ud v:nameU="TemplateParmHgt" v:prompt="" v:val="VT0(0):1"/>
					<v:ud v:nameU="EmblOffset" v:prompt="" v:val="VT0(0):26"/>
					<v:ud v:nameU="Spacer" v:prompt="" v:val="VT0(0):26"/>
					<v:ud v:nameU="UsableHgt" v:prompt="" v:val="VT0(0.43616263699002):1"/>
					<v:ud v:nameU="UmlRole" v:prompt="" v:val="VT4(ClassName)"/>
					<v:ud v:nameU="UmlRole" v:prompt="" v:val="VT4(ToggleButton)"/>
				</v:userDefs>
				<path d="M0 223.6 L184.25 223.6 L184.25 192.2 L0 192.2 L0 223.6 Z" class="st2"/>
			</g>
			<g id="shape8-6" v:mID="8" v:groupContext="shape" transform="translate(175.748,-63.9113)">
				<title>Sheet.8</title>
				<desc>parameter</desc>
				<v:userDefs>
					<v:ud v:nameU="TemplateParm" v:prompt="" v:val="VT0(0):5"/>
					<v:ud v:nameU="DOPS" v:prompt="" v:val="VT0(1):27"/>
					<v:ud v:nameU="Rounding" v:prompt="" v:val="VT0(0.11811023622047):24"/>
					<v:ud v:nameU="UmlRole" v:prompt="" v:val="VT4(parameter)"/>
				</v:userDefs>
				<v:textBlock v:margins="rect(2,4,2,4)" v:tabSpace="42.5197"/>
				<v:textRect cx="0" cy="223.602" width="0" height="0"/>
			</g>
			<g id="shape4-7" v:mID="4" v:groupContext="groupContent">
				<v:textBlock v:margins="rect(8.5,4,8.5,4)" v:tabSpace="42.5197"/>
				<v:textRect cx="92.126" cy="175.393" width="184.26" height="31.4037"/>
				<text x="4" y="178.99" class="st3" v:langID="1045"><v:paragraph/><v:tabList/>ToggleButton</text>			</g>
		</g>
		<g id="shape9-9" v:mID="9" v:groupContext="shape" transform="translate(4.08465,-176.112)">
			<title>Member</title>
			<v:userDefs>
				<v:ud v:nameU="msvShapeCategories" v:prompt="" v:val="VT4(Member)"/>
				<v:ud v:nameU="MemberName" v:prompt="" v:val="VT4(-memberName)"/>
				<v:ud v:nameU="ContainerMargin" v:prompt="" v:val="VT0(0):26"/>
				<v:ud v:nameU="WidthMin" v:prompt="" v:val="VT0(0):26"/>
				<v:ud v:nameU="UserWidth" v:prompt="" v:val="VT0(1.8897637795276):24"/>
				<v:ud v:nameU="DarkerColor" v:prompt="" v:val="VT0(0):26"/>
				<v:ud v:nameU="DarkColor" v:prompt="" v:val="VT0(0):26"/>
				<v:ud v:nameU="BackFillColor" v:prompt="" v:val="VT0(1):26"/>
				<v:ud v:nameU="BackLineColor" v:prompt="" v:val="VT0(0):26"/>
				<v:ud v:nameU="IsInstance" v:prompt="" v:val="VT0(0):5"/>
				<v:ud v:nameU="visVersion" v:prompt="" v:val="VT0(15):26"/>
				<v:ud v:nameU="MemberName" v:prompt="" v:val="VT4()"/>
				<v:ud v:nameU="ContainerMargin" v:prompt="" v:val="VT0(0.039370078740157):24"/>
				<v:ud v:nameU="WidthMin" v:prompt="" v:val="VT0(0):26"/>
				<v:ud v:nameU="DarkerColor" v:prompt="" v:val="VT5(#696969)"/>
				<v:ud v:nameU="DarkColor" v:prompt="" v:val="VT5(#696969)"/>
				<v:ud v:nameU="BackFillColor" v:prompt="" v:val="VT5(#f2f2f2)"/>
				<v:ud v:nameU="BackLineColor" v:prompt="" v:val="VT5(#696969)"/>
				<v:ud v:nameU="IsInstance" v:prompt="" v:val="VT0(1):5"/>
			</v:userDefs>
			<rect x="0" y="211.602" width="178.583" height="12" class="st4"/>
			<rect x="0" y="211.602" width="178.583" height="12" class="st5"/>
		</g>
		<g id="shape10-12" v:mID="10" v:groupContext="shape" transform="translate(4.08465,-173.278)">
			<title>Separator</title>
			<v:userDefs>
				<v:ud v:nameU="msvShapeCategories" v:prompt="" v:val="VT4(Separator)"/>
				<v:ud v:nameU="ContainerMargin" v:prompt="" v:val="VT0(0):26"/>
				<v:ud v:nameU="ItemIndex" v:prompt="" v:val="VT0(-1):26"/>
				<v:ud v:nameU="visVersion" v:prompt="" v:val="VT0(15):26"/>
				<v:ud v:nameU="ContainerMargin" v:prompt="" v:val="VT0(0.039370078740157):24"/>
				<v:ud v:nameU="ItemIndex" v:prompt="" v:val="VT0(2):26"/>
			</v:userDefs>
			<path d="M0 222.19 L178.58 222.19 L0 222.19 Z" class="st6"/>
			<path d="M0 222.19 L178.58 222.19" class="st7"/>
		</g>
		<g id="shape11-15" v:mID="11" v:groupContext="shape" transform="translate(4.08465,-161.274)">
			<title>Member.8</title>
			<desc>+ Click()</desc>
			<v:userDefs>
				<v:ud v:nameU="msvShapeCategories" v:prompt="" v:val="VT4(Member)"/>
				<v:ud v:nameU="MemberName" v:prompt="" v:val="VT4(-memberName)"/>
				<v:ud v:nameU="ContainerMargin" v:prompt="" v:val="VT0(0):26"/>
				<v:ud v:nameU="WidthMin" v:prompt="" v:val="VT0(0):26"/>
				<v:ud v:nameU="UserWidth" v:prompt="" v:val="VT0(1.8897637795276):24"/>
				<v:ud v:nameU="DarkerColor" v:prompt="" v:val="VT0(0):26"/>
				<v:ud v:nameU="DarkColor" v:prompt="" v:val="VT0(0):26"/>
				<v:ud v:nameU="BackFillColor" v:prompt="" v:val="VT0(1):26"/>
				<v:ud v:nameU="BackLineColor" v:prompt="" v:val="VT0(0):26"/>
				<v:ud v:nameU="IsInstance" v:prompt="" v:val="VT0(0):5"/>
				<v:ud v:nameU="visVersion" v:prompt="" v:val="VT0(15):26"/>
				<v:ud v:nameU="MemberName" v:prompt="" v:val="VT4(+ Click())"/>
				<v:ud v:nameU="ContainerMargin" v:prompt="" v:val="VT0(0.039370078740157):24"/>
				<v:ud v:nameU="WidthMin" v:prompt="" v:val="VT0(0):26"/>
				<v:ud v:nameU="DarkerColor" v:prompt="" v:val="VT5(#696969)"/>
				<v:ud v:nameU="DarkColor" v:prompt="" v:val="VT5(#696969)"/>
				<v:ud v:nameU="BackFillColor" v:prompt="" v:val="VT5(#f2f2f2)"/>
				<v:ud v:nameU="BackLineColor" v:prompt="" v:val="VT5(#696969)"/>
				<v:ud v:nameU="IsInstance" v:prompt="" v:val="VT0(1):5"/>
			</v:userDefs>
			<v:textBlock v:margins="rect(0,0,0,8.50394)" v:tabSpace="42.5197"/>
			<v:textRect cx="89.2913" cy="217.601" width="178.59" height="12.0036"/>
			<rect x="0" y="211.599" width="178.583" height="12.0036" class="st4"/>
			<rect x="0" y="211.599" width="178.583" height="12.0036" class="st5"/>
			<text x="8.5" y="220.6" class="st8" v:langID="1045"><v:paragraph/><v:tabList/>+ Click()</text>		</g>
		<g id="group12-19" transform="translate(252.116,-158.441)" v:mID="12" v:groupContext="group">
			<v:userDefs>
				<v:ud v:nameU="msvStructureType" v:prompt="" v:val="VT4(List)"/>
				<v:ud v:nameU="msvSDContainerResize" v:prompt="" v:val="VT0(2):26"/>
				<v:ud v:nameU="msvSDContainerNoRibbon" v:prompt="" v:val="VT0(1):5"/>
				<v:ud v:nameU="msvSDListAlignment" v:prompt="" v:val="VT0(0):26"/>
				<v:ud v:nameU="msvSDListDirection" v:prompt="" v:val="VT0(2):26"/>
				<v:ud v:nameU="msvSDListItemMaster1" v:prompt="" v:val="VT0(254):26"/>
				<v:ud v:nameU="msvSDListItemMaster2" v:prompt="" v:val="VT0(254):26"/>
				<v:ud v:nameU="msvSDListItemMaster3" v:prompt="" v:val="VT0(254):26"/>
				<v:ud v:nameU="msvSDListRequiredCategories" v:prompt="" v:val="VT4(Member;Separator)"/>
				<v:ud v:nameU="msvSDContainerMargin" v:prompt="" v:val="VT0(0.039370078740157):24"/>
				<v:ud v:nameU="msvSDListSpacing" v:prompt="" v:val="VT0(0):26"/>
				<v:ud v:nameU="TemplateParm" v:prompt="" v:val="VT0(0):5"/>
				<v:ud v:nameU="TemplateParmHgt" v:prompt="" v:val="VT0(0):1"/>
				<v:ud v:nameU="StereoType" v:prompt="" v:val="VT0(0):5"/>
				<v:ud v:nameU="StereoTypeHgt" v:prompt="" v:val="VT0(0.22227273084852):1"/>
				<v:ud v:nameU="TextOffset" v:prompt="" v:val="VT0(0):26"/>
				<v:ud v:nameU="WidthMin" v:prompt="" v:val="VT0(0):26"/>
				<v:ud v:nameU="EntityName" v:prompt="" v:val="VT4(ClassName)"/>
				<v:ud v:nameU="HdrHgt" v:prompt="" v:val="VT0(0.43616263699002):1"/>
				<v:ud v:nameU="BackGrnd" v:prompt="" v:val="VT5(#f2f2f2)"/>
				<v:ud v:nameU="BackGrndLine" v:prompt="" v:val="VT0(0):26"/>
				<v:ud v:nameU="Test" v:prompt="" v:val="VT0(0):5"/>
				<v:ud v:nameU="visVersion" v:prompt="" v:val="VT0(15):26"/>
				<v:ud v:nameU="WidthMin" v:prompt="" v:val="VT0(1.028739918617):1"/>
				<v:ud v:nameU="EntityName" v:prompt="" v:val="VT4(ISwitch)"/>
				<v:ud v:nameU="BackGrndLine" v:prompt="" v:val="VT5(#696969)"/>
			</v:userDefs>
			<title>Class.72</title>
			<desc>ISwitch</desc>
			<g id="shape13-20" v:mID="13" v:groupContext="shape">
				<title>Sheet.13</title>
				<v:userDefs>
					<v:ud v:nameU="DOPS" v:prompt="" v:val="VT0(1):27"/>
					<v:ud v:nameU="HdrHgt" v:prompt="" v:val="VT0(0.43616263699002):1"/>
					<v:ud v:nameU="EmblOffset" v:prompt="" v:val="VT0(0):26"/>
					<v:ud v:nameU="Spacer" v:prompt="" v:val="VT0(0):26"/>
				</v:userDefs>
				<path d="M0 223.6 L102.05 223.6 L102.05 191.09 L0 191.09 L0 223.6 Z" class="st1"/>
			</g>
			<g id="shape14-22" v:mID="14" v:groupContext="shape" transform="translate(0,-32.5076)">
				<title>Sheet.14</title>
				<v:userDefs>
					<v:ud v:nameU="msvStructureType" v:prompt="" v:val="VT4(Heading)"/>
					<v:ud v:nameU="msvSDContainerHeadingEdge" v:prompt="" v:val="VT4(Bottom)"/>
					<v:ud v:nameU="StereoType" v:prompt="" v:val="VT0(0):5"/>
					<v:ud v:nameU="StereoTypeHgt" v:prompt="" v:val="VT0(0.22227273084852):1"/>
					<v:ud v:nameU="TemplateParm" v:prompt="" v:val="VT0(0):5"/>
					<v:ud v:nameU="TemplateParmHgt" v:prompt="" v:val="VT0(0):1"/>
					<v:ud v:nameU="EmblOffset" v:prompt="" v:val="VT0(0):26"/>
					<v:ud v:nameU="Spacer" v:prompt="" v:val="VT0(0):26"/>
					<v:ud v:nameU="UsableHgt" v:prompt="" v:val="VT0(0.43616263699002):1"/>
					<v:ud v:nameU="UmlRole" v:prompt="" v:val="VT4(ClassName)"/>
					<v:ud v:nameU="UmlRole" v:prompt="" v:val="VT4(ISwitch)"/>
				</v:userDefs>
				<path d="M0 223.6 L102.05 223.6 L102.05 192.2 L0 192.2 L0 223.6 Z" class="st2"/>
			</g>
			<g id="shape16-24" v:mID="16" v:groupContext="shape" transform="translate(93.5433,-63.9113)">
				<title>Sheet.16</title>
				<desc>parameter</desc>
				<v:userDefs>
					<v:ud v:nameU="TemplateParm" v:prompt="" v:val="VT0(0):5"/>
					<v:ud v:nameU="DOPS" v:prompt="" v:val="VT0(1):27"/>
					<v:ud v:nameU="Rounding" v:prompt="" v:val="VT0(0.11811023622047):24"/>
					<v:ud v:nameU="UmlRole" v:prompt="" v:val="VT4(parameter)"/>
				</v:userDefs>
				<v:textBlock v:margins="rect(2,4,2,4)" v:tabSpace="42.5197"/>
				<v:textRect cx="0" cy="223.602" width="0" height="0"/>
			</g>
			<g id="shape12-25" v:mID="12" v:groupContext="groupContent">
				<v:textBlock v:margins="rect(8.5,4,8.5,4)" v:tabSpace="42.5197"/>
				<v:textRect cx="51.0236" cy="175.393" width="102.05" height="31.4037"/>
				<text x="4" y="178.99" class="st9" v:langID="1045"><v:paragraph/><v:tabList/>ISwitch</text>			</g>
		</g>
		<g id="shape17-27" v:mID="17" v:groupContext="shape" transform="translate(254.951,-185.279)">
			<title>Separator.78</title>
			<v:userDefs>
				<v:ud v:nameU="msvShapeCategories" v:prompt="" v:val="VT4(Separator)"/>
				<v:ud v:nameU="ContainerMargin" v:prompt="" v:val="VT0(0):26"/>
				<v:ud v:nameU="ItemIndex" v:prompt="" v:val="VT0(-1):26"/>
				<v:ud v:nameU="visVersion" v:prompt="" v:val="VT0(15):26"/>
				<v:ud v:nameU="ContainerMargin" v:prompt="" v:val="VT0(0.039370078740157):24"/>
				<v:ud v:nameU="ItemIndex" v:prompt="" v:val="VT0(1):26"/>
			</v:userDefs>
			<path d="M0 222.19 L96.38 222.19 L0 222.19 Z" class="st6"/>
			<path d="M0 222.19 L96.38 222.19" class="st7"/>
		</g>
		<g id="shape18-30" v:mID="18" v:groupContext="shape" transform="translate(254.951,-161.276)">
			<title>Member.79</title>
			<desc>+ On() + Off()</desc>
			<v:userDefs>
				<v:ud v:nameU="msvShapeCategories" v:prompt="" v:val="VT4(Member)"/>
				<v:ud v:nameU="MemberName" v:prompt="" v:val="VT4(-memberName)"/>
				<v:ud v:nameU="ContainerMargin" v:prompt="" v:val="VT0(0):26"/>
				<v:ud v:nameU="WidthMin" v:prompt="" v:val="VT0(0):26"/>
				<v:ud v:nameU="UserWidth" v:prompt="" v:val="VT0(1.8897637795276):24"/>
				<v:ud v:nameU="DarkerColor" v:prompt="" v:val="VT0(0):26"/>
				<v:ud v:nameU="DarkColor" v:prompt="" v:val="VT0(0):26"/>
				<v:ud v:nameU="BackFillColor" v:prompt="" v:val="VT0(1):26"/>
				<v:ud v:nameU="BackLineColor" v:prompt="" v:val="VT0(0):26"/>
				<v:ud v:nameU="IsInstance" v:prompt="" v:val="VT0(0):5"/>
				<v:ud v:nameU="visVersion" v:prompt="" v:val="VT0(15):26"/>
				<v:ud v:nameU="MemberName" v:prompt="" v:val="VT4(+ On()&#10;+ Off())"/>
				<v:ud v:nameU="ContainerMargin" v:prompt="" v:val="VT0(0.039370078740157):24"/>
				<v:ud v:nameU="WidthMin" v:prompt="" v:val="VT0(0):26"/>
				<v:ud v:nameU="DarkerColor" v:prompt="" v:val="VT5(#696969)"/>
				<v:ud v:nameU="DarkColor" v:prompt="" v:val="VT5(#696969)"/>
				<v:ud v:nameU="BackFillColor" v:prompt="" v:val="VT5(#f2f2f2)"/>
				<v:ud v:nameU="BackLineColor" v:prompt="" v:val="VT5(#696969)"/>
				<v:ud v:nameU="IsInstance" v:prompt="" v:val="VT0(1):5"/>
			</v:userDefs>
			<v:textBlock v:margins="rect(0,0,0,8.50394)" v:tabSpace="42.5197"/>
			<v:textRect cx="48.189" cy="211.601" width="96.38" height="24.0037"/>
			<rect x="0" y="199.599" width="96.378" height="24.0037" class="st4"/>
			<rect x="0" y="199.599" width="96.378" height="24.0037" class="st5"/>
			<text x="8.5" y="208.6" class="st8" v:langID="1045"><v:paragraph/><v:tabList/>+ <tspan class="st10">On</tspan><tspan
						class="st10">()<v:newlineChar/></tspan><tspan x="8.5" dy="1.2em" class="st11">+ </tspan><tspan class="st10">Off</tspan><tspan
						class="st10">()</tspan></text>		</g>
		<g id="group43-39" transform="translate(185.502,-183.309)" v:mID="43" v:groupContext="group" v:layerMember="0">
			<v:userDefs>
				<v:ud v:nameU="visVersion" v:prompt="" v:val="VT0(15):26"/>
				<v:ud v:nameU="RelationshipName" v:prompt="" v:val="VT4()"/>
				<v:ud v:nameU="ShowMulti" v:prompt="" v:val="VT0(0):26"/>
				<v:ud v:nameU="Identifying" v:prompt="" v:val="VT0(1):26"/>
				<v:ud v:nameU="DXBegin" v:prompt="" v:val="VT0(0):1"/>
				<v:ud v:nameU="DYBegin" v:prompt="" v:val="VT0(-0.029527559055118):1"/>
				<v:ud v:nameU="DXEnd" v:prompt="" v:val="VT0(0.029527559055118):1"/>
				<v:ud v:nameU="DYEnd" v:prompt="" v:val="VT0(0):1"/>
				<v:ud v:nameU="BeginAngle" v:prompt="" v:val="VT0(-1.5707963267949):32"/>
				<v:ud v:nameU="EndAngle" v:prompt="" v:val="VT0(0):32"/>
				<v:ud v:nameU="DXBegin" v:prompt="" v:val="VT0(0.013878331570602):1"/>
				<v:ud v:nameU="DYBegin" v:prompt="" v:val="VT0(-2.2204460492503E-015):1"/>
				<v:ud v:nameU="DXEnd" v:prompt="" v:val="VT0(0.0138783315706):1"/>
				<v:ud v:nameU="BeginAngle" v:prompt="" v:val="VT0(-1.5999373108752E-013):32"/>
			</v:userDefs>
			<title>Directed Association.107</title>
			<g id="shape43-40" v:mID="43" v:groupContext="groupContent" v:layerMember="0">
				<path d="M0 216.52 L66.61 216.51" class="st12"/>
			</g>
		</g>
		<g id="group68-46" transform="translate(424.321,-51.9019)" v:mID="68" v:groupContext="group">
			<v:userDefs>
				<v:ud v:nameU="msvStructureType" v:prompt="" v:val="VT4(List)"/>
				<v:ud v:nameU="msvSDContainerResize" v:prompt="" v:val="VT0(2):26"/>
				<v:ud v:nameU="msvSDContainerNoRibbon" v:prompt="" v:val="VT0(1):5"/>
				<v:ud v:nameU="msvSDListAlignment" v:prompt="" v:val="VT0(0):26"/>
				<v:ud v:nameU="msvSDListDirection" v:prompt="" v:val="VT0(2):26"/>
				<v:ud v:nameU="msvSDListItemMaster1" v:prompt="" v:val="VT0(254):26"/>
				<v:ud v:nameU="msvSDListItemMaster2" v:prompt="" v:val="VT0(254):26"/>
				<v:ud v:nameU="msvSDListItemMaster3" v:prompt="" v:val="VT0(254):26"/>
				<v:ud v:nameU="msvSDListRequiredCategories" v:prompt="" v:val="VT4(Member;Separator)"/>
				<v:ud v:nameU="msvSDContainerMargin" v:prompt="" v:val="VT0(0.039370078740157):24"/>
				<v:ud v:nameU="msvSDListSpacing" v:prompt="" v:val="VT0(0):26"/>
				<v:ud v:nameU="TemplateParm" v:prompt="" v:val="VT0(0):5"/>
				<v:ud v:nameU="TemplateParmHgt" v:prompt="" v:val="VT0(0):1"/>
				<v:ud v:nameU="StereoType" v:prompt="" v:val="VT0(0):5"/>
				<v:ud v:nameU="StereoTypeHgt" v:prompt="" v:val="VT0(0.22227273084852):1"/>
				<v:ud v:nameU="TextOffset" v:prompt="" v:val="VT0(0):26"/>
				<v:ud v:nameU="WidthMin" v:prompt="" v:val="VT0(0):26"/>
				<v:ud v:nameU="EntityName" v:prompt="" v:val="VT4(ClassName)"/>
				<v:ud v:nameU="HdrHgt" v:prompt="" v:val="VT0(0.43616263699002):1"/>
				<v:ud v:nameU="BackGrnd" v:prompt="" v:val="VT5(#f2f2f2)"/>
				<v:ud v:nameU="BackGrndLine" v:prompt="" v:val="VT0(0):26"/>
				<v:ud v:nameU="Test" v:prompt="" v:val="VT0(0):5"/>
				<v:ud v:nameU="visVersion" v:prompt="" v:val="VT0(15):26"/>
				<v:ud v:nameU="WidthMin" v:prompt="" v:val="VT0(1.1120147599256):1"/>
				<v:ud v:nameU="EntityName" v:prompt="" v:val="VT4(LEDLight)"/>
				<v:ud v:nameU="BackGrndLine" v:prompt="" v:val="VT5(#696969)"/>
			</v:userDefs>
			<title>Class.68</title>
			<desc>LEDLight</desc>
			<g id="shape69-47" v:mID="69" v:groupContext="shape">
				<title>Sheet.69</title>
				<v:userDefs>
					<v:ud v:nameU="DOPS" v:prompt="" v:val="VT0(1):27"/>
					<v:ud v:nameU="HdrHgt" v:prompt="" v:val="VT0(0.43616263699002):1"/>
					<v:ud v:nameU="EmblOffset" v:prompt="" v:val="VT0(0):26"/>
					<v:ud v:nameU="Spacer" v:prompt="" v:val="VT0(0):26"/>
				</v:userDefs>
				<path d="M0 223.6 L109.13 223.6 L109.13 203.09 L0 203.09 L0 223.6 Z" class="st1"/>
			</g>
			<g id="shape70-49" v:mID="70" v:groupContext="shape" transform="translate(0,-20.5076)">
				<title>Sheet.70</title>
				<v:userDefs>
					<v:ud v:nameU="msvStructureType" v:prompt="" v:val="VT4(Heading)"/>
					<v:ud v:nameU="msvSDContainerHeadingEdge" v:prompt="" v:val="VT4(Bottom)"/>
					<v:ud v:nameU="StereoType" v:prompt="" v:val="VT0(0):5"/>
					<v:ud v:nameU="StereoTypeHgt" v:prompt="" v:val="VT0(0.22227273084852):1"/>
					<v:ud v:nameU="TemplateParm" v:prompt="" v:val="VT0(0):5"/>
					<v:ud v:nameU="TemplateParmHgt" v:prompt="" v:val="VT0(0):1"/>
					<v:ud v:nameU="EmblOffset" v:prompt="" v:val="VT0(0):26"/>
					<v:ud v:nameU="Spacer" v:prompt="" v:val="VT0(0):26"/>
					<v:ud v:nameU="UsableHgt" v:prompt="" v:val="VT0(0.43616263699002):1"/>
					<v:ud v:nameU="UmlRole" v:prompt="" v:val="VT4(ClassName)"/>
					<v:ud v:nameU="UmlRole" v:prompt="" v:val="VT4(LEDLight)"/>
				</v:userDefs>
				<path d="M0 223.6 L109.13 223.6 L109.13 192.2 L0 192.2 L0 223.6 Z" class="st2"/>
			</g>
			<g id="shape72-51" v:mID="72" v:groupContext="shape" transform="translate(100.63,-51.9113)">
				<title>Sheet.72</title>
				<desc>parameter</desc>
				<v:userDefs>
					<v:ud v:nameU="TemplateParm" v:prompt="" v:val="VT0(0):5"/>
					<v:ud v:nameU="DOPS" v:prompt="" v:val="VT0(1):27"/>
					<v:ud v:nameU="Rounding" v:prompt="" v:val="VT0(0.11811023622047):24"/>
					<v:ud v:nameU="UmlRole" v:prompt="" v:val="VT4(parameter)"/>
				</v:userDefs>
				<v:textBlock v:margins="rect(2,4,2,4)" v:tabSpace="42.5197"/>
				<v:textRect cx="0" cy="223.602" width="0" height="0"/>
			</g>
			<g id="shape68-52" v:mID="68" v:groupContext="groupContent">
				<v:textBlock v:margins="rect(8.5,4,8.5,4)" v:tabSpace="42.5197"/>
				<v:textRect cx="54.5669" cy="187.393" width="109.14" height="31.4037"/>
				<text x="4" y="190.99" class="st3" v:langID="1045"><v:paragraph/><v:tabList/>LEDLight</text>			</g>
		</g>
		<g id="shape73-54" v:mID="73" v:groupContext="shape" transform="translate(427.156,-66.7402)">
			<title>Separator.73</title>
			<v:userDefs>
				<v:ud v:nameU="msvShapeCategories" v:prompt="" v:val="VT4(Separator)"/>
				<v:ud v:nameU="ContainerMargin" v:prompt="" v:val="VT0(0):26"/>
				<v:ud v:nameU="ItemIndex" v:prompt="" v:val="VT0(-1):26"/>
				<v:ud v:nameU="visVersion" v:prompt="" v:val="VT0(15):26"/>
				<v:ud v:nameU="ContainerMargin" v:prompt="" v:val="VT0(0.039370078740157):24"/>
				<v:ud v:nameU="ItemIndex" v:prompt="" v:val="VT0(1):26"/>
			</v:userDefs>
			<path d="M0 222.19 L103.46 222.19 L0 222.19 Z" class="st6"/>
			<path d="M0 222.19 L103.46 222.19" class="st7"/>
		</g>
		<g id="shape74-57" v:mID="74" v:groupContext="shape" transform="translate(427.156,-54.7366)">
			<title>Member.74</title>
			<desc>+SetRGB(r, g, b)</desc>
			<v:userDefs>
				<v:ud v:nameU="msvShapeCategories" v:prompt="" v:val="VT4(Member)"/>
				<v:ud v:nameU="MemberName" v:prompt="" v:val="VT4(-memberName)"/>
				<v:ud v:nameU="ContainerMargin" v:prompt="" v:val="VT0(0):26"/>
				<v:ud v:nameU="WidthMin" v:prompt="" v:val="VT0(0):26"/>
				<v:ud v:nameU="UserWidth" v:prompt="" v:val="VT0(1.8897637795276):24"/>
				<v:ud v:nameU="DarkerColor" v:prompt="" v:val="VT0(0):26"/>
				<v:ud v:nameU="DarkColor" v:prompt="" v:val="VT0(0):26"/>
				<v:ud v:nameU="BackFillColor" v:prompt="" v:val="VT0(1):26"/>
				<v:ud v:nameU="BackLineColor" v:prompt="" v:val="VT0(0):26"/>
				<v:ud v:nameU="IsInstance" v:prompt="" v:val="VT0(0):5"/>
				<v:ud v:nameU="visVersion" v:prompt="" v:val="VT0(15):26"/>
				<v:ud v:nameU="MemberName" v:prompt="" v:val="VT4(+SetRGB(r, g, b))"/>
				<v:ud v:nameU="ContainerMargin" v:prompt="" v:val="VT0(0.039370078740157):24"/>
				<v:ud v:nameU="WidthMin" v:prompt="" v:val="VT0(0):26"/>
				<v:ud v:nameU="DarkerColor" v:prompt="" v:val="VT5(#696969)"/>
				<v:ud v:nameU="DarkColor" v:prompt="" v:val="VT5(#696969)"/>
				<v:ud v:nameU="BackFillColor" v:prompt="" v:val="VT5(#f2f2f2)"/>
				<v:ud v:nameU="BackLineColor" v:prompt="" v:val="VT5(#696969)"/>
				<v:ud v:nameU="IsInstance" v:prompt="" v:val="VT0(1):5"/>
			</v:userDefs>
			<v:textBlock v:margins="rect(0,0,0,8.50394)" v:tabSpace="42.5197"/>
			<v:textRect cx="51.7323" cy="217.601" width="103.47" height="12.0036"/>
			<rect x="0" y="211.599" width="103.465" height="12.0036" class="st4"/>
			<rect x="0" y="211.599" width="103.465" height="12.0036" class="st5"/>
			<text x="8.5" y="220.6" class="st8" v:langID="1045"><v:paragraph/><v:tabList/>+SetRGB(r, g, b)</text>		</g>
		<g id="group75-61" transform="translate(252.116,-45.9019)" v:mID="75" v:groupContext="group">
			<v:userDefs>
				<v:ud v:nameU="msvStructureType" v:prompt="" v:val="VT4(List)"/>
				<v:ud v:nameU="msvSDContainerResize" v:prompt="" v:val="VT0(2):26"/>
				<v:ud v:nameU="msvSDContainerNoRibbon" v:prompt="" v:val="VT0(1):5"/>
				<v:ud v:nameU="msvSDListAlignment" v:prompt="" v:val="VT0(0):26"/>
				<v:ud v:nameU="msvSDListDirection" v:prompt="" v:val="VT0(2):26"/>
				<v:ud v:nameU="msvSDListItemMaster1" v:prompt="" v:val="VT0(254):26"/>
				<v:ud v:nameU="msvSDListItemMaster2" v:prompt="" v:val="VT0(254):26"/>
				<v:ud v:nameU="msvSDListItemMaster3" v:prompt="" v:val="VT0(254):26"/>
				<v:ud v:nameU="msvSDListRequiredCategories" v:prompt="" v:val="VT4(Member;Separator)"/>
				<v:ud v:nameU="msvSDContainerMargin" v:prompt="" v:val="VT0(0.039370078740157):24"/>
				<v:ud v:nameU="msvSDListSpacing" v:prompt="" v:val="VT0(0):26"/>
				<v:ud v:nameU="TemplateParm" v:prompt="" v:val="VT0(0):5"/>
				<v:ud v:nameU="TemplateParmHgt" v:prompt="" v:val="VT0(0):1"/>
				<v:ud v:nameU="StereoType" v:prompt="" v:val="VT0(0):5"/>
				<v:ud v:nameU="StereoTypeHgt" v:prompt="" v:val="VT0(0.22227273084852):1"/>
				<v:ud v:nameU="TextOffset" v:prompt="" v:val="VT0(0):26"/>
				<v:ud v:nameU="WidthMin" v:prompt="" v:val="VT0(0):26"/>
				<v:ud v:nameU="EntityName" v:prompt="" v:val="VT4(ClassName)"/>
				<v:ud v:nameU="HdrHgt" v:prompt="" v:val="VT0(0.43616263699002):1"/>
				<v:ud v:nameU="BackGrnd" v:prompt="" v:val="VT5(#f2f2f2)"/>
				<v:ud v:nameU="BackGrndLine" v:prompt="" v:val="VT0(0):26"/>
				<v:ud v:nameU="Test" v:prompt="" v:val="VT0(0):5"/>
				<v:ud v:nameU="visVersion" v:prompt="" v:val="VT0(15):26"/>
				<v:ud v:nameU="WidthMin" v:prompt="" v:val="VT0(1.028739918617):1"/>
				<v:ud v:nameU="EntityName" v:prompt="" v:val="VT4(LEDSwitch)"/>
				<v:ud v:nameU="BackGrndLine" v:prompt="" v:val="VT5(#696969)"/>
			</v:userDefs>
			<title>Class.75</title>
			<desc>LEDSwitch</desc>
			<g id="shape76-62" v:mID="76" v:groupContext="shape">
				<title>Sheet.76</title>
				<v:userDefs>
					<v:ud v:nameU="DOPS" v:prompt="" v:val="VT0(1):27"/>
					<v:ud v:nameU="HdrHgt" v:prompt="" v:val="VT0(0.43616263699002):1"/>
					<v:ud v:nameU="EmblOffset" v:prompt="" v:val="VT0(0):26"/>
					<v:ud v:nameU="Spacer" v:prompt="" v:val="VT0(0):26"/>
				</v:userDefs>
				<path d="M0 223.6 L102.05 223.6 L102.05 191.09 L0 191.09 L0 223.6 Z" class="st1"/>
			</g>
			<g id="shape77-64" v:mID="77" v:groupContext="shape" transform="translate(0,-32.5076)">
				<title>Sheet.77</title>
				<v:userDefs>
					<v:ud v:nameU="msvStructureType" v:prompt="" v:val="VT4(Heading)"/>
					<v:ud v:nameU="msvSDContainerHeadingEdge" v:prompt="" v:val="VT4(Bottom)"/>
					<v:ud v:nameU="StereoType" v:prompt="" v:val="VT0(0):5"/>
					<v:ud v:nameU="StereoTypeHgt" v:prompt="" v:val="VT0(0.22227273084852):1"/>
					<v:ud v:nameU="TemplateParm" v:prompt="" v:val="VT0(0):5"/>
					<v:ud v:nameU="TemplateParmHgt" v:prompt="" v:val="VT0(0):1"/>
					<v:ud v:nameU="EmblOffset" v:prompt="" v:val="VT0(0):26"/>
					<v:ud v:nameU="Spacer" v:prompt="" v:val="VT0(0):26"/>
					<v:ud v:nameU="UsableHgt" v:prompt="" v:val="VT0(0.43616263699002):1"/>
					<v:ud v:nameU="UmlRole" v:prompt="" v:val="VT4(ClassName)"/>
					<v:ud v:nameU="UmlRole" v:prompt="" v:val="VT4(LEDSwitch)"/>
				</v:userDefs>
				<path d="M0 223.6 L102.05 223.6 L102.05 192.2 L0 192.2 L0 223.6 Z" class="st2"/>
			</g>
			<g id="shape79-66" v:mID="79" v:groupContext="shape" transform="translate(93.5433,-63.9113)">
				<title>Sheet.79</title>
				<desc>parameter</desc>
				<v:userDefs>
					<v:ud v:nameU="TemplateParm" v:prompt="" v:val="VT0(0):5"/>
					<v:ud v:nameU="DOPS" v:prompt="" v:val="VT0(1):27"/>
					<v:ud v:nameU="Rounding" v:prompt="" v:val="VT0(0.11811023622047):24"/>
					<v:ud v:nameU="UmlRole" v:prompt="" v:val="VT4(parameter)"/>
				</v:userDefs>
				<v:textBlock v:margins="rect(2,4,2,4)" v:tabSpace="42.5197"/>
				<v:textRect cx="0" cy="223.602" width="0" height="0"/>
			</g>
			<g id="shape75-67" v:mID="75" v:groupContext="groupContent">
				<v:textBlock v:margins="rect(8.5,4,8.5,4)" v:tabSpace="42.5197"/>
				<v:textRect cx="51.0236" cy="175.393" width="102.05" height="31.4037"/>
				<text x="4" y="178.99" class="st3" v:langID="1045"><v:paragraph/><v:tabList/>LEDSwitch</text>			</g>
		</g>
		<g id="shape80-69" v:mID="80" v:groupContext="shape" transform="translate(254.951,-72.7402)">
			<title>Separator.80</title>
			<v:userDefs>
				<v:ud v:nameU="msvShapeCategories" v:prompt="" v:val="VT4(Separator)"/>
				<v:ud v:nameU="ContainerMargin" v:prompt="" v:val="VT0(0):26"/>
				<v:ud v:nameU="ItemIndex" v:prompt="" v:val="VT0(-1):26"/>
				<v:ud v:nameU="visVersion" v:prompt="" v:val="VT0(15):26"/>
				<v:ud v:nameU="ContainerMargin" v:prompt="" v:val="VT0(0.039370078740157):24"/>
				<v:ud v:nameU="ItemIndex" v:prompt="" v:val="VT0(1):26"/>
			</v:userDefs>
			<path d="M0 222.19 L96.38 222.19 L0 222.19 Z" class="st6"/>
			<path d="M0 222.19 L96.38 222.19" class="st7"/>
		</g>
		<g id="shape81-72" v:mID="81" v:groupContext="shape" transform="translate(254.951,-48.7365)">
			<title>Member.81</title>
			<desc>+ On() + Off()</desc>
			<v:userDefs>
				<v:ud v:nameU="msvShapeCategories" v:prompt="" v:val="VT4(Member)"/>
				<v:ud v:nameU="MemberName" v:prompt="" v:val="VT4(-memberName)"/>
				<v:ud v:nameU="ContainerMargin" v:prompt="" v:val="VT0(0):26"/>
				<v:ud v:nameU="WidthMin" v:prompt="" v:val="VT0(0):26"/>
				<v:ud v:nameU="UserWidth" v:prompt="" v:val="VT0(1.8897637795276):24"/>
				<v:ud v:nameU="DarkerColor" v:prompt="" v:val="VT0(0):26"/>
				<v:ud v:nameU="DarkColor" v:prompt="" v:val="VT0(0):26"/>
				<v:ud v:nameU="BackFillColor" v:prompt="" v:val="VT0(1):26"/>
				<v:ud v:nameU="BackLineColor" v:prompt="" v:val="VT0(0):26"/>
				<v:ud v:nameU="IsInstance" v:prompt="" v:val="VT0(0):5"/>
				<v:ud v:nameU="visVersion" v:prompt="" v:val="VT0(15):26"/>
				<v:ud v:nameU="MemberName" v:prompt="" v:val="VT4(+ On()&#10;+ Off())"/>
				<v:ud v:nameU="ContainerMargin" v:prompt="" v:val="VT0(0.039370078740157):24"/>
				<v:ud v:nameU="WidthMin" v:prompt="" v:val="VT0(0):26"/>
				<v:ud v:nameU="DarkerColor" v:prompt="" v:val="VT5(#696969)"/>
				<v:ud v:nameU="DarkColor" v:prompt="" v:val="VT5(#696969)"/>
				<v:ud v:nameU="BackFillColor" v:prompt="" v:val="VT5(#f2f2f2)"/>
				<v:ud v:nameU="BackLineColor" v:prompt="" v:val="VT5(#696969)"/>
				<v:ud v:nameU="IsInstance" v:prompt="" v:val="VT0(1):5"/>
			</v:userDefs>
			<v:textBlock v:margins="rect(0,0,0,8.50394)" v:tabSpace="42.5197"/>
			<v:textRect cx="48.189" cy="211.601" width="96.38" height="24.0037"/>
			<rect x="0" y="199.599" width="96.378" height="24.0037" class="st4"/>
			<rect x="0" y="199.599" width="96.378" height="24.0037" class="st5"/>
			<text x="8.5" y="208.6" class="st8" v:langID="1045"><v:paragraph/><v:tabList/>+ On()<v:newlineChar/><tspan x="8.5"
						dy="1.2em" class="st11">+ </tspan>Off()</text>		</g>
		<g id="group86-77" transform="translate(296.053,-109.813)" v:mID="86" v:groupContext="group" v:layerMember="0">
			<v:userDefs>
				<v:ud v:nameU="visVersion" v:prompt="" v:val="VT0(15):26"/>
				<v:ud v:nameU="RelationshipName" v:prompt="" v:val="VT4()"/>
				<v:ud v:nameU="ShowMulti" v:prompt="" v:val="VT0(0):26"/>
				<v:ud v:nameU="Identifying" v:prompt="" v:val="VT0(1):26"/>
				<v:ud v:nameU="DXBegin" v:prompt="" v:val="VT0(0):1"/>
				<v:ud v:nameU="DYBegin" v:prompt="" v:val="VT0(-0.029527559055118):1"/>
				<v:ud v:nameU="DXEnd" v:prompt="" v:val="VT0(0.029527559055118):1"/>
				<v:ud v:nameU="DYEnd" v:prompt="" v:val="VT0(0):1"/>
				<v:ud v:nameU="BeginAngle" v:prompt="" v:val="VT0(-1.5707963267949):32"/>
				<v:ud v:nameU="EndAngle" v:prompt="" v:val="VT0(0):32"/>
				<v:ud v:nameU="DYBegin" v:prompt="" v:val="VT0(0.010130796009013):1"/>
				<v:ud v:nameU="DXEnd" v:prompt="" v:val="VT0(-8.8817841970013E-016):1"/>
				<v:ud v:nameU="DYEnd" v:prompt="" v:val="VT0(0.010130796009014):1"/>
				<v:ud v:nameU="BeginAngle" v:prompt="" v:val="VT0(1.570796326795):32"/>
				<v:ud v:nameU="EndAngle" v:prompt="" v:val="VT0(1.570796326795):32"/>
			</v:userDefs>
			<title>Inheritance</title>
			<g id="shape86-78" v:mID="86" v:groupContext="groupContent" v:layerMember="0">
				<path d="M7.09 223.6 L7.09 185.53" class="st14"/>
			</g>
		</g>
		<g id="group91-84" transform="translate(354.163,-70.7709)" v:mID="91" v:groupContext="group" v:layerMember="0">
			<v:userDefs>
				<v:ud v:nameU="visVersion" v:prompt="" v:val="VT0(15):26"/>
				<v:ud v:nameU="RelationshipName" v:prompt="" v:val="VT4()"/>
				<v:ud v:nameU="ShowMulti" v:prompt="" v:val="VT0(0):26"/>
				<v:ud v:nameU="Identifying" v:prompt="" v:val="VT0(1):26"/>
				<v:ud v:nameU="DXBegin" v:prompt="" v:val="VT0(0):1"/>
				<v:ud v:nameU="DYBegin" v:prompt="" v:val="VT0(-0.029527559055118):1"/>
				<v:ud v:nameU="DXEnd" v:prompt="" v:val="VT0(0.029527559055118):1"/>
				<v:ud v:nameU="DYEnd" v:prompt="" v:val="VT0(0):1"/>
				<v:ud v:nameU="BeginAngle" v:prompt="" v:val="VT0(-1.5707963267949):32"/>
				<v:ud v:nameU="EndAngle" v:prompt="" v:val="VT0(0):32"/>
				<v:ud v:nameU="ShowMulti" v:prompt="" v:val="VT0(1):5"/>
				<v:ud v:nameU="DXBegin" v:prompt="" v:val="VT0(0.014616141813188):1"/>
				<v:ud v:nameU="DYBegin" v:prompt="" v:val="VT0(-3.885780586188E-014):1"/>
				<v:ud v:nameU="DXEnd" v:prompt="" v:val="VT0(0.01461614181319):1"/>
				<v:ud v:nameU="BeginAngle" v:prompt="" v:val="VT0(-2.6585542449252E-012):32"/>
				<v:ud v:nameU="EndAngle" v:prompt="" v:val="VT0(-2.6281707678401E-012):32"/>
			</v:userDefs>
			<title>Directed Association</title>
			<g id="shape94-85" v:mID="94" v:groupContext="shape" transform="translate(56.2504,-12.0976)">
				<title>Sheet.94</title>
				<desc>- l</desc>
				<v:userDefs>
					<v:ud v:nameU="EndAngle" v:prompt="" v:val="VT0(0):32"/>
					<v:ud v:nameU="Con2X" v:prompt="" v:val="VT0(0.95472440944882):1"/>
					<v:ud v:nameU="Con2Y" v:prompt="" v:val="VT0(-0.98425196850394):1"/>
					<v:ud v:nameU="EndAngle" v:prompt="" v:val="VT0(-2.6281707678401E-012):32"/>
					<v:ud v:nameU="Con2X" v:prompt="" v:val="VT0(0.95979331239941):1"/>
					<v:ud v:nameU="Con2Y" v:prompt="" v:val="VT0(0.098425196850394):1"/>
				</v:userDefs>
				<v:textBlock v:margins="rect(0,0,0,0)" v:tabSpace="42.5197"/>
				<v:textRect cx="3.92186" cy="218.801" width="7.85" height="9.60356"/>
				<rect v:rectContext="textBkgnd" x="1.00168" y="214.001" width="5.84006" height="9.59985" class="st15"/>
				<text x="1" y="221.2" class="st16" v:langID="1045"><v:paragraph v:horizAlign="1"/><v:tabList/>- l</text>			</g>
			<g id="shape91-88" v:mID="91" v:groupContext="groupContent" v:layerMember="0">
				<path d="M0 216.52 L70.16 216.52" class="st12"/>
			</g>
		</g>
		<g id="group101-93" transform="translate(310.935,-1.25)" v:mID="101" v:groupContext="group">
			<v:userDefs>
				<v:ud v:nameU="visVersion" v:prompt="" v:val="VT0(15):26"/>
				<v:ud v:nameU="msvStructureType" v:prompt="" v:val="VT4(Callout)"/>
				<v:ud v:nameU="msvSDTargetIntersection" v:prompt=""/>
				<v:ud v:nameU="msvSDCalloutNoHighlight" v:prompt="" v:val="VT0(0):5"/>
				<v:ud v:nameU="msvShapeCategories" v:prompt="" v:val="VT0(0):26"/>
				<v:ud v:nameU="Side" v:prompt="" v:val="VT0(4):26"/>
				<v:ud v:nameU="LeaderEnd" v:prompt="" v:val="VT7(PNT(6.25MM,-0.28346456692913)):40"/>
				<v:ud v:nameU="WHBoxIntersection" v:prompt="" v:val="VT7(PNT(10.096153846154MM,0)):40"/>
				<v:ud v:nameU="FoldSize" v:prompt="" v:val="VT0(0.11811023622047):24"/>
				<v:ud v:nameU="msvSDTargetIntersection" v:prompt="" v:val="VT7(PNT(0.1076270801222,0.65953537227872)):40"/>
				<v:ud v:nameU="Side" v:prompt="" v:val="VT0(3):26"/>
				<v:ud v:nameU="LeaderEnd" v:prompt="" v:val="VT7(PNT(0.1076270801222,0.65953537227872)):40"/>
				<v:ud v:nameU="WHBoxIntersection" v:prompt="" v:val="VT7(PNT(0,8MM)):40"/>
			</v:userDefs>
			<title>Note</title>
			<desc>l.SetRGB(255, 255, 255)</desc>
			<g id="shape101-94" v:mID="101" v:groupContext="groupContent">
				<v:textBlock v:margins="rect(4,4,4,4)" v:tabSpace="42.5197"/>
				<v:textRect cx="54.5669" cy="212.264" width="109.14" height="17.6036"/>
				<path d="M0 223.6 L109.13 223.6 L109.13 209.43 L100.63 200.93 L0 200.93 L0 223.6 Z" class="st17"/>
				<path d="M0 200.93 L7.75 176.12" class="st18"/>
				<path d="M0 223.6 L109.13 223.6 L109.13 209.43 L100.63 200.93 L0 200.93 L0 223.6" class="st18"/>
				<text x="4" y="214.66" class="st19" v:langID="1045"><v:paragraph/><v:tabList/>l.SetRGB(255, 255, 255)</text>			</g>
			<g id="shape102-99" v:mID="102" v:groupContext="shape" transform="translate(100.63,-14.1732)">
				<title>Sheet.102</title>
				<v:userDefs>
					<v:ud v:nameU="FoldSize" v:prompt="" v:val="VT0(0.11811023622047):24"/>
				</v:userDefs>
				<path d="M0 223.6 L8.5 223.6 L8.5 224.45 L8.5 223.6 L0 215.1 L-0.85 215.1 L0 215.1 L0 223.6 Z" class="st20"/>
			</g>
		</g>
	</g>
</svg>
