<?xml version="1.0" encoding="UTF-8" standalone="no"?>
<!-- Created with Inkscape (http://www.inkscape.org/) -->

<svg
   xmlns:dc="http://purl.org/dc/elements/1.1/"
   xmlns:cc="http://creativecommons.org/ns#"
   xmlns:rdf="http://www.w3.org/1999/02/22-rdf-syntax-ns#"
   xmlns:svg="http://www.w3.org/2000/svg"
   xmlns="http://www.w3.org/2000/svg"
   xmlns:sodipodi="http://sodipodi.sourceforge.net/DTD/sodipodi-0.dtd"
   xmlns:inkscape="http://www.inkscape.org/namespaces/inkscape"
   width="628.8009"
   height="239.69249"
   id="svg4345"
   version="1.1"
   inkscape:version="0.48.4 r9939"
   sodipodi:docname="New document 18">
  <defs
     id="defs3" />
  <sodipodi:namedview
     inkscape:document-units="mm"
     id="base"
     pagecolor="#ffffff"
     bordercolor="#666666"
     borderopacity="1.0"
     inkscape:pageopacity="0.0"
     inkscape:pageshadow="2"
     inkscape:zoom="0.75566449"
     inkscape:cx="692.33578"
     inkscape:cy="-206.52303"
     inkscape:current-layer="layer1"
     showgrid="false"
     units="mm"
     fit-margin-top="0"
     fit-margin-left="0"
     fit-margin-right="0"
     fit-margin-bottom="0"
     inkscape:window-width="1920"
     inkscape:window-height="1178"
     inkscape:window-x="-8"
     inkscape:window-y="-8"
     inkscape:window-maximized="1" />
  <metadata
     id="metadata4">
    <rdf:RDF>
      <cc:Work
         rdf:about="">
        <dc:format>image/svg+xml</dc:format>
        <dc:type
           rdf:resource="http://purl.org/dc/dcmitype/StillImage" />
        <dc:title></dc:title>
      </cc:Work>
    </rdf:RDF>
  </metadata>
  <g
     inkscape:label="Layer 1"
     inkscape:groupmode="layer"
     id="layer1"
     transform="translate(-59.092793,-143.36593)">
    <g
       id="g4355"
       transform="matrix(0.61165546,0,0,0.61165546,56.665285,142.60136)">
      <path
         id="path4357"
         d="m 4.6057454,64.714625 0,54.097995 306.8675446,0 0,-54.097995 -306.8675446,0 z"
         style="fill:#f2f2f2;fill-opacity:1;fill-rule:evenodd;stroke:none"
         inkscape:connector-curvature="0" />
      <path
         id="path4359"
         d="m 4.6057454,118.81262 306.8675446,0 0,-54.097995 -306.8675446,0 0,54.097995 z"
         style="fill:none;stroke:#4f88bb;stroke-width:1.24901569px;stroke-linecap:square;stroke-linejoin:miter;stroke-miterlimit:4;stroke-opacity:1;stroke-dasharray:none"
         inkscape:connector-curvature="0" />
      <path
         id="path4361"
         d="m 4.6057454,64.714625 306.8675446,0 0,-52.302532 -306.8675446,0 0,52.302532 z"
         style="fill:none;stroke:#4f88bb;stroke-width:1.24901569px;stroke-linecap:square;stroke-linejoin:miter;stroke-miterlimit:4;stroke-opacity:1;stroke-dasharray:none"
         inkscape:connector-curvature="0" />
      <text
         id="text4363"
         style="font-size:19.98425102px;font-style:normal;font-weight:normal;text-align:start;text-anchor:start;fill:#4f88bb;font-family:Calibri"
         y="45.144043"
         x="11.865725"
         xml:space="preserve">Timer</text>
      <path
         id="path4365"
         d="m 9.3676177,91.178145 2.4980313,0 0,1.249016 -2.4980313,0 0,-1.249016 z m 3.7470473,0 2.498031,0 0,1.249016 -2.498031,0 0,-1.249016 z m 3.747047,0 2.498031,0 0,1.249016 -2.498031,0 0,-1.249016 z m 3.747047,0 2.498031,0 0,1.249016 -2.498031,0 0,-1.249016 z m 3.747047,0 2.498031,0 0,1.249016 -2.498031,0 0,-1.249016 z m 3.747047,0 2.498031,0 0,1.249016 -2.498031,0 0,-1.249016 z m 3.747047,0 2.498031,0 0,1.249016 -2.498031,0 0,-1.249016 z m 3.747047,0 2.498032,0 0,1.249016 -2.498032,0 0,-1.249016 z m 3.747047,0 2.498032,0 0,1.249016 -2.498032,0 0,-1.249016 z m 3.747047,0 2.498032,0 0,1.249016 -2.498032,0 0,-1.249016 z m 3.747047,0 2.498032,0 0,1.249016 -2.498032,0 0,-1.249016 z m 3.747047,0 2.498032,0 0,1.249016 -2.498032,0 0,-1.249016 z m 3.747047,0 2.498032,0 0,1.249016 -2.498032,0 0,-1.249016 z m 3.747048,0 2.498031,0 0,1.249016 -2.498031,0 0,-1.249016 z m 3.747047,0 2.498031,0 0,1.249016 -2.498031,0 0,-1.249016 z m 3.747047,0 2.498031,0 0,1.249016 -2.498031,0 0,-1.249016 z m 3.747047,0 2.498031,0 0,1.249016 -2.498031,0 0,-1.249016 z m 3.747047,0 2.498031,0 0,1.249016 -2.498031,0 0,-1.249016 z m 3.747047,0 2.576095,0 0,1.249016 -2.576095,0 0,-1.249016 z m 3.82511,0 2.498032,0 0,1.249016 -2.498032,0 0,-1.249016 z m 3.747047,0 2.498032,0 0,1.249016 -2.498032,0 0,-1.249016 z m 3.747048,0 2.498031,0 0,1.249016 -2.498031,0 0,-1.249016 z m 3.747047,0 2.498031,0 0,1.249016 -2.498031,0 0,-1.249016 z m 3.747047,0 2.498031,0 0,1.249016 -2.498031,0 0,-1.249016 z m 3.747047,0 2.498029,0 0,1.249016 -2.498029,0 0,-1.249016 z m 3.747049,0 2.49803,0 0,1.249016 -2.49803,0 0,-1.249016 z m 3.74704,0 2.49804,0 0,1.249016 -2.49804,0 0,-1.249016 z m 3.74705,0 2.49803,0 0,1.249016 -2.49803,0 0,-1.249016 z m 3.74705,0 2.49803,0 0,1.249016 -2.49803,0 0,-1.249016 z m 3.74705,0 2.49803,0 0,1.249016 -2.49803,0 0,-1.249016 z m 3.74704,0 2.49803,0 0,1.249016 -2.49803,0 0,-1.249016 z m 3.74705,0 2.49803,0 0,1.249016 -2.49803,0 0,-1.249016 z m 3.74705,0 2.49803,0 0,1.249016 -2.49803,0 0,-1.249016 z m 3.74704,0 2.49804,0 0,1.249016 -2.49804,0 0,-1.249016 z m 3.74705,0 2.49803,0 0,1.249016 -2.49803,0 0,-1.249016 z m 3.74705,0 2.49803,0 0,1.249016 -2.49803,0 0,-1.249016 z m 3.74705,0 2.49803,0 0,1.249016 -2.49803,0 0,-1.249016 z m 3.74704,0 2.49803,0 0,1.249016 -2.49803,0 0,-1.249016 z m 3.74705,0 2.49803,0 0,1.249016 -2.49803,0 0,-1.249016 z m 3.74705,0 2.57609,0 0,1.249016 -2.57609,0 0,-1.249016 z m 3.82511,0 2.49803,0 0,1.249016 -2.49803,0 0,-1.249016 z m 3.74704,0 2.49804,0 0,1.249016 -2.49804,0 0,-1.249016 z m 3.74705,0 2.49803,0 0,1.249016 -2.49803,0 0,-1.249016 z m 3.74705,0 2.49803,0 0,1.249016 -2.49803,0 0,-1.249016 z m 3.74705,0 2.49803,0 0,1.249016 -2.49803,0 0,-1.249016 z m 3.74704,0 2.49803,0 0,1.249016 -2.49803,0 0,-1.249016 z m 3.74705,0 2.49803,0 0,1.249016 -2.49803,0 0,-1.249016 z m 3.74705,0 2.49803,0 0,1.249016 -2.49803,0 0,-1.249016 z m 3.74704,0 2.49804,0 0,1.249016 -2.49804,0 0,-1.249016 z m 3.74705,0 2.49803,0 0,1.249016 -2.49803,0 0,-1.249016 z m 3.74705,0 2.49803,0 0,1.249016 -2.49803,0 0,-1.249016 z m 3.74705,0 2.49803,0 0,1.249016 -2.49803,0 0,-1.249016 z m 3.74704,0 2.49803,0 0,1.249016 -2.49803,0 0,-1.249016 z m 3.74705,0 2.49803,0 0,1.249016 -2.49803,0 0,-1.249016 z m 3.74705,0 2.49803,0 0,1.249016 -2.49803,0 0,-1.249016 z m 3.74704,0 2.49803,0 0,1.249016 -2.49803,0 0,-1.249016 z m 3.74705,0 2.49803,0 0,1.249016 -2.49803,0 0,-1.249016 z m 3.74705,0 2.49803,0 0,1.249016 -2.49803,0 0,-1.249016 z m 3.74704,0 2.49804,0 0,1.249016 -2.49804,0 0,-1.249016 z m 3.74705,0 2.49803,0 0,1.249016 -2.49803,0 0,-1.249016 z m 3.74705,0 2.57609,0 0,1.249016 -2.57609,0 0,-1.249016 z m 3.82511,0 2.49803,0 0,1.249016 -2.49803,0 0,-1.249016 z m 3.74705,0 2.49803,0 0,1.249016 -2.49803,0 0,-1.249016 z m 3.74704,0 2.49803,0 0,1.249016 -2.49803,0 0,-1.249016 z m 3.74705,0 2.49803,0 0,1.249016 -2.49803,0 0,-1.249016 z m 3.74705,0 2.49803,0 0,1.249016 -2.49803,0 0,-1.249016 z m 3.74704,0 2.49804,0 0,1.249016 -2.49804,0 0,-1.249016 z m 3.74705,0 2.49803,0 0,1.249016 -2.49803,0 0,-1.249016 z m 3.74705,0 2.49803,0 0,1.249016 -2.49803,0 0,-1.249016 z m 3.74705,0 2.49803,0 0,1.249016 -2.49803,0 0,-1.249016 z m 3.74704,0 2.49803,0 0,1.249016 -2.49803,0 0,-1.249016 z m 3.74705,0 2.49803,0 0,1.249016 -2.49803,0 0,-1.249016 z m 3.74705,0 2.49803,0 0,1.249016 -2.49803,0 0,-1.249016 z m 3.74704,0 2.49804,0 0,1.249016 -2.49804,0 0,-1.249016 z m 3.74705,0 2.49803,0 0,1.249016 -2.49803,0 0,-1.249016 z m 3.74705,0 2.49803,0 0,1.249016 -2.49803,0 0,-1.249016 z m 3.74705,0 2.49803,0 0,1.249016 -2.49803,0 0,-1.249016 z m 3.74704,0 2.49803,0 0,1.249016 -2.49803,0 0,-1.249016 z m 3.74705,0 2.49803,0 0,1.249016 -2.49803,0 0,-1.249016 z m 3.74705,0 1.09289,0 0,1.249016 -1.09289,0 0,-1.249016 z"
         style="fill:#c8c8c8;fill-opacity:1;fill-rule:nonzero;stroke:#c8c8c8;stroke-width:0.07806348px;stroke-linecap:butt;stroke-linejoin:round;stroke-opacity:1;stroke-dasharray:none"
         inkscape:connector-curvature="0" />
      <path
         id="path4367"
         d="m 370.48928,74.316433 0,54.097997 306.78948,0 0,-54.097997 -306.78948,0 z"
         style="fill:#f2f2f2;fill-opacity:1;fill-rule:evenodd;stroke:none"
         inkscape:connector-curvature="0" />
      <path
         id="path4369"
         d="m 370.48928,128.41443 306.78948,0 0,-54.097997 -306.78948,0 0,54.097997 z"
         style="fill:none;stroke:#4f88bb;stroke-width:1.24901569px;stroke-linecap:square;stroke-linejoin:miter;stroke-miterlimit:4;stroke-opacity:1;stroke-dasharray:none"
         inkscape:connector-curvature="0" />
      <path
         id="path4371"
         d="m 370.48928,74.316433 306.78948,0 0,-71.5061477 -306.78948,0 0,71.5061477 z"
         style="fill:none;stroke:#4f88bb;stroke-width:1.24901569px;stroke-linecap:square;stroke-linejoin:miter;stroke-miterlimit:4;stroke-opacity:1;stroke-dasharray:none"
         inkscape:connector-curvature="0" />
      <text
         id="text4373"
         style="font-size:16.2372036px;font-style:normal;font-weight:normal;text-align:start;text-anchor:start;fill:#4f88bb;font-family:Calibri"
         y="25.070267"
         x="377.71915"
         xml:space="preserve">&lt;&lt;</text>
      <text
         id="text4375"
         style="font-size:16.2372036px;font-style:normal;font-weight:normal;text-align:start;text-anchor:start;fill:#4f88bb;font-family:Calibri"
         y="25.070267"
         x="394.30734"
         xml:space="preserve">Interface</text>
      <text
         id="text4377"
         style="font-size:16.2372036px;font-style:normal;font-weight:normal;text-align:start;text-anchor:start;fill:#4f88bb;font-family:Calibri"
         y="25.070267"
         x="455.31119"
         xml:space="preserve">&gt;&gt;</text>
      <text
         id="text4379"
         style="font-size:19.98425102px;font-style:normal;font-weight:normal;text-align:start;text-anchor:start;fill:#4f88bb;font-family:Calibri"
         y="54.719814"
         x="377.71915"
         xml:space="preserve">TimerClient</text>
      <path
         id="path4381"
         d="m 375.17309,100.70189 2.49803,0 0,1.24902 -2.49803,0 0,-1.24902 z m 3.74704,0 2.49804,0 0,1.24902 -2.49804,0 0,-1.24902 z m 3.74705,0 2.49803,0 0,1.24902 -2.49803,0 0,-1.24902 z m 3.74705,0 2.49803,0 0,1.24902 -2.49803,0 0,-1.24902 z m 3.74705,0 2.49803,0 0,1.24902 -2.49803,0 0,-1.24902 z m 3.74704,0 2.49803,0 0,1.24902 -2.49803,0 0,-1.24902 z m 3.82511,0 2.49803,0 0,1.24902 -2.49803,0 0,-1.24902 z m 3.74705,0 2.49803,0 0,1.24902 -2.49803,0 0,-1.24902 z m 3.74705,0 2.49803,0 0,1.24902 -2.49803,0 0,-1.24902 z m 3.74704,0 2.49804,0 0,1.24902 -2.49804,0 0,-1.24902 z m 3.74705,0 2.49803,0 0,1.24902 -2.49803,0 0,-1.24902 z m 3.74705,0 2.49803,0 0,1.24902 -2.49803,0 0,-1.24902 z m 3.74705,0 2.49803,0 0,1.24902 -2.49803,0 0,-1.24902 z m 3.74704,0 2.49803,0 0,1.24902 -2.49803,0 0,-1.24902 z m 3.74705,0 2.49803,0 0,1.24902 -2.49803,0 0,-1.24902 z m 3.74705,0 2.49803,0 0,1.24902 -2.49803,0 0,-1.24902 z m 3.74704,0 2.49804,0 0,1.24902 -2.49804,0 0,-1.24902 z m 3.74705,0 2.49803,0 0,1.24902 -2.49803,0 0,-1.24902 z m 3.74705,0 2.49803,0 0,1.24902 -2.49803,0 0,-1.24902 z m 3.74705,0 2.49803,0 0,1.24902 -2.49803,0 0,-1.24902 z m 3.74704,0 2.49803,0 0,1.24902 -2.49803,0 0,-1.24902 z m 3.74705,0 2.49803,0 0,1.24902 -2.49803,0 0,-1.24902 z m 3.74705,0 2.49803,0 0,1.24902 -2.49803,0 0,-1.24902 z m 3.74704,0 2.49803,0 0,1.24902 -2.49803,0 0,-1.24902 z m 3.74705,0 2.49803,0 0,1.24902 -2.49803,0 0,-1.24902 z m 3.74705,0 2.49803,0 0,1.24902 -2.49803,0 0,-1.24902 z m 3.74704,0 2.49804,0 0,1.24902 -2.49804,0 0,-1.24902 z m 3.82512,0 2.49803,0 0,1.24902 -2.49803,0 0,-1.24902 z m 3.74704,0 2.49803,0 0,1.24902 -2.49803,0 0,-1.24902 z m 3.74705,0 2.49803,0 0,1.24902 -2.49803,0 0,-1.24902 z m 3.74705,0 2.49803,0 0,1.24902 -2.49803,0 0,-1.24902 z m 3.74704,0 2.49803,0 0,1.24902 -2.49803,0 0,-1.24902 z m 3.74705,0 2.49803,0 0,1.24902 -2.49803,0 0,-1.24902 z m 3.74705,0 2.49803,0 0,1.24902 -2.49803,0 0,-1.24902 z m 3.74704,0 2.49804,0 0,1.24902 -2.49804,0 0,-1.24902 z m 3.74705,0 2.49803,0 0,1.24902 -2.49803,0 0,-1.24902 z m 3.74705,0 2.49803,0 0,1.24902 -2.49803,0 0,-1.24902 z m 3.74705,0 2.49803,0 0,1.24902 -2.49803,0 0,-1.24902 z m 3.74704,0 2.49803,0 0,1.24902 -2.49803,0 0,-1.24902 z m 3.74705,0 2.49803,0 0,1.24902 -2.49803,0 0,-1.24902 z m 3.74705,0 2.49803,0 0,1.24902 -2.49803,0 0,-1.24902 z m 3.74704,0 2.49804,0 0,1.24902 -2.49804,0 0,-1.24902 z m 3.74705,0 2.49803,0 0,1.24902 -2.49803,0 0,-1.24902 z m 3.74705,0 2.49803,0 0,1.24902 -2.49803,0 0,-1.24902 z m 3.74705,0 2.49803,0 0,1.24902 -2.49803,0 0,-1.24902 z m 3.74704,0 2.49803,0 0,1.24902 -2.49803,0 0,-1.24902 z m 3.74705,0 2.49803,0 0,1.24902 -2.49803,0 0,-1.24902 z m 3.74705,0 2.57609,0 0,1.24902 -2.57609,0 0,-1.24902 z m 3.82511,0 2.49803,0 0,1.24902 -2.49803,0 0,-1.24902 z m 3.74704,0 2.49804,0 0,1.24902 -2.49804,0 0,-1.24902 z m 3.74705,0 2.49803,0 0,1.24902 -2.49803,0 0,-1.24902 z m 3.74705,0 2.49803,0 0,1.24902 -2.49803,0 0,-1.24902 z m 3.74705,0 2.49803,0 0,1.24902 -2.49803,0 0,-1.24902 z m 3.74704,0 2.49803,0 0,1.24902 -2.49803,0 0,-1.24902 z m 3.74705,0 2.49803,0 0,1.24902 -2.49803,0 0,-1.24902 z m 3.74705,0 2.49803,0 0,1.24902 -2.49803,0 0,-1.24902 z m 3.74704,0 2.49804,0 0,1.24902 -2.49804,0 0,-1.24902 z m 3.74705,0 2.49803,0 0,1.24902 -2.49803,0 0,-1.24902 z m 3.74705,0 2.49803,0 0,1.24902 -2.49803,0 0,-1.24902 z m 3.74704,0 2.49804,0 0,1.24902 -2.49804,0 0,-1.24902 z m 3.74705,0 2.49803,0 0,1.24902 -2.49803,0 0,-1.24902 z m 3.74705,0 2.49803,0 0,1.24902 -2.49803,0 0,-1.24902 z m 3.74705,0 2.49803,0 0,1.24902 -2.49803,0 0,-1.24902 z m 3.74704,0 2.49803,0 0,1.24902 -2.49803,0 0,-1.24902 z m 3.74705,0 2.49803,0 0,1.24902 -2.49803,0 0,-1.24902 z m 3.74705,0 2.49803,0 0,1.24902 -2.49803,0 0,-1.24902 z m 3.74704,0 2.49804,0 0,1.24902 -2.49804,0 0,-1.24902 z m 3.74705,0 2.49803,0 0,1.24902 -2.49803,0 0,-1.24902 z m 3.74705,0 2.57609,0 0,1.24902 -2.57609,0 0,-1.24902 z m 3.82511,0 2.49803,0 0,1.24902 -2.49803,0 0,-1.24902 z m 3.74705,0 2.49803,0 0,1.24902 -2.49803,0 0,-1.24902 z m 3.74704,0 2.49803,0 0,1.24902 -2.49803,0 0,-1.24902 z m 3.74705,0 2.49803,0 0,1.24902 -2.49803,0 0,-1.24902 z m 3.74705,0 2.49803,0 0,1.24902 -2.49803,0 0,-1.24902 z m 3.74704,0 2.49804,0 0,1.24902 -2.49804,0 0,-1.24902 z m 3.74705,0 2.49803,0 0,1.24902 -2.49803,0 0,-1.24902 z m 3.74705,0 2.49803,0 0,1.24902 -2.49803,0 0,-1.24902 z m 3.74705,0 2.49803,0 0,1.24902 -2.49803,0 0,-1.24902 z m 3.74704,0 2.49803,0 0,1.24902 -2.49803,0 0,-1.24902 z m 3.74705,0 1.09289,0 0,1.24902 -1.09289,0 0,-1.24902 z"
         style="fill:#c8c8c8;fill-opacity:1;fill-rule:nonzero;stroke:#c8c8c8;stroke-width:0.07806348px;stroke-linecap:butt;stroke-linejoin:round;stroke-opacity:1;stroke-dasharray:none"
         inkscape:connector-curvature="0" />
      <text
         id="text4383"
         style="font-size:16.2372036px;font-style:normal;font-weight:normal;text-align:start;text-anchor:start;fill:#4f88bb;font-family:Calibri"
         y="119.2902"
         x="389.94031"
         xml:space="preserve">+ </text>
      <text
         id="text4385"
         style="font-size:16.2372036px;font-style:normal;font-weight:normal;text-align:start;text-anchor:start;fill:#4f88bb;font-family:Calibri"
         y="119.2902"
         x="401.9993"
         xml:space="preserve">Timeout</text>
      <text
         id="text4387"
         style="font-size:16.2372036px;font-style:normal;font-weight:normal;text-align:start;text-anchor:start;fill:#4f88bb;font-family:Calibri"
         y="119.2902"
         x="458.63678"
         xml:space="preserve">()</text>
      <path
         id="path4389"
         d="m 339.6542,74.00418 0,15.92495 20.06232,0 0,-15.92495 -20.06232,0 z"
         style="fill:#ffffff;fill-opacity:1;fill-rule:evenodd;stroke:none"
         inkscape:connector-curvature="0" />
      <text
         id="text4391"
         style="font-size:13.73917294px;font-style:normal;font-weight:normal;text-align:start;text-anchor:start;fill:#5b9bd5;font-family:Calibri"
         y="86.552185"
         x="340.20355"
         xml:space="preserve">0</text>
      <text
         id="text4393"
         style="font-size:13.73917294px;font-style:normal;font-weight:normal;text-align:start;text-anchor:start;fill:#5b9bd5;font-family:Calibri"
         y="86.552185"
         x="346.95618"
         xml:space="preserve">..*</text>
      <path
         id="path4395"
         d="m 311.47329,65.651387 59.01599,0"
         style="fill:none;stroke:#5b9bd5;stroke-width:1.63933313px;stroke-linecap:round;stroke-linejoin:round;stroke-opacity:1;stroke-dasharray:none"
         inkscape:connector-curvature="0" />
      <path
         id="path4397"
         d="m 352.84693,71.506148 17.64235,-5.854761 -17.64235,-5.854761"
         style="fill:none;stroke:#5b9bd5;stroke-width:1.63933313px;stroke-linecap:round;stroke-linejoin:round;stroke-opacity:1;stroke-dasharray:none"
         inkscape:connector-curvature="0" />
      <path
         id="path4399"
         d="m 724.50716,54.176056 0,94.144554 306.86754,0 0,-94.144554 -306.86754,0 z"
         style="fill:#f2f2f2;fill-opacity:1;fill-rule:evenodd;stroke:none"
         inkscape:connector-curvature="0" />
      <path
         id="path4401"
         d="m 724.50716,148.32061 306.86754,0 0,-94.144554 -306.86754,0 0,94.144554 z"
         style="fill:none;stroke:#4f88bb;stroke-width:1.24901569px;stroke-linecap:square;stroke-linejoin:miter;stroke-miterlimit:4;stroke-opacity:1;stroke-dasharray:none"
         inkscape:connector-curvature="0" />
      <path
         id="path4403"
         d="m 724.50716,54.176056 306.86754,0 0,-52.3025325 -306.86754,0 0,52.3025325 z"
         style="fill:none;stroke:#4f88bb;stroke-width:1.24901569px;stroke-linecap:square;stroke-linejoin:miter;stroke-miterlimit:4;stroke-opacity:1;stroke-dasharray:none"
         inkscape:connector-curvature="0" />
      <text
         id="text4405"
         style="font-size:19.98425102px;font-style:normal;font-weight:normal;text-align:start;text-anchor:start;fill:#4f88bb;font-family:Calibri"
         y="34.642963"
         x="731.77081"
         xml:space="preserve">Door</text>
      <path
         id="path4407"
         d="m 729.26904,80.639575 2.49803,0 0,1.249016 -2.49803,0 0,-1.249016 z m 3.74704,0 2.49803,0 0,1.249016 -2.49803,0 0,-1.249016 z m 3.74705,0 2.49803,0 0,1.249016 -2.49803,0 0,-1.249016 z m 3.74705,0 2.49803,0 0,1.249016 -2.49803,0 0,-1.249016 z m 3.74704,0 2.49803,0 0,1.249016 -2.49803,0 0,-1.249016 z m 3.74705,0 2.49803,0 0,1.249016 -2.49803,0 0,-1.249016 z m 3.74705,0 2.49803,0 0,1.249016 -2.49803,0 0,-1.249016 z m 3.74704,0 2.49804,0 0,1.249016 -2.49804,0 0,-1.249016 z m 3.74705,0 2.49803,0 0,1.249016 -2.49803,0 0,-1.249016 z m 3.74705,0 2.49803,0 0,1.249016 -2.49803,0 0,-1.249016 z m 3.74705,0 2.49803,0 0,1.249016 -2.49803,0 0,-1.249016 z m 3.74704,0 2.49803,0 0,1.249016 -2.49803,0 0,-1.249016 z m 3.74705,0 2.49803,0 0,1.249016 -2.49803,0 0,-1.249016 z m 3.74705,0 2.49803,0 0,1.249016 -2.49803,0 0,-1.249016 z m 3.74704,0 2.49804,0 0,1.249016 -2.49804,0 0,-1.249016 z m 3.74705,0 2.49803,0 0,1.249016 -2.49803,0 0,-1.249016 z m 3.74705,0 2.49803,0 0,1.249016 -2.49803,0 0,-1.249016 z m 3.74705,0 2.49803,0 0,1.249016 -2.49803,0 0,-1.249016 z m 3.82511,0 2.49803,0 0,1.249016 -2.49803,0 0,-1.249016 z m 3.74704,0 2.49803,0 0,1.249016 -2.49803,0 0,-1.249016 z m 3.74705,0 2.49803,0 0,1.249016 -2.49803,0 0,-1.249016 z m 3.74705,0 2.49803,0 0,1.249016 -2.49803,0 0,-1.249016 z m 3.74704,0 2.49804,0 0,1.249016 -2.49804,0 0,-1.249016 z m 3.74705,0 2.49803,0 0,1.249016 -2.49803,0 0,-1.249016 z m 3.74705,0 2.49803,0 0,1.249016 -2.49803,0 0,-1.249016 z m 3.74705,0 2.49803,0 0,1.249016 -2.49803,0 0,-1.249016 z m 3.74704,0 2.49803,0 0,1.249016 -2.49803,0 0,-1.249016 z m 3.74705,0 2.49803,0 0,1.249016 -2.49803,0 0,-1.249016 z m 3.74705,0 2.49803,0 0,1.249016 -2.49803,0 0,-1.249016 z m 3.74704,0 2.49804,0 0,1.249016 -2.49804,0 0,-1.249016 z m 3.74705,0 2.49803,0 0,1.249016 -2.49803,0 0,-1.249016 z m 3.74705,0 2.49803,0 0,1.249016 -2.49803,0 0,-1.249016 z m 3.74704,0 2.49804,0 0,1.249016 -2.49804,0 0,-1.249016 z m 3.74705,0 2.49803,0 0,1.249016 -2.49803,0 0,-1.249016 z m 3.74705,0 2.49803,0 0,1.249016 -2.49803,0 0,-1.249016 z m 3.74705,0 2.49803,0 0,1.249016 -2.49803,0 0,-1.249016 z m 3.74704,0 2.49803,0 0,1.249016 -2.49803,0 0,-1.249016 z m 3.74705,0 2.49803,0 0,1.249016 -2.49803,0 0,-1.249016 z m 3.74705,0 2.57609,0 0,1.249016 -2.57609,0 0,-1.249016 z m 3.82511,0 2.49803,0 0,1.249016 -2.49803,0 0,-1.249016 z m 3.74704,0 2.49804,0 0,1.249016 -2.49804,0 0,-1.249016 z m 3.74705,0 2.49803,0 0,1.249016 -2.49803,0 0,-1.249016 z m 3.74705,0 2.49803,0 0,1.249016 -2.49803,0 0,-1.249016 z m 3.74705,0 2.49803,0 0,1.249016 -2.49803,0 0,-1.249016 z m 3.74704,0 2.49803,0 0,1.249016 -2.49803,0 0,-1.249016 z m 3.74705,0 2.49803,0 0,1.249016 -2.49803,0 0,-1.249016 z m 3.74705,0 2.49803,0 0,1.249016 -2.49803,0 0,-1.249016 z m 3.74704,0 2.49804,0 0,1.249016 -2.49804,0 0,-1.249016 z m 3.74705,0 2.49803,0 0,1.249016 -2.49803,0 0,-1.249016 z m 3.74705,0 2.49803,0 0,1.249016 -2.49803,0 0,-1.249016 z m 3.74705,0 2.49803,0 0,1.249016 -2.49803,0 0,-1.249016 z m 3.74704,0 2.49803,0 0,1.249016 -2.49803,0 0,-1.249016 z m 3.74705,0 2.49803,0 0,1.249016 -2.49803,0 0,-1.249016 z m 3.74705,0 2.49803,0 0,1.249016 -2.49803,0 0,-1.249016 z m 3.74704,0 2.49804,0 0,1.249016 -2.49804,0 0,-1.249016 z m 3.74705,0 2.49803,0 0,1.249016 -2.49803,0 0,-1.249016 z m 3.74705,0 2.49803,0 0,1.249016 -2.49803,0 0,-1.249016 z m 3.74705,0 2.49803,0 0,1.249016 -2.49803,0 0,-1.249016 z m 3.74704,0 2.49803,0 0,1.249016 -2.49803,0 0,-1.249016 z m 3.74705,0 2.57609,0 0,1.249016 -2.57609,0 0,-1.249016 z m 3.82511,0 2.49803,0 0,1.249016 -2.49803,0 0,-1.249016 z m 3.74705,0 2.49803,0 0,1.249016 -2.49803,0 0,-1.249016 z m 3.74704,0 2.49804,0 0,1.249016 -2.49804,0 0,-1.249016 z m 3.74705,0 2.49803,0 0,1.249016 -2.49803,0 0,-1.249016 z m 3.74705,0 2.49803,0 0,1.249016 -2.49803,0 0,-1.249016 z m 3.74705,0 2.49803,0 0,1.249016 -2.49803,0 0,-1.249016 z m 3.74704,0 2.49803,0 0,1.249016 -2.49803,0 0,-1.249016 z m 3.74705,0 2.49803,0 0,1.249016 -2.49803,0 0,-1.249016 z m 3.74705,0 2.49803,0 0,1.249016 -2.49803,0 0,-1.249016 z m 3.74704,0 2.49803,0 0,1.249016 -2.49803,0 0,-1.249016 z m 3.74705,0 2.49803,0 0,1.249016 -2.49803,0 0,-1.249016 z m 3.74705,0 2.49803,0 0,1.249016 -2.49803,0 0,-1.249016 z m 3.74704,0 2.49799,0 0,1.249016 -2.49799,0 0,-1.249016 z m 3.74709,0 2.498,0 0,1.249016 -2.498,0 0,-1.249016 z m 3.747,0 2.498,0 0,1.249016 -2.498,0 0,-1.249016 z m 3.7471,0 2.498,0 0,1.249016 -2.498,0 0,-1.249016 z m 3.747,0 2.498,0 0,1.249016 -2.498,0 0,-1.249016 z m 3.747,0 2.4981,0 0,1.249016 -2.4981,0 0,-1.249016 z m 3.7471,0 2.498,0 0,1.249016 -2.498,0 0,-1.249016 z m 3.747,0 1.0929,0 0,1.249016 -1.0929,0 0,-1.249016 z"
         style="fill:#c8c8c8;fill-opacity:1;fill-rule:nonzero;stroke:#c8c8c8;stroke-width:0.07806348px;stroke-linecap:butt;stroke-linejoin:round;stroke-opacity:1;stroke-dasharray:none"
         inkscape:connector-curvature="0" />
      <text
         id="text4409"
         style="font-size:16.2372036px;font-style:normal;font-weight:normal;text-align:start;text-anchor:start;fill:#4f88bb;font-family:Calibri"
         y="99.213364"
         x="743.992"
         xml:space="preserve">+ </text>
      <text
         id="text4411"
         style="font-size:16.2372036px;font-style:normal;font-weight:normal;text-align:start;text-anchor:start;fill:#4f88bb;font-family:Calibri"
         y="99.213364"
         x="756.05096"
         xml:space="preserve">Lock</text>
      <text
         id="text4413"
         style="font-size:16.2372036px;font-style:normal;font-weight:normal;text-align:start;text-anchor:start;fill:#4f88bb;font-family:Calibri"
         y="99.213364"
         x="786.44727"
         xml:space="preserve">()</text>
      <text
         id="text4415"
         style="font-size:16.2372036px;font-style:normal;font-weight:normal;text-align:start;text-anchor:start;fill:#4f88bb;font-family:Calibri"
         y="119.19777"
         x="743.992"
         xml:space="preserve">+ </text>
      <text
         id="text4417"
         style="font-size:16.2372036px;font-style:normal;font-weight:normal;text-align:start;text-anchor:start;fill:#4f88bb;font-family:Calibri"
         y="119.19777"
         x="756.05096"
         xml:space="preserve">Unlock</text>
      <text
         id="text4419"
         style="font-size:16.2372036px;font-style:normal;font-weight:normal;text-align:start;text-anchor:start;fill:#4f88bb;font-family:Calibri"
         y="119.19777"
         x="802.70245"
         xml:space="preserve">()</text>
      <text
         id="text4421"
         style="font-size:16.2372036px;font-style:normal;font-weight:normal;text-align:start;text-anchor:start;fill:#4f88bb;font-family:Calibri"
         y="139.18217"
         x="743.992"
         xml:space="preserve">+ </text>
      <text
         id="text4423"
         style="font-size:16.2372036px;font-style:normal;font-weight:normal;text-align:start;text-anchor:start;fill:#4f88bb;font-family:Calibri"
         y="139.18217"
         x="756.05096"
         xml:space="preserve">IsDoorOpen</text>
      <text
         id="text4425"
         style="font-size:16.2372036px;font-style:normal;font-weight:normal;text-align:start;text-anchor:start;fill:#4f88bb;font-family:Calibri"
         y="139.18217"
         x="837.18835"
         xml:space="preserve">()</text>
      <path
         id="path4427"
         d="m 547.45919,338.40519 0,54.09799 306.86754,0 0,-54.09799 -306.86754,0 z"
         style="fill:#f2f2f2;fill-opacity:1;fill-rule:evenodd;stroke:none"
         inkscape:connector-curvature="0" />
      <path
         id="path4429"
         d="m 547.45919,392.50318 306.86754,0 0,-54.09799 -306.86754,0 0,54.09799 z"
         style="fill:none;stroke:#4f88bb;stroke-width:1.24901569px;stroke-linecap:square;stroke-linejoin:miter;stroke-miterlimit:4;stroke-opacity:1;stroke-dasharray:none"
         inkscape:connector-curvature="0" />
      <path
         id="path4431"
         d="m 547.45919,338.40519 306.86754,0 0,-52.30253 -306.86754,0 0,52.30253 z"
         style="fill:none;stroke:#4f88bb;stroke-width:1.24901569px;stroke-linecap:square;stroke-linejoin:miter;stroke-miterlimit:4;stroke-opacity:1;stroke-dasharray:none"
         inkscape:connector-curvature="0" />
      <text
         id="text4433"
         style="font-size:19.98425102px;font-style:normal;font-weight:normal;text-align:start;text-anchor:start;fill:#4f88bb;font-family:Calibri"
         y="318.80353"
         x="554.745"
         xml:space="preserve">TimedDoor</text>
      <path
         id="path4435"
         d="m 552.22106,364.79064 2.49803,0 0,1.24902 -2.49803,0 0,-1.24902 z m 3.74705,0 2.49803,0 0,1.24902 -2.49803,0 0,-1.24902 z m 3.74705,0 2.49803,0 0,1.24902 -2.49803,0 0,-1.24902 z m 3.74704,0 2.49803,0 0,1.24902 -2.49803,0 0,-1.24902 z m 3.74705,0 2.49803,0 0,1.24902 -2.49803,0 0,-1.24902 z m 3.74705,0 2.49803,0 0,1.24902 -2.49803,0 0,-1.24902 z m 3.74704,0 2.49804,0 0,1.24902 -2.49804,0 0,-1.24902 z m 3.74705,0 2.49803,0 0,1.24902 -2.49803,0 0,-1.24902 z m 3.74705,0 2.49803,0 0,1.24902 -2.49803,0 0,-1.24902 z m 3.74705,0 2.49803,0 0,1.24902 -2.49803,0 0,-1.24902 z m 3.74704,0 2.49803,0 0,1.24902 -2.49803,0 0,-1.24902 z m 3.74705,0 2.49803,0 0,1.24902 -2.49803,0 0,-1.24902 z m 3.82511,0 2.49803,0 0,1.24902 -2.49803,0 0,-1.24902 z m 3.74705,0 2.49803,0 0,1.24902 -2.49803,0 0,-1.24902 z m 3.74704,0 2.49804,0 0,1.24902 -2.49804,0 0,-1.24902 z m 3.74705,0 2.49803,0 0,1.24902 -2.49803,0 0,-1.24902 z m 3.74705,0 2.49803,0 0,1.24902 -2.49803,0 0,-1.24902 z m 3.74705,0 2.49803,0 0,1.24902 -2.49803,0 0,-1.24902 z m 3.74704,0 2.49803,0 0,1.24902 -2.49803,0 0,-1.24902 z m 3.74705,0 2.49803,0 0,1.24902 -2.49803,0 0,-1.24902 z m 3.74705,0 2.49803,0 0,1.24902 -2.49803,0 0,-1.24902 z m 3.74704,0 2.49803,0 0,1.24902 -2.49803,0 0,-1.24902 z m 3.74705,0 2.49803,0 0,1.24902 -2.49803,0 0,-1.24902 z m 3.74705,0 2.49803,0 0,1.24902 -2.49803,0 0,-1.24902 z m 3.74704,0 2.49804,0 0,1.24902 -2.49804,0 0,-1.24902 z m 3.74705,0 2.49803,0 0,1.24902 -2.49803,0 0,-1.24902 z m 3.74705,0 2.49803,0 0,1.24902 -2.49803,0 0,-1.24902 z m 3.74705,0 2.49803,0 0,1.24902 -2.49803,0 0,-1.24902 z m 3.74704,0 2.49803,0 0,1.24902 -2.49803,0 0,-1.24902 z m 3.74705,0 2.49803,0 0,1.24902 -2.49803,0 0,-1.24902 z m 3.74705,0 2.49803,0 0,1.24902 -2.49803,0 0,-1.24902 z m 3.74704,0 2.49804,0 0,1.24902 -2.49804,0 0,-1.24902 z m 3.74705,0 2.5761,0 0,1.24902 -2.5761,0 0,-1.24902 z m 3.82511,0 2.49803,0 0,1.24902 -2.49803,0 0,-1.24902 z m 3.74705,0 2.49803,0 0,1.24902 -2.49803,0 0,-1.24902 z m 3.74705,0 2.49803,0 0,1.24902 -2.49803,0 0,-1.24902 z m 3.74704,0 2.49803,0 0,1.24902 -2.49803,0 0,-1.24902 z m 3.74705,0 2.49803,0 0,1.24902 -2.49803,0 0,-1.24902 z m 3.74705,0 2.49803,0 0,1.24902 -2.49803,0 0,-1.24902 z m 3.74704,0 2.49804,0 0,1.24902 -2.49804,0 0,-1.24902 z m 3.74705,0 2.49803,0 0,1.24902 -2.49803,0 0,-1.24902 z m 3.74705,0 2.49803,0 0,1.24902 -2.49803,0 0,-1.24902 z m 3.74705,0 2.49803,0 0,1.24902 -2.49803,0 0,-1.24902 z m 3.74704,0 2.49803,0 0,1.24902 -2.49803,0 0,-1.24902 z m 3.74705,0 2.49803,0 0,1.24902 -2.49803,0 0,-1.24902 z m 3.74705,0 2.49803,0 0,1.24902 -2.49803,0 0,-1.24902 z m 3.74704,0 2.49803,0 0,1.24902 -2.49803,0 0,-1.24902 z m 3.74705,0 2.49803,0 0,1.24902 -2.49803,0 0,-1.24902 z m 3.74705,0 2.49803,0 0,1.24902 -2.49803,0 0,-1.24902 z m 3.74704,0 2.49804,0 0,1.24902 -2.49804,0 0,-1.24902 z m 3.74705,0 2.49803,0 0,1.24902 -2.49803,0 0,-1.24902 z m 3.74705,0 2.49803,0 0,1.24902 -2.49803,0 0,-1.24902 z m 3.74705,0 2.49803,0 0,1.24902 -2.49803,0 0,-1.24902 z m 3.74704,0 2.5761,0 0,1.24902 -2.5761,0 0,-1.24902 z m 3.82511,0 2.49803,0 0,1.24902 -2.49803,0 0,-1.24902 z m 3.74705,0 2.49803,0 0,1.24902 -2.49803,0 0,-1.24902 z m 3.74705,0 2.49803,0 0,1.24902 -2.49803,0 0,-1.24902 z m 3.74704,0 2.49804,0 0,1.24902 -2.49804,0 0,-1.24902 z m 3.74705,0 2.49803,0 0,1.24902 -2.49803,0 0,-1.24902 z m 3.74705,0 2.49803,0 0,1.24902 -2.49803,0 0,-1.24902 z m 3.74705,0 2.49803,0 0,1.24902 -2.49803,0 0,-1.24902 z m 3.74704,0 2.49803,0 0,1.24902 -2.49803,0 0,-1.24902 z m 3.74705,0 2.49803,0 0,1.24902 -2.49803,0 0,-1.24902 z m 3.74705,0 2.49803,0 0,1.24902 -2.49803,0 0,-1.24902 z m 3.74704,0 2.49804,0 0,1.24902 -2.49804,0 0,-1.24902 z m 3.74705,0 2.49803,0 0,1.24902 -2.49803,0 0,-1.24902 z m 3.74705,0 2.49803,0 0,1.24902 -2.49803,0 0,-1.24902 z m 3.74705,0 2.49803,0 0,1.24902 -2.49803,0 0,-1.24902 z m 3.74704,0 2.49803,0 0,1.24902 -2.49803,0 0,-1.24902 z m 3.74705,0 2.49803,0 0,1.24902 -2.49803,0 0,-1.24902 z m 3.74705,0 2.49803,0 0,1.24902 -2.49803,0 0,-1.24902 z m 3.74704,0 2.49804,0 0,1.24902 -2.49804,0 0,-1.24902 z m 3.74705,0 2.49803,0 0,1.24902 -2.49803,0 0,-1.24902 z m 3.74705,0 2.49803,0 0,1.24902 -2.49803,0 0,-1.24902 z m 3.74704,0 2.5761,0 0,1.24902 -2.5761,0 0,-1.24902 z m 3.82512,0 2.49803,0 0,1.24902 -2.49803,0 0,-1.24902 z m 3.74704,0 2.49803,0 0,1.24902 -2.49803,0 0,-1.24902 z m 3.74705,0 2.49803,0 0,1.24902 -2.49803,0 0,-1.24902 z m 3.74705,0 2.49803,0 0,1.24902 -2.49803,0 0,-1.24902 z m 3.74704,0 1.09289,0 0,1.24902 -1.09289,0 0,-1.24902 z"
         style="fill:#c8c8c8;fill-opacity:1;fill-rule:nonzero;stroke:#c8c8c8;stroke-width:0.07806348px;stroke-linecap:butt;stroke-linejoin:round;stroke-opacity:1;stroke-dasharray:none"
         inkscape:connector-curvature="0" />
      <path
         id="path4437"
         d="m 700.93199,286.10266 0,-61.43596 177.04798,0 0,-58.7818"
         style="fill:none;stroke:#5b9bd5;stroke-width:1.63933313px;stroke-linecap:round;stroke-linejoin:round;stroke-opacity:1;stroke-dasharray:none"
         inkscape:connector-curvature="0" />
      <path
         id="path4439"
         d="m 883.83473,165.8849 -5.85476,-17.56429 -5.93283,17.56429 11.78759,0 z"
         style="fill:none;stroke:#5b9bd5;stroke-width:1.63933313px;stroke-linecap:round;stroke-linejoin:round;stroke-opacity:1;stroke-dasharray:none"
         inkscape:connector-curvature="0" />
      <path
         id="path4441"
         d="m 700.93199,281.34078 0,-56.67408 -177.04797,0 0,-78.68799"
         style="fill:none;stroke:#5b9bd5;stroke-width:1.63933313px;stroke-linecap:round;stroke-linejoin:round;stroke-opacity:1;stroke-dasharray:none"
         inkscape:connector-curvature="0" />
      <path
         id="path4443"
         d="m 529.73878,145.97871 -5.85476,-17.56428 -5.85476,17.56428 11.70952,0 z"
         style="fill:none;stroke:#5b9bd5;stroke-width:1.63933313px;stroke-linecap:round;stroke-linejoin:round;stroke-opacity:1;stroke-dasharray:none"
         inkscape:connector-curvature="0" />
    </g>
  </g>
</svg>
