<?xml version="1.0" encoding="UTF-8" standalone="no"?>
<!-- Created with Inkscape (http://www.inkscape.org/) -->

<svg
   xmlns:v="http://schemas.microsoft.com/visio/2003/SVGExtensions/"
   xmlns:dc="http://purl.org/dc/elements/1.1/"
   xmlns:cc="http://creativecommons.org/ns#"
   xmlns:rdf="http://www.w3.org/1999/02/22-rdf-syntax-ns#"
   xmlns:svg="http://www.w3.org/2000/svg"
   xmlns="http://www.w3.org/2000/svg"
   xmlns:xlink="http://www.w3.org/1999/xlink"
   xmlns:sodipodi="http://sodipodi.sourceforge.net/DTD/sodipodi-0.dtd"
   xmlns:inkscape="http://www.inkscape.org/namespaces/inkscape"
   width="576.57446"
   height="332.13916"
   id="svg5549"
   version="1.1"
   inkscape:version="0.48.5 r10040"
   sodipodi:docname="specification.pdf">
  <defs
     id="defs5551">
    <marker
       style="overflow:visible"
       overflow="visible"
       markerUnits="strokeWidth"
       orient="auto"
       v:arrowSize="2"
       v:arrowType="12"
       class="st14"
       id="mrkr12-159">
      <use
         height="3"
         width="3"
         y="0"
         x="0"
         id="use3686"
         transform="scale(-3.52,-3.52)"
         xlink:href="#lend12" />
    </marker>
    <marker
       style="overflow:visible"
       overflow="visible"
       markerUnits="strokeWidth"
       orient="auto"
       refX="-10.56"
       v:setback="10.56"
       v:arrowSize="2"
       v:arrowType="14"
       class="st14"
       id="mrkr14-134">
      <use
         height="3"
         width="3"
         y="0"
         x="0"
         id="use3680"
         transform="scale(-3.52,-3.52)"
         xlink:href="#lend14" />
    </marker>
    <marker
       style="overflow:visible"
       overflow="visible"
       markerUnits="strokeWidth"
       orient="auto"
       refX="-10.56"
       v:setback="10.56"
       v:arrowSize="2"
       v:arrowType="14"
       class="st14"
       id="marker5922">
      <use
         height="3"
         width="3"
         y="0"
         x="0"
         id="use5924"
         transform="scale(-3.52,-3.52)"
         xlink:href="#lend14" />
    </marker>
    <marker
       style="overflow:visible"
       overflow="visible"
       markerUnits="strokeWidth"
       orient="auto"
       refX="-10.56"
       v:setback="10.56"
       v:arrowSize="2"
       v:arrowType="14"
       class="st14"
       id="marker5926">
      <use
         height="3"
         width="3"
         y="0"
         x="0"
         id="use5928"
         transform="scale(-3.52,-3.52)"
         xlink:href="#lend14" />
    </marker>
    <marker
       style="overflow:visible"
       overflow="visible"
       markerUnits="strokeWidth"
       orient="auto"
       refX="-10.56"
       v:setback="10.56"
       v:arrowSize="2"
       v:arrowType="14"
       class="st14"
       id="marker5930">
      <use
         height="3"
         width="3"
         y="0"
         x="0"
         id="use5932"
         transform="scale(-3.52,-3.52)"
         xlink:href="#lend14" />
    </marker>
  </defs>
  <sodipodi:namedview
     id="base"
     pagecolor="#ffffff"
     bordercolor="#666666"
     borderopacity="1.0"
     inkscape:pageopacity="0.0"
     inkscape:pageshadow="2"
     inkscape:zoom="1.8646503"
     inkscape:cx="353.48106"
     inkscape:cy="177.32562"
     inkscape:document-units="px"
     inkscape:current-layer="layer1"
     showgrid="false"
     inkscape:window-width="1920"
     inkscape:window-height="1027"
     inkscape:window-x="292"
     inkscape:window-y="1432"
     inkscape:window-maximized="1"
     fit-margin-top="0"
     fit-margin-left="0"
     fit-margin-right="0"
     fit-margin-bottom="0" />
  <metadata
     id="metadata5554">
    <rdf:RDF>
      <cc:Work
         rdf:about="">
        <dc:format>image/svg+xml</dc:format>
        <dc:type
           rdf:resource="http://purl.org/dc/dcmitype/StillImage" />
        <dc:title></dc:title>
      </cc:Work>
    </rdf:RDF>
  </metadata>
  <g
     inkscape:label="Layer 1"
     inkscape:groupmode="layer"
     id="layer1"
     transform="translate(-83.671025,-104.70599)">
    <g
       id="g6888">
      <g
         transform="matrix(1.0744957,0,0,1.1035192,331.98298,-169.96331)"
         v:groupContext="shape"
         v:mID="46"
         id="shape46-2"
         style="font-size:12px;fill:none;stroke-linecap:square;stroke-miterlimit:3">
        <title
           id="title3698">Sheet.46</title>
        <v:userDefs>
          <v:ud
             v:val="VT0(1):27"
             v:prompt=""
             v:nameU="DOPS" />
          <v:ud
             v:val="VT0(0.59593536783854):1"
             v:prompt=""
             v:nameU="HdrHgt" />
          <v:ud
             v:val="VT0(0):26"
             v:prompt=""
             v:nameU="EmblOffset" />
          <v:ud
             v:val="VT0(0):26"
             v:prompt=""
             v:nameU="Spacer" />
        </v:userDefs>
        <path
           id="path3700"
           class="st1"
           d="m 0,340.62 138.19,0 0,-53.67 -138.19,0 0,53.67 z"
           inkscape:connector-curvature="0"
           style="fill:#f2f2f2;stroke:#686868;stroke-width:1.43491912;stroke-linecap:butt" />
      </g>
      <g
         transform="matrix(1.0744957,0,0,0.96108575,331.98298,-180.67641)"
         v:groupContext="shape"
         v:mID="47"
         id="shape47-4"
         style="font-size:12px;fill:none;stroke-linecap:square;stroke-miterlimit:3">
        <title
           id="title3703">Sheet.47</title>
        <v:userDefs>
          <v:ud
             v:val="VT4(Heading)"
             v:prompt=""
             v:nameU="msvStructureType" />
          <v:ud
             v:val="VT4(Bottom)"
             v:prompt=""
             v:nameU="msvSDContainerHeadingEdge" />
          <v:ud
             v:val="VT0(1):5"
             v:prompt=""
             v:nameU="StereoType" />
          <v:ud
             v:val="VT0(0.22227273084852):1"
             v:prompt=""
             v:nameU="StereoTypeHgt" />
          <v:ud
             v:val="VT0(0):5"
             v:prompt=""
             v:nameU="TemplateParm" />
          <v:ud
             v:val="VT0(0):1"
             v:prompt=""
             v:nameU="TemplateParmHgt" />
          <v:ud
             v:val="VT0(0):26"
             v:prompt=""
             v:nameU="EmblOffset" />
          <v:ud
             v:val="VT0(0):26"
             v:prompt=""
             v:nameU="Spacer" />
          <v:ud
             v:val="VT0(0.59593536783854):1"
             v:prompt=""
             v:nameU="UsableHgt" />
          <v:ud
             v:val="VT4(InterfaceName)"
             v:prompt=""
             v:nameU="UmlRole" />
          <v:ud
             v:val="VT4(ISpecification&lt;T&gt;)"
             v:prompt=""
             v:nameU="UmlRole" />
        </v:userDefs>
        <path
           id="path3705"
           class="st2"
           d="m 0,340.62 138.19,0 0,-42.91 -138.19,0 0,42.91 z"
           inkscape:connector-curvature="0"
           style="fill:#7e7e7e;stroke:#686868;stroke-width:1.53757513;stroke-linecap:butt" />
      </g>
      <g
         transform="matrix(1.0744957,0,0,0.96108575,331.98298,-206.53318)"
         v:groupContext="shape"
         v:mID="48"
         id="shape48-6"
         style="font-size:12px;fill:none;stroke-linecap:square;stroke-miterlimit:3">
        <title
           id="title3708">Sheet.48</title>
        <desc
           id="desc3710">&lt;&lt;Interface&gt;&gt;</desc>
        <v:userDefs>
          <v:ud
             v:val="VT0(0):5"
             v:prompt=""
             v:nameU="TemplateParm" />
          <v:ud
             v:val="VT0(0):1"
             v:prompt=""
             v:nameU="TemplateParmHgt" />
          <v:ud
             v:val="VT4(&lt;&lt;Interface&gt;&gt;)"
             v:prompt=""
             v:nameU="UmlRole" />
        </v:userDefs>
        <v:textBlock
           v:tabSpace="42.5197"
           v:margins="rect(4,4,0,4)" />
        <v:textRect
           height="16.0036"
           width="138.19"
           cy="332.618"
           cx="69.0945" />
        <text
           id="text3712"
           v:langID="1033"
           class="st3"
           y="337.62"
           x="4"
           style="fill:#ffffff;font-family:Segoe UI Semilight"><v:paragraph />
<v:tabList />
&lt;&lt;Interface&gt;&gt;</text>
      </g>
      <g
         transform="matrix(1.0744957,0,0,0.96108575,331.98298,-129.09206)"
         v:groupContext="groupContent"
         v:mID="45"
         id="shape45-9"
         style="font-size:12px;fill:none;stroke-linecap:square;stroke-miterlimit:3">
        <v:textBlock
           v:tabSpace="42.5197"
           v:margins="rect(4,4,8.5,4)" />
        <v:textRect
           height="26.9037"
           width="138.19"
           cy="273.495"
           cx="69.0945" />
        <text
           id="text3720"
           v:langID="1045"
           class="st4"
           y="274.85001"
           x="4"
           style="font-style:italic;fill:#ffffff;font-family:Segoe UI Semilight"><v:paragraph />
<v:tabList />
ISpecification&lt;T&gt;</text>
      </g>
      <g
         id="shape52-11"
         v:mID="52"
         v:groupContext="shape"
         transform="matrix(1.0744957,0,0,0.96108575,335.02919,-131.79375)"
         style="font-size:12px;fill:none;stroke:none">
        <title
           id="title3723">Member.52</title>
        <desc
           id="desc3725">+ IsSatisfied(T) + And() + Not() + Or()</desc>
        <v:userDefs>
          <v:ud
             v:nameU="msvShapeCategories"
             v:prompt=""
             v:val="VT4(Member)" />
          <v:ud
             v:nameU="MemberName"
             v:prompt=""
             v:val="VT4(-memberName)" />
          <v:ud
             v:nameU="ContainerMargin"
             v:prompt=""
             v:val="VT0(0):26" />
          <v:ud
             v:nameU="WidthMin"
             v:prompt=""
             v:val="VT0(0):26" />
          <v:ud
             v:nameU="UserWidth"
             v:prompt=""
             v:val="VT0(1.8897637795276):24" />
          <v:ud
             v:nameU="DarkerColor"
             v:prompt=""
             v:val="VT5(0)" />
          <v:ud
             v:nameU="DarkColor"
             v:prompt=""
             v:val="VT5(0)" />
          <v:ud
             v:nameU="BackFillColor"
             v:prompt=""
             v:val="VT5(1)" />
          <v:ud
             v:nameU="BackLineColor"
             v:prompt=""
             v:val="VT5(0)" />
          <v:ud
             v:nameU="IsInstance"
             v:prompt=""
             v:val="VT0(0):5" />
          <v:ud
             v:nameU="visVersion"
             v:prompt=""
             v:val="VT0(15):26" />
          <v:ud
             v:nameU="MemberName"
             v:prompt=""
             v:val="VT4(+ IsSatisfied(T) + And() + Not() + Or())" />
          <v:ud
             v:nameU="ContainerMargin"
             v:prompt=""
             v:val="VT0(0.039370078740157):24" />
          <v:ud
             v:nameU="WidthMin"
             v:prompt=""
             v:val="VT0(0):26" />
          <v:ud
             v:nameU="DarkerColor"
             v:prompt=""
             v:val="VT5(#696969)" />
          <v:ud
             v:nameU="DarkColor"
             v:prompt=""
             v:val="VT5(#696969)" />
          <v:ud
             v:nameU="BackFillColor"
             v:prompt=""
             v:val="VT5(#f2f2f2)" />
          <v:ud
             v:nameU="BackLineColor"
             v:prompt=""
             v:val="VT5(#696969)" />
          <v:ud
             v:nameU="IsInstance"
             v:prompt=""
             v:val="VT0(1):5" />
        </v:userDefs>
        <v:textBlock
           v:margins="rect(0,0,0,8.50394)"
           v:tabSpace="42.5197" />
        <v:textRect
           cx="66.2598"
           cy="316.618"
           width="132.52"
           height="48.0037" />
        <rect
           style="fill:#7e7e7e;fill-opacity:0;stroke:none"
           x="0"
           y="292.616"
           width="132.52"
           height="48.0037"
           class="st5"
           id="rect3727" />
        <rect
           style="stroke:none;visibility:hidden"
           x="0"
           y="292.616"
           width="132.52"
           height="48.0037"
           class="st6"
           id="rect3729" />
        <text
           sodipodi:linespacing="125%"
           style="font-size:12px;font-style:normal;font-variant:normal;font-weight:300;font-stretch:normal;text-align:start;line-height:125%;writing-mode:lr-tb;text-anchor:start;fill:#686868;stroke:none;font-family:Segoe UI Semilight;-inkscape-font-specification:Segoe UI Semilight Light"
           x="8.5"
           y="301.62"
           class="st7"
           v:langID="1045"
           id="text3731">
          <tspan
             y="301.62"
             x="8.5"
             id="tspan6470"
             sodipodi:role="line">+ IsSatisfied(T)</tspan>
          <tspan
             y="316.62"
             x="8.5"
             id="tspan6472"
             sodipodi:role="line">+ And()</tspan>
          <tspan
             y="331.62"
             x="8.5"
             id="tspan6474"
             sodipodi:role="line">+ Not()</tspan>
          <tspan
             y="346.62"
             x="8.5"
             id="tspan6476"
             sodipodi:role="line">+ Or()</tspan>
        </text>
      </g>
      <g
         id="group2-28"
         transform="matrix(1.0744957,0,0,0.96108575,84.510475,-144.56842)"
         v:mID="2"
         v:groupContext="group"
         style="font-size:12px;fill:none;stroke-linecap:square;stroke-miterlimit:3">
        <v:userDefs>
          <v:ud
             v:nameU="msvStructureType"
             v:prompt=""
             v:val="VT4(List)" />
          <v:ud
             v:nameU="msvSDContainerResize"
             v:prompt=""
             v:val="VT0(2):26" />
          <v:ud
             v:nameU="msvSDContainerNoRibbon"
             v:prompt=""
             v:val="VT0(1):5" />
          <v:ud
             v:nameU="msvSDListAlignment"
             v:prompt=""
             v:val="VT0(0):26" />
          <v:ud
             v:nameU="msvSDListDirection"
             v:prompt=""
             v:val="VT0(2):26" />
          <v:ud
             v:nameU="msvSDListItemMaster1"
             v:prompt=""
             v:val="VT0(254):26" />
          <v:ud
             v:nameU="msvSDListItemMaster2"
             v:prompt=""
             v:val="VT0(254):26" />
          <v:ud
             v:nameU="msvSDListItemMaster3"
             v:prompt=""
             v:val="VT0(254):26" />
          <v:ud
             v:nameU="msvSDListRequiredCategories"
             v:prompt=""
             v:val="VT4(Member;Separator)" />
          <v:ud
             v:nameU="msvSDContainerMargin"
             v:prompt=""
             v:val="VT0(0.039370078740157):24" />
          <v:ud
             v:nameU="msvSDListSpacing"
             v:prompt=""
             v:val="VT0(0):26" />
          <v:ud
             v:nameU="TemplateParm"
             v:prompt=""
             v:val="VT0(0):5" />
          <v:ud
             v:nameU="TemplateParmHgt"
             v:prompt=""
             v:val="VT0(0):1" />
          <v:ud
             v:nameU="StereoType"
             v:prompt=""
             v:val="VT0(0):5" />
          <v:ud
             v:nameU="StereoTypeHgt"
             v:prompt=""
             v:val="VT0(0.22227273084852):1" />
          <v:ud
             v:nameU="TextOffset"
             v:prompt=""
             v:val="VT0(0):26" />
          <v:ud
             v:nameU="WidthMin"
             v:prompt=""
             v:val="VT0(0):26" />
          <v:ud
             v:nameU="EntityName"
             v:prompt=""
             v:val="VT4(ClassName)" />
          <v:ud
             v:nameU="HdrHgt"
             v:prompt=""
             v:val="VT0(0.43616263699002):1" />
          <v:ud
             v:nameU="BackGrnd"
             v:prompt=""
             v:val="VT5(#f2f2f2)" />
          <v:ud
             v:nameU="BackGrndLine"
             v:prompt=""
             v:val="VT5(0)" />
          <v:ud
             v:nameU="Test"
             v:prompt=""
             v:val="VT0(0):5" />
          <v:ud
             v:nameU="visVersion"
             v:prompt=""
             v:val="VT0(15):26" />
          <v:ud
             v:nameU="WidthMin"
             v:prompt=""
             v:val="VT0(1.9872627152478):1" />
          <v:ud
             v:nameU="EntityName"
             v:prompt=""
             v:val="VT4(CustomerAccount)" />
          <v:ud
             v:nameU="BackGrndLine"
             v:prompt=""
             v:val="VT5(#696969)" />
        </v:userDefs>
        <title
           id="title3760">Class</title>
        <desc
           id="desc3762">CustomerAccount</desc>
        <g
           id="shape3-29"
           v:mID="3"
           v:groupContext="shape">
          <title
             id="title3765">Sheet.3</title>
          <v:userDefs>
            <v:ud
               v:nameU="DOPS"
               v:prompt=""
               v:val="VT0(1):27" />
            <v:ud
               v:nameU="HdrHgt"
               v:prompt=""
               v:val="VT0(0.43616263699002):1" />
            <v:ud
               v:nameU="EmblOffset"
               v:prompt=""
               v:val="VT0(0):26" />
            <v:ud
               v:nameU="Spacer"
               v:prompt=""
               v:val="VT0(0):26" />
          </v:userDefs>
          <path
             style="fill:#f2f2f2;stroke:#686868;stroke-width:1.53757513;stroke-linecap:butt"
             inkscape:connector-curvature="0"
             d="m 0,340.62 184.25,0 0,-32.51 -184.25,0 0,32.51 z"
             class="st1"
             id="path3767" />
        </g>
        <g
           id="shape4-31"
           v:mID="4"
           v:groupContext="shape"
           transform="translate(0,-32.5076)">
          <title
             id="title3770">Sheet.4</title>
          <v:userDefs>
            <v:ud
               v:nameU="msvStructureType"
               v:prompt=""
               v:val="VT4(Heading)" />
            <v:ud
               v:nameU="msvSDContainerHeadingEdge"
               v:prompt=""
               v:val="VT4(Bottom)" />
            <v:ud
               v:nameU="StereoType"
               v:prompt=""
               v:val="VT0(0):5" />
            <v:ud
               v:nameU="StereoTypeHgt"
               v:prompt=""
               v:val="VT0(0.22227273084852):1" />
            <v:ud
               v:nameU="TemplateParm"
               v:prompt=""
               v:val="VT0(0):5" />
            <v:ud
               v:nameU="TemplateParmHgt"
               v:prompt=""
               v:val="VT0(0):1" />
            <v:ud
               v:nameU="EmblOffset"
               v:prompt=""
               v:val="VT0(0):26" />
            <v:ud
               v:nameU="Spacer"
               v:prompt=""
               v:val="VT0(0):26" />
            <v:ud
               v:nameU="UsableHgt"
               v:prompt=""
               v:val="VT0(0.43616263699002):1" />
            <v:ud
               v:nameU="UmlRole"
               v:prompt=""
               v:val="VT4(ClassName)" />
            <v:ud
               v:nameU="UmlRole"
               v:prompt=""
               v:val="VT4(CustomerAccount)" />
          </v:userDefs>
          <path
             style="fill:#7e7e7e;stroke:#686868;stroke-width:1.53757513;stroke-linecap:butt"
             inkscape:connector-curvature="0"
             d="m 0,340.62 184.25,0 0,-31.4 -184.25,0 0,31.4 z"
             class="st2"
             id="path3772" />
        </g>
        <g
           id="shape6-33"
           v:mID="6"
           v:groupContext="shape"
           transform="translate(175.748,-63.9113)">
          <title
             id="title3775">Sheet.6</title>
          <desc
             id="desc3777">parameter</desc>
          <v:userDefs>
            <v:ud
               v:nameU="TemplateParm"
               v:prompt=""
               v:val="VT0(0):5" />
            <v:ud
               v:nameU="DOPS"
               v:prompt=""
               v:val="VT0(1):27" />
            <v:ud
               v:nameU="Rounding"
               v:prompt=""
               v:val="VT0(0.11811023622047):24" />
            <v:ud
               v:nameU="UmlRole"
               v:prompt=""
               v:val="VT4(parameter)" />
          </v:userDefs>
          <v:textBlock
             v:margins="rect(2,4,2,4)"
             v:tabSpace="42.5197" />
          <v:textRect
             cx="0"
             cy="340.62"
             width="0"
             height="0" />
        </g>
        <g
           id="shape2-34"
           v:mID="2"
           v:groupContext="groupContent">
          <v:textBlock
             v:margins="rect(8.5,4,8.5,4)"
             v:tabSpace="42.5197" />
          <v:textRect
             cx="92.126"
             cy="292.41"
             width="184.26"
             height="31.4037" />
          <text
             style="fill:#ffffff;font-family:Segoe UI Semilight"
             x="4"
             y="296.01001"
             class="st10"
             v:langID="1045"
             id="text3780"><v:paragraph />
<v:tabList />
CustomerAccount</text>
        </g>
      </g>
      <g
         id="shape7-36"
         v:mID="7"
         v:groupContext="shape"
         transform="matrix(1.0744957,0,0,0.96108575,87.5563,-161.55177)"
         style="font-size:12px;fill:none;stroke:none">
        <title
           id="title3783">Member</title>
        <desc
           id="desc3785">+ NumberOfRentalsThisMonth</desc>
        <v:userDefs>
          <v:ud
             v:nameU="msvShapeCategories"
             v:prompt=""
             v:val="VT4(Member)" />
          <v:ud
             v:nameU="MemberName"
             v:prompt=""
             v:val="VT4(-memberName)" />
          <v:ud
             v:nameU="ContainerMargin"
             v:prompt=""
             v:val="VT0(0):26" />
          <v:ud
             v:nameU="WidthMin"
             v:prompt=""
             v:val="VT0(0):26" />
          <v:ud
             v:nameU="UserWidth"
             v:prompt=""
             v:val="VT0(1.8897637795276):24" />
          <v:ud
             v:nameU="DarkerColor"
             v:prompt=""
             v:val="VT5(0)" />
          <v:ud
             v:nameU="DarkColor"
             v:prompt=""
             v:val="VT5(0)" />
          <v:ud
             v:nameU="BackFillColor"
             v:prompt=""
             v:val="VT5(1)" />
          <v:ud
             v:nameU="BackLineColor"
             v:prompt=""
             v:val="VT5(0)" />
          <v:ud
             v:nameU="IsInstance"
             v:prompt=""
             v:val="VT0(0):5" />
          <v:ud
             v:nameU="visVersion"
             v:prompt=""
             v:val="VT0(15):26" />
          <v:ud
             v:nameU="MemberName"
             v:prompt=""
             v:val="VT4(+ NumberOfRentalsThisMonth)" />
          <v:ud
             v:nameU="ContainerMargin"
             v:prompt=""
             v:val="VT0(0.039370078740157):24" />
          <v:ud
             v:nameU="WidthMin"
             v:prompt=""
             v:val="VT0(0):26" />
          <v:ud
             v:nameU="DarkerColor"
             v:prompt=""
             v:val="VT5(#696969)" />
          <v:ud
             v:nameU="DarkColor"
             v:prompt=""
             v:val="VT5(#696969)" />
          <v:ud
             v:nameU="BackFillColor"
             v:prompt=""
             v:val="VT5(#f2f2f2)" />
          <v:ud
             v:nameU="BackLineColor"
             v:prompt=""
             v:val="VT5(#696969)" />
          <v:ud
             v:nameU="IsInstance"
             v:prompt=""
             v:val="VT0(1):5" />
        </v:userDefs>
        <v:textBlock
           v:margins="rect(0,0,0,8.50394)"
           v:tabSpace="42.5197" />
        <v:textRect
           cx="89.2913"
           cy="334.618"
           width="178.59"
           height="12.0036" />
        <rect
           style="fill:#7e7e7e;fill-opacity:0;stroke:none"
           x="0"
           y="328.616"
           width="178.58299"
           height="12.0036"
           class="st5"
           id="rect3787" />
        <rect
           style="stroke:none;visibility:hidden"
           x="0"
           y="328.616"
           width="178.58299"
           height="12.0036"
           class="st6"
           id="rect3789" />
        <text
           style="fill:#686868;stroke:none;font-family:Segoe UI Semilight"
           x="8.5"
           y="337.62"
           class="st7"
           v:langID="1045"
           id="text3791"><v:paragraph />
<v:tabList />
+ NumberOfRentalsThisMonth</text>
      </g>
      <g
         id="shape8-40"
         v:mID="8"
         v:groupContext="shape"
         transform="matrix(1.0744957,0,0,0.96108575,87.5563,-158.82902)"
         style="font-size:12px;fill:none;stroke-linecap:square;stroke-miterlimit:3">
        <title
           id="title3794">Separator</title>
        <v:userDefs>
          <v:ud
             v:nameU="msvShapeCategories"
             v:prompt=""
             v:val="VT4(Separator)" />
          <v:ud
             v:nameU="ContainerMargin"
             v:prompt=""
             v:val="VT0(0):26" />
          <v:ud
             v:nameU="ItemIndex"
             v:prompt=""
             v:val="VT0(-1):26" />
          <v:ud
             v:nameU="visVersion"
             v:prompt=""
             v:val="VT0(15):26" />
          <v:ud
             v:nameU="ContainerMargin"
             v:prompt=""
             v:val="VT0(0.039370078740157):24" />
          <v:ud
             v:nameU="ItemIndex"
             v:prompt=""
             v:val="VT0(2):26" />
        </v:userDefs>
        <path
           style="fill:#ffffff"
           inkscape:connector-curvature="0"
           d="m 0,339.2 178.58,0 -178.58,0 z"
           class="st11"
           id="path3796" />
        <path
           style="stroke:#686868;stroke-width:1.2300601;stroke-linecap:butt;stroke-dasharray:2.4601201, 1.23006005"
           inkscape:connector-curvature="0"
           d="m 0,339.2 178.58,0"
           class="st12"
           id="path3798" />
      </g>
      <g
         id="shape9-43"
         v:mID="9"
         v:groupContext="shape"
         transform="matrix(1.0744957,0,0,0.96108575,87.5563,-147.2931)"
         style="font-size:12px;fill:none;stroke-linecap:square;stroke-miterlimit:3">
        <title
           id="title3801">Member.8</title>
        <desc
           id="desc3803">+ CanRent()</desc>
        <v:userDefs>
          <v:ud
             v:nameU="msvShapeCategories"
             v:prompt=""
             v:val="VT4(Member)" />
          <v:ud
             v:nameU="MemberName"
             v:prompt=""
             v:val="VT4(-memberName)" />
          <v:ud
             v:nameU="ContainerMargin"
             v:prompt=""
             v:val="VT0(0):26" />
          <v:ud
             v:nameU="WidthMin"
             v:prompt=""
             v:val="VT0(0):26" />
          <v:ud
             v:nameU="UserWidth"
             v:prompt=""
             v:val="VT0(1.8897637795276):24" />
          <v:ud
             v:nameU="DarkerColor"
             v:prompt=""
             v:val="VT5(0)" />
          <v:ud
             v:nameU="DarkColor"
             v:prompt=""
             v:val="VT5(0)" />
          <v:ud
             v:nameU="BackFillColor"
             v:prompt=""
             v:val="VT5(1)" />
          <v:ud
             v:nameU="BackLineColor"
             v:prompt=""
             v:val="VT5(0)" />
          <v:ud
             v:nameU="IsInstance"
             v:prompt=""
             v:val="VT0(0):5" />
          <v:ud
             v:nameU="visVersion"
             v:prompt=""
             v:val="VT0(15):26" />
          <v:ud
             v:nameU="MemberName"
             v:prompt=""
             v:val="VT4(+ CanRent())" />
          <v:ud
             v:nameU="ContainerMargin"
             v:prompt=""
             v:val="VT0(0.039370078740157):24" />
          <v:ud
             v:nameU="WidthMin"
             v:prompt=""
             v:val="VT0(0):26" />
          <v:ud
             v:nameU="DarkerColor"
             v:prompt=""
             v:val="VT5(#696969)" />
          <v:ud
             v:nameU="DarkColor"
             v:prompt=""
             v:val="VT5(#696969)" />
          <v:ud
             v:nameU="BackFillColor"
             v:prompt=""
             v:val="VT5(#f2f2f2)" />
          <v:ud
             v:nameU="BackLineColor"
             v:prompt=""
             v:val="VT5(#696969)" />
          <v:ud
             v:nameU="IsInstance"
             v:prompt=""
             v:val="VT0(1):5" />
        </v:userDefs>
        <v:textBlock
           v:margins="rect(0,0,0,8.50394)"
           v:tabSpace="42.5197" />
        <v:textRect
           cx="89.2913"
           cy="334.618"
           width="178.59"
           height="12.0036" />
        <rect
           style="fill:#7e7e7e;fill-opacity:0"
           x="0"
           y="328.616"
           width="178.58299"
           height="12.0036"
           class="st5"
           id="rect3805" />
        <rect
           style="stroke:none;visibility:hidden"
           x="0"
           y="328.616"
           width="178.58299"
           height="12.0036"
           class="st6"
           id="rect3807" />
        <text
           style="fill:#686868;font-family:Segoe UI Semilight"
           x="8.5"
           y="337.62"
           class="st7"
           v:langID="1045"
           id="text3809"><v:paragraph />
<v:tabList />
+ CanRent()</text>
      </g>
      <g
         transform="matrix(1.0744957,0,0,1.0513089,331.98298,-33.651617)"
         v:groupContext="shape"
         v:mID="62"
         id="shape62-48"
         style="font-size:12px;fill:none;stroke-linecap:square;stroke-miterlimit:3">
        <title
           id="title3817">Sheet.62</title>
        <v:userDefs>
          <v:ud
             v:val="VT0(1):27"
             v:prompt=""
             v:nameU="DOPS" />
          <v:ud
             v:val="VT0(0.43616263699002):1"
             v:prompt=""
             v:nameU="HdrHgt" />
          <v:ud
             v:val="VT0(0):26"
             v:prompt=""
             v:nameU="EmblOffset" />
          <v:ud
             v:val="VT0(0):26"
             v:prompt=""
             v:nameU="Spacer" />
        </v:userDefs>
        <path
           id="path3819"
           class="st1"
           d="m 0,340.62 138.19,0 0,-56.51 -138.19,0 0,56.51 z"
           inkscape:connector-curvature="0"
           style="fill:#f2f2f2;stroke:#686868;stroke-width:1.47011805;stroke-linecap:butt" />
      </g>
      <g
         transform="matrix(1.0744957,0,0,0.96108575,331.98298,-62.327067)"
         v:groupContext="shape"
         v:mID="63"
         id="shape63-50"
         style="font-size:12px;fill:none;stroke-linecap:square;stroke-miterlimit:3">
        <title
           id="title3822">Sheet.63</title>
        <v:userDefs>
          <v:ud
             v:val="VT4(Heading)"
             v:prompt=""
             v:nameU="msvStructureType" />
          <v:ud
             v:val="VT4(Bottom)"
             v:prompt=""
             v:nameU="msvSDContainerHeadingEdge" />
          <v:ud
             v:val="VT0(0):5"
             v:prompt=""
             v:nameU="StereoType" />
          <v:ud
             v:val="VT0(0.22227273084852):1"
             v:prompt=""
             v:nameU="StereoTypeHgt" />
          <v:ud
             v:val="VT0(0):5"
             v:prompt=""
             v:nameU="TemplateParm" />
          <v:ud
             v:val="VT0(0):1"
             v:prompt=""
             v:nameU="TemplateParmHgt" />
          <v:ud
             v:val="VT0(0):26"
             v:prompt=""
             v:nameU="EmblOffset" />
          <v:ud
             v:val="VT0(0):26"
             v:prompt=""
             v:nameU="Spacer" />
          <v:ud
             v:val="VT0(0.43616263699002):1"
             v:prompt=""
             v:nameU="UsableHgt" />
          <v:ud
             v:val="VT4(ClassName)"
             v:prompt=""
             v:nameU="UmlRole" />
          <v:ud
             v:val="VT4(CompositeSpecification)"
             v:prompt=""
             v:nameU="UmlRole" />
        </v:userDefs>
        <path
           id="path3824"
           class="st2"
           d="m 0,340.62 138.19,0 0,-31.4 -138.19,0 0,31.4 z"
           inkscape:connector-curvature="0"
           style="fill:#7e7e7e;stroke:#686868;stroke-width:1.53757513;stroke-linecap:butt" />
      </g>
      <g
         transform="matrix(1.0744957,0,0,0.96108575,331.98298,-8.0183221)"
         v:groupContext="groupContent"
         v:mID="61"
         id="shape61-53"
         style="font-size:12px;fill:none;stroke-linecap:square;stroke-miterlimit:3">
        <v:textBlock
           v:tabSpace="42.5197"
           v:margins="rect(8.5,4,8.5,4)" />
        <v:textRect
           height="31.4037"
           width="138.19"
           cy="268.41"
           cx="69.0945" />
        <text
           id="text3832"
           v:langID="1045"
           class="st4"
           y="272.01001"
           x="4"
           style="font-style:italic;fill:#ffffff;font-family:Segoe UI Semilight"><v:paragraph />
<v:tabList />
CompositeSpecification</text>
      </g>
      <rect
         id="rect3846"
         class="st5"
         height="46.13567"
         width="142.39218"
         y="270.48703"
         x="335.02917"
         style="font-size:12px;fill:#7e7e7e;fill-opacity:0;stroke:none" />
      <rect
         id="rect3848"
         class="st6"
         height="46.13567"
         width="142.39218"
         y="270.48703"
         x="335.02917"
         style="font-size:12px;fill:none;stroke:none;visibility:hidden" />
      <text
         sodipodi:linespacing="125%"
         transform="scale(1.0573562,0.9457551)"
         id="text3850"
         v:langID="1045"
         class="st7"
         y="292.5054"
         x="324.8866"
         style="font-size:12.19451904px;font-style:oblique;font-variant:normal;font-weight:300;font-stretch:normal;text-align:start;line-height:125%;writing-mode:lr-tb;text-anchor:start;fill:#686868;stroke:none;font-family:Segoe UI Semilight;-inkscape-font-specification:Segoe UI Semilight Light Oblique">
        <tspan
           y="292.5054"
           x="324.8866"
           id="tspan5166"
           sodipodi:role="line">+ IsSatisfied(T)</tspan>
        <tspan
           y="307.74854"
           x="324.8866"
           id="tspan5168"
           sodipodi:role="line">+And()</tspan>
        <tspan
           y="322.9917"
           x="324.8866"
           id="tspan5170"
           sodipodi:role="line">+Not()</tspan>
        <tspan
           y="338.23486"
           x="324.8866"
           id="tspan5172"
           sodipodi:role="line">+Or()</tspan>
      </text>
      <g
         transform="matrix(1.0744958,0,0,1.0754352,149.23398,69.187618)"
         v:groupContext="shape"
         v:mID="73"
         id="shape73-70"
         style="font-size:12px;fill:none;stroke-linecap:square;stroke-miterlimit:3">
        <title
           id="title3872">Sheet.73</title>
        <v:userDefs>
          <v:ud
             v:val="VT0(1):27"
             v:prompt=""
             v:nameU="DOPS" />
          <v:ud
             v:val="VT0(0.43616263699002):1"
             v:prompt=""
             v:nameU="HdrHgt" />
          <v:ud
             v:val="VT0(0):26"
             v:prompt=""
             v:nameU="EmblOffset" />
          <v:ud
             v:val="VT0(0):26"
             v:prompt=""
             v:nameU="Spacer" />
        </v:userDefs>
        <path
           id="path3874"
           class="st1"
           d="m 0,340.62 138.19,0 0,-44.51 -138.19,0 0,44.51 z"
           inkscape:connector-curvature="0"
           style="fill:#f2f2f2;stroke:#686868;stroke-width:1.45353425;stroke-linecap:butt" />
      </g>
      <g
         transform="matrix(1.0744958,0,0,0.96108575,149.23398,60.268552)"
         v:groupContext="shape"
         v:mID="74"
         id="shape74-72"
         style="font-size:12px;fill:none;stroke-linecap:square;stroke-miterlimit:3">
        <title
           id="title3877">Sheet.74</title>
        <v:userDefs>
          <v:ud
             v:val="VT4(Heading)"
             v:prompt=""
             v:nameU="msvStructureType" />
          <v:ud
             v:val="VT4(Bottom)"
             v:prompt=""
             v:nameU="msvSDContainerHeadingEdge" />
          <v:ud
             v:val="VT0(0):5"
             v:prompt=""
             v:nameU="StereoType" />
          <v:ud
             v:val="VT0(0.22227273084852):1"
             v:prompt=""
             v:nameU="StereoTypeHgt" />
          <v:ud
             v:val="VT0(0):5"
             v:prompt=""
             v:nameU="TemplateParm" />
          <v:ud
             v:val="VT0(0):1"
             v:prompt=""
             v:nameU="TemplateParmHgt" />
          <v:ud
             v:val="VT0(0):26"
             v:prompt=""
             v:nameU="EmblOffset" />
          <v:ud
             v:val="VT0(0):26"
             v:prompt=""
             v:nameU="Spacer" />
          <v:ud
             v:val="VT0(0.43616263699002):1"
             v:prompt=""
             v:nameU="UsableHgt" />
          <v:ud
             v:val="VT4(ClassName)"
             v:prompt=""
             v:nameU="UmlRole" />
          <v:ud
             v:val="VT4(AndSpecification)"
             v:prompt=""
             v:nameU="UmlRole" />
        </v:userDefs>
        <path
           id="path3879"
           class="st2"
           d="m 0,340.62 138.19,0 0,-31.4 -138.19,0 0,31.4 z"
           inkscape:connector-curvature="0"
           style="fill:#7e7e7e;stroke:#686868;stroke-width:1.53757513;stroke-linecap:butt" />
      </g>
      <g
         transform="matrix(1.0744958,0,0,0.96108575,149.23398,103.04763)"
         v:groupContext="groupContent"
         v:mID="72"
         id="shape72-75"
         style="font-size:12px;fill:none;stroke-linecap:square;stroke-miterlimit:3">
        <v:textBlock
           v:tabSpace="42.5197"
           v:margins="rect(8.5,4,8.5,4)" />
        <v:textRect
           height="31.4037"
           width="138.19"
           cy="280.407"
           cx="69.0945" />
        <text
           id="text3887"
           v:langID="1045"
           class="st10"
           y="284.01001"
           x="4"
           style="fill:#ffffff;font-family:Segoe UI Semilight"><v:paragraph />
<v:tabList />
AndSpecification</text>
      </g>
      <g
         id="shape77-77"
         v:mID="77"
         v:groupContext="shape"
         transform="matrix(1.0744958,0,0,0.96108575,151.63823,90.710015)"
         style="font-size:12px;fill:none;stroke-linecap:square;stroke-miterlimit:3">
        <title
           id="title3890">Separator.77</title>
        <v:userDefs>
          <v:ud
             v:nameU="msvShapeCategories"
             v:prompt=""
             v:val="VT4(Separator)" />
          <v:ud
             v:nameU="ContainerMargin"
             v:prompt=""
             v:val="VT0(0):26" />
          <v:ud
             v:nameU="ItemIndex"
             v:prompt=""
             v:val="VT0(-1):26" />
          <v:ud
             v:nameU="visVersion"
             v:prompt=""
             v:val="VT0(15):26" />
          <v:ud
             v:nameU="ContainerMargin"
             v:prompt=""
             v:val="VT0(0.039370078740157):24" />
          <v:ud
             v:nameU="ItemIndex"
             v:prompt=""
             v:val="VT0(2):26" />
        </v:userDefs>
        <path
           style="fill:#ffffff"
           inkscape:connector-curvature="0"
           d="m 0,339.2 132.52,0 -132.52,0 z"
           class="st11"
           id="path3892" />
        <path
           style="stroke:#686868;stroke-width:1.2300601;stroke-linecap:butt;stroke-dasharray:2.4601201, 1.23006005"
           inkscape:connector-curvature="0"
           d="m 0,339.2 132.52,0"
           class="st12"
           id="path3894" />
      </g>
      <g
         id="shape78-80"
         v:mID="78"
         v:groupContext="shape"
         transform="matrix(1.0744958,0,0,0.96108575,150.0916,105.1699)"
         style="font-size:12px;fill:none;stroke-linecap:square;stroke-miterlimit:3">
        <title
           id="title3897">Member.78</title>
        <desc
           id="desc3899">+ IsSatisfied(T)</desc>
        <v:userDefs>
          <v:ud
             v:nameU="msvShapeCategories"
             v:prompt=""
             v:val="VT4(Member)" />
          <v:ud
             v:nameU="MemberName"
             v:prompt=""
             v:val="VT4(-memberName)" />
          <v:ud
             v:nameU="ContainerMargin"
             v:prompt=""
             v:val="VT0(0):26" />
          <v:ud
             v:nameU="WidthMin"
             v:prompt=""
             v:val="VT0(0):26" />
          <v:ud
             v:nameU="UserWidth"
             v:prompt=""
             v:val="VT0(1.8897637795276):24" />
          <v:ud
             v:nameU="DarkerColor"
             v:prompt=""
             v:val="VT5(0)" />
          <v:ud
             v:nameU="DarkColor"
             v:prompt=""
             v:val="VT5(0)" />
          <v:ud
             v:nameU="BackFillColor"
             v:prompt=""
             v:val="VT5(1)" />
          <v:ud
             v:nameU="BackLineColor"
             v:prompt=""
             v:val="VT5(0)" />
          <v:ud
             v:nameU="IsInstance"
             v:prompt=""
             v:val="VT0(0):5" />
          <v:ud
             v:nameU="visVersion"
             v:prompt=""
             v:val="VT0(15):26" />
          <v:ud
             v:nameU="MemberName"
             v:prompt=""
             v:val="VT4(+ IsSatisfied(T))" />
          <v:ud
             v:nameU="ContainerMargin"
             v:prompt=""
             v:val="VT0(0.039370078740157):24" />
          <v:ud
             v:nameU="WidthMin"
             v:prompt=""
             v:val="VT0(0):26" />
          <v:ud
             v:nameU="DarkerColor"
             v:prompt=""
             v:val="VT5(#696969)" />
          <v:ud
             v:nameU="DarkColor"
             v:prompt=""
             v:val="VT5(#696969)" />
          <v:ud
             v:nameU="BackFillColor"
             v:prompt=""
             v:val="VT5(#f2f2f2)" />
          <v:ud
             v:nameU="BackLineColor"
             v:prompt=""
             v:val="VT5(#696969)" />
          <v:ud
             v:nameU="IsInstance"
             v:prompt=""
             v:val="VT0(1):5" />
        </v:userDefs>
        <v:textBlock
           v:margins="rect(0,0,0,8.50394)"
           v:tabSpace="42.5197" />
        <v:textRect
           cx="66.2598"
           cy="334.618"
           width="132.52"
           height="12.0036" />
        <rect
           style="fill:#7e7e7e;fill-opacity:0"
           x="0"
           y="328.616"
           width="132.52"
           height="12.0036"
           class="st5"
           id="rect3901" />
        <rect
           style="stroke:none;visibility:hidden"
           x="0"
           y="328.616"
           width="132.52"
           height="12.0036"
           class="st6"
           id="rect3903" />
        <text
           style="fill:#686868;font-family:Segoe UI Semilight"
           x="8.5"
           y="337.62"
           class="st7"
           v:langID="1045"
           id="text3905"><v:paragraph />
<v:tabList />
+ IsSatisfied(T)</text>
      </g>
      <rect
         id="rect3912"
         class="st5"
         height="23.069614"
         width="142.39218"
         y="390.35757"
         x="152.27986"
         style="font-size:12px;fill:#7e7e7e;fill-opacity:0;stroke:none" />
      <rect
         id="rect3914"
         class="st6"
         height="23.069614"
         width="142.39218"
         y="390.35757"
         x="152.27986"
         style="font-size:12px;fill:none;stroke:none;visibility:hidden" />
      <text
         sodipodi:linespacing="125%"
         transform="scale(1.0573562,0.94575509)"
         id="text3916"
         v:langID="1045"
         class="st7"
         y="421.89694"
         x="151.44365"
         style="font-size:12.19451904px;font-style:normal;font-variant:normal;font-weight:300;font-stretch:normal;text-align:start;line-height:125%;writing-mode:lr-tb;text-anchor:start;fill:#686868;stroke:none;font-family:Segoe UI Semilight;-inkscape-font-specification:Segoe UI Semilight Light">
        <tspan
           y="421.89694"
           x="151.44365"
           sodipodi:role="line"
           id="tspan5345">- leftSpecification</tspan>
        <tspan
           y="437.14008"
           x="151.44365"
           sodipodi:role="line"
           id="tspan5347">- rightSpecification</tspan>
      </text>
      <g
         id="group90-109"
         transform="matrix(1.0744957,0,0,0.96108575,510.92414,91.514602)"
         v:mID="90"
         v:groupContext="group"
         style="font-size:12px;fill:none;stroke-linecap:square;stroke-miterlimit:3">
        <v:userDefs>
          <v:ud
             v:nameU="msvStructureType"
             v:prompt=""
             v:val="VT4(List)" />
          <v:ud
             v:nameU="msvSDContainerResize"
             v:prompt=""
             v:val="VT0(2):26" />
          <v:ud
             v:nameU="msvSDContainerNoRibbon"
             v:prompt=""
             v:val="VT0(1):5" />
          <v:ud
             v:nameU="msvSDListAlignment"
             v:prompt=""
             v:val="VT0(0):26" />
          <v:ud
             v:nameU="msvSDListDirection"
             v:prompt=""
             v:val="VT0(2):26" />
          <v:ud
             v:nameU="msvSDListItemMaster1"
             v:prompt=""
             v:val="VT0(254):26" />
          <v:ud
             v:nameU="msvSDListItemMaster2"
             v:prompt=""
             v:val="VT0(254):26" />
          <v:ud
             v:nameU="msvSDListItemMaster3"
             v:prompt=""
             v:val="VT0(254):26" />
          <v:ud
             v:nameU="msvSDListRequiredCategories"
             v:prompt=""
             v:val="VT4(Member;Separator)" />
          <v:ud
             v:nameU="msvSDContainerMargin"
             v:prompt=""
             v:val="VT0(0.039370078740157):24" />
          <v:ud
             v:nameU="msvSDListSpacing"
             v:prompt=""
             v:val="VT0(0):26" />
          <v:ud
             v:nameU="TemplateParm"
             v:prompt=""
             v:val="VT0(0):5" />
          <v:ud
             v:nameU="TemplateParmHgt"
             v:prompt=""
             v:val="VT0(0):1" />
          <v:ud
             v:nameU="StereoType"
             v:prompt=""
             v:val="VT0(0):5" />
          <v:ud
             v:nameU="StereoTypeHgt"
             v:prompt=""
             v:val="VT0(0.22227273084852):1" />
          <v:ud
             v:nameU="TextOffset"
             v:prompt=""
             v:val="VT0(0):26" />
          <v:ud
             v:nameU="WidthMin"
             v:prompt=""
             v:val="VT0(0):26" />
          <v:ud
             v:nameU="EntityName"
             v:prompt=""
             v:val="VT4(ClassName)" />
          <v:ud
             v:nameU="HdrHgt"
             v:prompt=""
             v:val="VT0(0.43616263699002):1" />
          <v:ud
             v:nameU="BackGrnd"
             v:prompt=""
             v:val="VT5(#f2f2f2)" />
          <v:ud
             v:nameU="BackGrndLine"
             v:prompt=""
             v:val="VT5(0)" />
          <v:ud
             v:nameU="Test"
             v:prompt=""
             v:val="VT0(0):5" />
          <v:ud
             v:nameU="visVersion"
             v:prompt=""
             v:val="VT0(15):26" />
          <v:ud
             v:nameU="WidthMin"
             v:prompt=""
             v:val="VT0(1.3072585953748):1" />
          <v:ud
             v:nameU="EntityName"
             v:prompt=""
             v:val="VT4(NotSpecification)" />
          <v:ud
             v:nameU="BackGrndLine"
             v:prompt=""
             v:val="VT5(#696969)" />
        </v:userDefs>
        <title
           id="title3975">Class.90</title>
        <desc
           id="desc3977">NotSpecification</desc>
        <g
           id="shape91-110"
           v:mID="91"
           v:groupContext="shape">
          <title
             id="title3980">Sheet.91</title>
          <v:userDefs>
            <v:ud
               v:nameU="DOPS"
               v:prompt=""
               v:val="VT0(1):27" />
            <v:ud
               v:nameU="HdrHgt"
               v:prompt=""
               v:val="VT0(0.43616263699002):1" />
            <v:ud
               v:nameU="EmblOffset"
               v:prompt=""
               v:val="VT0(0):26" />
            <v:ud
               v:nameU="Spacer"
               v:prompt=""
               v:val="VT0(0):26" />
          </v:userDefs>
          <path
             style="fill:#f2f2f2;stroke:#686868;stroke-width:1.53757513;stroke-linecap:butt"
             inkscape:connector-curvature="0"
             d="m 0,340.62 138.19,0 0,-32.51 -138.19,0 0,32.51 z"
             class="st1"
             id="path3982" />
        </g>
        <g
           id="shape92-112"
           v:mID="92"
           v:groupContext="shape"
           transform="translate(0,-32.5112)">
          <title
             id="title3985">Sheet.92</title>
          <v:userDefs>
            <v:ud
               v:nameU="msvStructureType"
               v:prompt=""
               v:val="VT4(Heading)" />
            <v:ud
               v:nameU="msvSDContainerHeadingEdge"
               v:prompt=""
               v:val="VT4(Bottom)" />
            <v:ud
               v:nameU="StereoType"
               v:prompt=""
               v:val="VT0(0):5" />
            <v:ud
               v:nameU="StereoTypeHgt"
               v:prompt=""
               v:val="VT0(0.22227273084852):1" />
            <v:ud
               v:nameU="TemplateParm"
               v:prompt=""
               v:val="VT0(0):5" />
            <v:ud
               v:nameU="TemplateParmHgt"
               v:prompt=""
               v:val="VT0(0):1" />
            <v:ud
               v:nameU="EmblOffset"
               v:prompt=""
               v:val="VT0(0):26" />
            <v:ud
               v:nameU="Spacer"
               v:prompt=""
               v:val="VT0(0):26" />
            <v:ud
               v:nameU="UsableHgt"
               v:prompt=""
               v:val="VT0(0.43616263699002):1" />
            <v:ud
               v:nameU="UmlRole"
               v:prompt=""
               v:val="VT4(ClassName)" />
            <v:ud
               v:nameU="UmlRole"
               v:prompt=""
               v:val="VT4(NotSpecification)" />
          </v:userDefs>
          <path
             style="fill:#7e7e7e;stroke:#686868;stroke-width:1.53757513;stroke-linecap:butt"
             inkscape:connector-curvature="0"
             d="m 0,340.62 138.19,0 0,-31.4 -138.19,0 0,31.4 z"
             class="st2"
             id="path3987" />
        </g>
        <g
           id="shape94-114"
           v:mID="94"
           v:groupContext="shape"
           transform="translate(129.685,-63.9149)">
          <title
             id="title3990">Sheet.94</title>
          <desc
             id="desc3992">parameter</desc>
          <v:userDefs>
            <v:ud
               v:nameU="TemplateParm"
               v:prompt=""
               v:val="VT0(0):5" />
            <v:ud
               v:nameU="DOPS"
               v:prompt=""
               v:val="VT0(1):27" />
            <v:ud
               v:nameU="Rounding"
               v:prompt=""
               v:val="VT0(0.11811023622047):24" />
            <v:ud
               v:nameU="UmlRole"
               v:prompt=""
               v:val="VT4(parameter)" />
          </v:userDefs>
          <v:textBlock
             v:margins="rect(2,4,2,4)"
             v:tabSpace="42.5197" />
          <v:textRect
             cx="0"
             cy="340.62"
             width="0"
             height="0" />
        </g>
        <g
           id="shape90-115"
           v:mID="90"
           v:groupContext="groupContent">
          <v:textBlock
             v:margins="rect(8.5,4,8.5,4)"
             v:tabSpace="42.5197" />
          <v:textRect
             cx="69.0945"
             cy="292.407"
             width="138.19"
             height="31.4037" />
          <text
             style="fill:#ffffff;font-family:Segoe UI Semilight"
             x="4"
             y="296.01001"
             class="st10"
             v:langID="1045"
             id="text3995"><v:paragraph />
<v:tabList />
NotSpecification</text>
        </g>
      </g>
      <g
         id="shape95-117"
         v:mID="95"
         v:groupContext="shape"
         transform="matrix(1.0744957,0,0,0.96108575,513.9703,77.253725)"
         style="font-size:12px;fill:none;stroke-linecap:square;stroke-miterlimit:3">
        <title
           id="title3998">Separator.95</title>
        <v:userDefs>
          <v:ud
             v:nameU="msvShapeCategories"
             v:prompt=""
             v:val="VT4(Separator)" />
          <v:ud
             v:nameU="ContainerMargin"
             v:prompt=""
             v:val="VT0(0):26" />
          <v:ud
             v:nameU="ItemIndex"
             v:prompt=""
             v:val="VT0(-1):26" />
          <v:ud
             v:nameU="visVersion"
             v:prompt=""
             v:val="VT0(15):26" />
          <v:ud
             v:nameU="ContainerMargin"
             v:prompt=""
             v:val="VT0(0.039370078740157):24" />
          <v:ud
             v:nameU="ItemIndex"
             v:prompt=""
             v:val="VT0(2):26" />
        </v:userDefs>
        <path
           style="fill:#ffffff"
           inkscape:connector-curvature="0"
           d="m 0,339.2 132.52,0 -132.52,0 z"
           class="st11"
           id="path4000" />
        <path
           style="stroke:#686868;stroke-width:1.2300601;stroke-linecap:butt;stroke-dasharray:2.4601201, 1.23006005"
           inkscape:connector-curvature="0"
           d="m 0,339.2 132.52,0"
           class="st12"
           id="path4002" />
      </g>
      <g
         id="shape96-120"
         v:mID="96"
         v:groupContext="shape"
         transform="matrix(1.0744957,0,0,0.96108575,513.9703,88.790208)"
         style="font-size:12px;fill:none;stroke-linecap:square;stroke-miterlimit:3">
        <title
           id="title4005">Member.96</title>
        <desc
           id="desc4007">+ IsSatisfied(T)</desc>
        <v:userDefs>
          <v:ud
             v:nameU="msvShapeCategories"
             v:prompt=""
             v:val="VT4(Member)" />
          <v:ud
             v:nameU="MemberName"
             v:prompt=""
             v:val="VT4(-memberName)" />
          <v:ud
             v:nameU="ContainerMargin"
             v:prompt=""
             v:val="VT0(0):26" />
          <v:ud
             v:nameU="WidthMin"
             v:prompt=""
             v:val="VT0(0):26" />
          <v:ud
             v:nameU="UserWidth"
             v:prompt=""
             v:val="VT0(1.8897637795276):24" />
          <v:ud
             v:nameU="DarkerColor"
             v:prompt=""
             v:val="VT5(0)" />
          <v:ud
             v:nameU="DarkColor"
             v:prompt=""
             v:val="VT5(0)" />
          <v:ud
             v:nameU="BackFillColor"
             v:prompt=""
             v:val="VT5(1)" />
          <v:ud
             v:nameU="BackLineColor"
             v:prompt=""
             v:val="VT5(0)" />
          <v:ud
             v:nameU="IsInstance"
             v:prompt=""
             v:val="VT0(0):5" />
          <v:ud
             v:nameU="visVersion"
             v:prompt=""
             v:val="VT0(15):26" />
          <v:ud
             v:nameU="MemberName"
             v:prompt=""
             v:val="VT4(+ IsSatisfied(T))" />
          <v:ud
             v:nameU="ContainerMargin"
             v:prompt=""
             v:val="VT0(0.039370078740157):24" />
          <v:ud
             v:nameU="WidthMin"
             v:prompt=""
             v:val="VT0(0):26" />
          <v:ud
             v:nameU="DarkerColor"
             v:prompt=""
             v:val="VT5(#696969)" />
          <v:ud
             v:nameU="DarkColor"
             v:prompt=""
             v:val="VT5(#696969)" />
          <v:ud
             v:nameU="BackFillColor"
             v:prompt=""
             v:val="VT5(#f2f2f2)" />
          <v:ud
             v:nameU="BackLineColor"
             v:prompt=""
             v:val="VT5(#696969)" />
          <v:ud
             v:nameU="IsInstance"
             v:prompt=""
             v:val="VT0(1):5" />
        </v:userDefs>
        <v:textBlock
           v:margins="rect(0,0,0,8.50394)"
           v:tabSpace="42.5197" />
        <v:textRect
           cx="66.2598"
           cy="334.618"
           width="132.52"
           height="12.0036" />
        <rect
           style="fill:#7e7e7e;fill-opacity:0"
           x="0"
           y="328.616"
           width="132.52"
           height="12.0036"
           class="st5"
           id="rect4009" />
        <rect
           style="stroke:none;visibility:hidden"
           x="0"
           y="328.616"
           width="132.52"
           height="12.0036"
           class="st6"
           id="rect4011" />
        <text
           style="fill:#686868;font-family:Segoe UI Semilight"
           x="8.5"
           y="338.75842"
           class="st7"
           v:langID="1045"
           id="text4013"><v:paragraph />
<v:tabList />
+ IsSatisfied(T)</text>
      </g>
      <g
         id="shape97-124"
         v:mID="97"
         v:groupContext="shape"
         transform="matrix(1.0744957,0,0,0.96108575,513.9703,74.529331)"
         style="font-size:12px;fill:none;stroke:none">
        <title
           id="title4016">Member.97</title>
        <desc
           id="desc4018">- InnerSpecification</desc>
        <v:userDefs>
          <v:ud
             v:nameU="msvShapeCategories"
             v:prompt=""
             v:val="VT4(Member)" />
          <v:ud
             v:nameU="MemberName"
             v:prompt=""
             v:val="VT4(-memberName)" />
          <v:ud
             v:nameU="ContainerMargin"
             v:prompt=""
             v:val="VT0(0):26" />
          <v:ud
             v:nameU="WidthMin"
             v:prompt=""
             v:val="VT0(0):26" />
          <v:ud
             v:nameU="UserWidth"
             v:prompt=""
             v:val="VT0(1.8897637795276):24" />
          <v:ud
             v:nameU="DarkerColor"
             v:prompt=""
             v:val="VT5(0)" />
          <v:ud
             v:nameU="DarkColor"
             v:prompt=""
             v:val="VT5(0)" />
          <v:ud
             v:nameU="BackFillColor"
             v:prompt=""
             v:val="VT5(1)" />
          <v:ud
             v:nameU="BackLineColor"
             v:prompt=""
             v:val="VT5(0)" />
          <v:ud
             v:nameU="IsInstance"
             v:prompt=""
             v:val="VT0(0):5" />
          <v:ud
             v:nameU="visVersion"
             v:prompt=""
             v:val="VT0(15):26" />
          <v:ud
             v:nameU="MemberName"
             v:prompt=""
             v:val="VT4(- InnerSpecification)" />
          <v:ud
             v:nameU="ContainerMargin"
             v:prompt=""
             v:val="VT0(0.039370078740157):24" />
          <v:ud
             v:nameU="WidthMin"
             v:prompt=""
             v:val="VT0(0):26" />
          <v:ud
             v:nameU="DarkerColor"
             v:prompt=""
             v:val="VT5(#696969)" />
          <v:ud
             v:nameU="DarkColor"
             v:prompt=""
             v:val="VT5(#696969)" />
          <v:ud
             v:nameU="BackFillColor"
             v:prompt=""
             v:val="VT5(#f2f2f2)" />
          <v:ud
             v:nameU="BackLineColor"
             v:prompt=""
             v:val="VT5(#696969)" />
          <v:ud
             v:nameU="IsInstance"
             v:prompt=""
             v:val="VT0(1):5" />
        </v:userDefs>
        <v:textBlock
           v:margins="rect(0,0,0,8.50394)"
           v:tabSpace="42.5197" />
        <v:textRect
           cx="66.2598"
           cy="334.618"
           width="132.52"
           height="12.0036" />
        <rect
           style="fill:#7e7e7e;fill-opacity:0;stroke:none"
           x="0"
           y="328.616"
           width="132.52"
           height="12.0036"
           class="st5"
           id="rect4020" />
        <rect
           style="stroke:none;visibility:hidden"
           x="0"
           y="328.616"
           width="132.52"
           height="12.0036"
           class="st6"
           id="rect4022" />
        <text
           style="fill:#686868;stroke:none;font-family:Segoe UI Semilight"
           x="8.5"
           y="337.62"
           class="st7"
           v:langID="1045"
           id="text4024"><v:paragraph />
<v:tabList />
- InnerSpecification</text>
      </g>
      <g
         id="group100-128"
         transform="matrix(1.0744957,0,0,0.96108575,223.47608,30.086803)"
         v:mID="100"
         v:groupContext="group"
         v:layerMember="0"
         style="font-size:12px;fill:none;stroke-linecap:square;stroke-miterlimit:3">
        <v:userDefs>
          <v:ud
             v:nameU="visVersion"
             v:prompt=""
             v:val="VT0(15):26" />
          <v:ud
             v:nameU="RelationshipName"
             v:prompt=""
             v:val="VT4()" />
          <v:ud
             v:nameU="ShowMulti"
             v:prompt=""
             v:val="VT0(0):26" />
          <v:ud
             v:nameU="Identifying"
             v:prompt=""
             v:val="VT0(1):26" />
          <v:ud
             v:nameU="DXBegin"
             v:prompt=""
             v:val="VT0(0):1" />
          <v:ud
             v:nameU="DYBegin"
             v:prompt=""
             v:val="VT0(-0.029527559055118):1" />
          <v:ud
             v:nameU="DXEnd"
             v:prompt=""
             v:val="VT0(0.029527559055118):1" />
          <v:ud
             v:nameU="DYEnd"
             v:prompt=""
             v:val="VT0(0):1" />
          <v:ud
             v:nameU="BeginAngle"
             v:prompt=""
             v:val="VT0(-1.5707963267949):32" />
          <v:ud
             v:nameU="EndAngle"
             v:prompt=""
             v:val="VT0(0):32" />
          <v:ud
             v:nameU="DYBegin"
             v:prompt=""
             v:val="VT0(0.043693000421273):1" />
          <v:ud
             v:nameU="DXEnd"
             v:prompt=""
             v:val="VT0(0):1" />
          <v:ud
             v:nameU="DYEnd"
             v:prompt=""
             v:val="VT0(0.043693000421274):1" />
          <v:ud
             v:nameU="BeginAngle"
             v:prompt=""
             v:val="VT0(1.5707963267949):32" />
          <v:ud
             v:nameU="EndAngle"
             v:prompt=""
             v:val="VT0(1.5707963267949):32" />
        </v:userDefs>
        <title
           id="title4027">Inheritance</title>
        <g
           id="shape100-129"
           v:mID="100"
           v:groupContext="groupContent"
           v:layerMember="0">
          <path
             style="stroke:#686868;stroke-width:1.2300601;stroke-linecap:butt;marker-end:url(#mrkr14-134)"
             inkscape:connector-curvature="0"
             d="m 0,340.62 0,-18 170.08,0 0,-11.09"
             class="st13"
             id="path4030" />
        </g>
      </g>
      <g
         id="group105-135"
         transform="matrix(1.0744957,0,0,0.96108575,398.61031,30.086803)"
         v:mID="105"
         v:groupContext="group"
         v:layerMember="0"
         style="font-size:12px;fill:none;stroke-linecap:square;stroke-miterlimit:3">
        <v:userDefs>
          <v:ud
             v:nameU="visVersion"
             v:prompt=""
             v:val="VT0(15):26" />
          <v:ud
             v:nameU="RelationshipName"
             v:prompt=""
             v:val="VT4()" />
          <v:ud
             v:nameU="ShowMulti"
             v:prompt=""
             v:val="VT0(0):26" />
          <v:ud
             v:nameU="Identifying"
             v:prompt=""
             v:val="VT0(1):26" />
          <v:ud
             v:nameU="DXBegin"
             v:prompt=""
             v:val="VT0(0):1" />
          <v:ud
             v:nameU="DYBegin"
             v:prompt=""
             v:val="VT0(-0.029527559055118):1" />
          <v:ud
             v:nameU="DXEnd"
             v:prompt=""
             v:val="VT0(0.029527559055118):1" />
          <v:ud
             v:nameU="DYEnd"
             v:prompt=""
             v:val="VT0(0):1" />
          <v:ud
             v:nameU="BeginAngle"
             v:prompt=""
             v:val="VT0(-1.5707963267949):32" />
          <v:ud
             v:nameU="EndAngle"
             v:prompt=""
             v:val="VT0(0):32" />
          <v:ud
             v:nameU="DYBegin"
             v:prompt=""
             v:val="VT0(0.0082599295338683):1" />
          <v:ud
             v:nameU="DXEnd"
             v:prompt=""
             v:val="VT0(0):1" />
          <v:ud
             v:nameU="DYEnd"
             v:prompt=""
             v:val="VT0(0.0082599295338674):1" />
          <v:ud
             v:nameU="BeginAngle"
             v:prompt=""
             v:val="VT0(1.5707963267948):32" />
          <v:ud
             v:nameU="EndAngle"
             v:prompt=""
             v:val="VT0(1.5707963267949):32" />
        </v:userDefs>
        <title
           id="title4033">Inheritance.105</title>
        <g
           id="shape105-136"
           v:mID="105"
           v:groupContext="groupContent"
           v:layerMember="0">
          <path
             style="stroke:#686868;stroke-width:1.2300601;stroke-linecap:butt;marker-end:url(#mrkr14-134)"
             inkscape:connector-curvature="0"
             d="m 7.09,340.62 0,-29.09"
             class="st13"
             id="path4036" />
        </g>
      </g>
      <g
         id="group110-141"
         transform="matrix(1.0744957,0,0,0.9805785,585.16642,23.447177)"
         v:mID="110"
         v:groupContext="group"
         v:layerMember="0"
         style="font-size:12px;fill:none;stroke-linecap:square;stroke-miterlimit:3">
        <v:userDefs>
          <v:ud
             v:nameU="visVersion"
             v:prompt=""
             v:val="VT0(15):26" />
          <v:ud
             v:nameU="RelationshipName"
             v:prompt=""
             v:val="VT4()" />
          <v:ud
             v:nameU="ShowMulti"
             v:prompt=""
             v:val="VT0(0):26" />
          <v:ud
             v:nameU="Identifying"
             v:prompt=""
             v:val="VT0(1):26" />
          <v:ud
             v:nameU="DXBegin"
             v:prompt=""
             v:val="VT0(0):1" />
          <v:ud
             v:nameU="DYBegin"
             v:prompt=""
             v:val="VT0(-0.029527559055118):1" />
          <v:ud
             v:nameU="DXEnd"
             v:prompt=""
             v:val="VT0(0.029527559055118):1" />
          <v:ud
             v:nameU="DYEnd"
             v:prompt=""
             v:val="VT0(0):1" />
          <v:ud
             v:nameU="BeginAngle"
             v:prompt=""
             v:val="VT0(-1.5707963267949):32" />
          <v:ud
             v:nameU="EndAngle"
             v:prompt=""
             v:val="VT0(0):32" />
          <v:ud
             v:nameU="DYBegin"
             v:prompt=""
             v:val="VT0(0.0428309122767):1" />
          <v:ud
             v:nameU="DXEnd"
             v:prompt=""
             v:val="VT0(0):1" />
          <v:ud
             v:nameU="DYEnd"
             v:prompt=""
             v:val="VT0(0.042830912276701):1" />
          <v:ud
             v:nameU="BeginAngle"
             v:prompt=""
             v:val="VT0(1.5707963267949):32" />
          <v:ud
             v:nameU="EndAngle"
             v:prompt=""
             v:val="VT0(1.5707963267949):32" />
        </v:userDefs>
        <title
           id="title4039">Inheritance.110</title>
        <g
           id="shape110-142"
           v:mID="110"
           v:groupContext="groupContent"
           v:layerMember="0">
          <path
             style="stroke:#686868;stroke-width:1.2177726;stroke-linecap:butt;marker-end:url(#mrkr14-134)"
             inkscape:connector-curvature="0"
             d="m 0,340.62 0,-17.72 -166.54,0 0,-10.77"
             class="st13"
             id="path4042" />
        </g>
      </g>
      <path
         style="font-size:12px;fill:none;stroke:#686868;stroke-width:1.24999917;stroke-linecap:butt;stroke-miterlimit:3;marker-end:url(#mrkr14-134)"
         inkscape:connector-curvature="0"
         d="m 406.22848,234.8567 0,-23.1249"
         class="st13"
         id="path4048" />
      <g
         id="group120-153"
         transform="matrix(1.0375401,0,0,0.96108575,282.48848,-168.58115)"
         v:mID="120"
         v:groupContext="group"
         v:layerMember="0"
         style="font-size:12px;fill:none;stroke-linecap:square;stroke-miterlimit:3">
        <v:userDefs>
          <v:ud
             v:nameU="visVersion"
             v:prompt=""
             v:val="VT0(15):26" />
          <v:ud
             v:nameU="RelationshipName"
             v:prompt=""
             v:val="VT4()" />
          <v:ud
             v:nameU="ShowMulti"
             v:prompt=""
             v:val="VT0(0):26" />
          <v:ud
             v:nameU="Identifying"
             v:prompt=""
             v:val="VT0(1):26" />
          <v:ud
             v:nameU="DXBegin"
             v:prompt=""
             v:val="VT0(0):1" />
          <v:ud
             v:nameU="DYBegin"
             v:prompt=""
             v:val="VT0(-0.029527559055118):1" />
          <v:ud
             v:nameU="DXEnd"
             v:prompt=""
             v:val="VT0(0.029527559055118):1" />
          <v:ud
             v:nameU="DYEnd"
             v:prompt=""
             v:val="VT0(0):1" />
          <v:ud
             v:nameU="BeginAngle"
             v:prompt=""
             v:val="VT0(-1.5707963267949):32" />
          <v:ud
             v:nameU="EndAngle"
             v:prompt=""
             v:val="VT0(0):32" />
          <v:ud
             v:nameU="DXBegin"
             v:prompt=""
             v:val="VT0(0.0096447493787668):1" />
          <v:ud
             v:nameU="DYBegin"
             v:prompt=""
             v:val="VT0(0):1" />
          <v:ud
             v:nameU="DXEnd"
             v:prompt=""
             v:val="VT0(0.0096447493787672):1" />
          <v:ud
             v:nameU="BeginAngle"
             v:prompt=""
             v:val="VT0(0):32" />
        </v:userDefs>
        <title
           id="title4051">Directed Association</title>
        <g
           id="shape120-154"
           v:mID="120"
           v:groupContext="groupContent"
           v:layerMember="0">
          <path
             style="stroke:#686868;stroke-width:1.25177491;stroke-linecap:butt;marker-end:url(#mrkr12-159)"
             inkscape:connector-curvature="0"
             d="m 0,333.65 46.06,-0.23"
             class="st15"
             id="path4054" />
        </g>
      </g>
      <path
         d="m 2459.4363,752.89319 c 0,2.09357 -1.0183,3.79074 -2.2744,3.79074 -1.2562,0 -2.2745,-1.69717 -2.2745,-3.79074 0,-2.09357 1.0183,-3.79075 2.2745,-3.79075 1.2561,0 2.2744,1.69718 2.2744,3.79075 z"
         sodipodi:ry="3.7907465"
         sodipodi:rx="2.2744479"
         sodipodi:cy="752.89319"
         sodipodi:cx="2457.1619"
         id="path5139"
         style="fill:#aade87;fill-opacity:1;stroke:#ffffff;stroke-width:2.36421824;stroke-opacity:1"
         sodipodi:type="arc"
         transform="matrix(0.42314862,0,0,0.4227971,-484.06226,-22.889938)" />
      <g
         transform="matrix(1.0744957,0,0,1.0754352,332.90519,69.752052)"
         v:groupContext="shape"
         v:mID="73"
         id="shape73-70-0"
         style="font-size:12px;fill:none;stroke-linecap:square;stroke-miterlimit:3">
        <title
           id="title3872-5">Sheet.73</title>
        <v:userDefs>
          <v:ud
             v:val="VT0(1):27"
             v:prompt=""
             v:nameU="DOPS" />
          <v:ud
             v:val="VT0(0.43616263699002):1"
             v:prompt=""
             v:nameU="HdrHgt" />
          <v:ud
             v:val="VT0(0):26"
             v:prompt=""
             v:nameU="EmblOffset" />
          <v:ud
             v:val="VT0(0):26"
             v:prompt=""
             v:nameU="Spacer" />
        </v:userDefs>
        <path
           id="path3874-2"
           class="st1"
           d="m 0,340.62 138.19,0 0,-44.51 -138.19,0 0,44.51 z"
           inkscape:connector-curvature="0"
           style="fill:#f2f2f2;stroke:#686868;stroke-width:1.45353425;stroke-linecap:butt" />
      </g>
      <g
         transform="matrix(1.0744957,0,0,0.96108575,332.90519,60.832989)"
         v:groupContext="shape"
         v:mID="74"
         id="shape74-72-6"
         style="font-size:12px;fill:none;stroke-linecap:square;stroke-miterlimit:3">
        <title
           id="title3877-8">Sheet.74</title>
        <v:userDefs>
          <v:ud
             v:val="VT4(Heading)"
             v:prompt=""
             v:nameU="msvStructureType" />
          <v:ud
             v:val="VT4(Bottom)"
             v:prompt=""
             v:nameU="msvSDContainerHeadingEdge" />
          <v:ud
             v:val="VT0(0):5"
             v:prompt=""
             v:nameU="StereoType" />
          <v:ud
             v:val="VT0(0.22227273084852):1"
             v:prompt=""
             v:nameU="StereoTypeHgt" />
          <v:ud
             v:val="VT0(0):5"
             v:prompt=""
             v:nameU="TemplateParm" />
          <v:ud
             v:val="VT0(0):1"
             v:prompt=""
             v:nameU="TemplateParmHgt" />
          <v:ud
             v:val="VT0(0):26"
             v:prompt=""
             v:nameU="EmblOffset" />
          <v:ud
             v:val="VT0(0):26"
             v:prompt=""
             v:nameU="Spacer" />
          <v:ud
             v:val="VT0(0.43616263699002):1"
             v:prompt=""
             v:nameU="UsableHgt" />
          <v:ud
             v:val="VT4(ClassName)"
             v:prompt=""
             v:nameU="UmlRole" />
          <v:ud
             v:val="VT4(AndSpecification)"
             v:prompt=""
             v:nameU="UmlRole" />
        </v:userDefs>
        <path
           id="path3879-5"
           class="st2"
           d="m 0,340.62 138.19,0 0,-31.4 -138.19,0 0,31.4 z"
           inkscape:connector-curvature="0"
           style="fill:#7e7e7e;stroke:#686868;stroke-width:1.53757513;stroke-linecap:butt" />
      </g>
      <g
         transform="matrix(1.0744957,0,0,0.96108575,332.90519,103.61206)"
         v:groupContext="groupContent"
         v:mID="72"
         id="shape72-75-0"
         style="font-size:12px;fill:none;stroke-linecap:square;stroke-miterlimit:3">
        <v:textBlock
           v:tabSpace="42.5197"
           v:margins="rect(8.5,4,8.5,4)" />
        <v:textRect
           height="31.4037"
           width="138.19"
           cy="280.407"
           cx="69.0945" />
        <text
           sodipodi:linespacing="125%"
           id="text3887-3"
           v:langID="1045"
           class="st10"
           y="284.01001"
           x="4"
           style="font-size:12px;font-style:normal;font-variant:normal;font-weight:300;font-stretch:normal;text-align:start;line-height:125%;writing-mode:lr-tb;text-anchor:start;fill:#ffffff;font-family:Segoe UI Semilight;-inkscape-font-specification:Segoe UI Semilight Light">
          <tspan
             id="tspan5343"
             sodipodi:role="line"
             x="4"
             y="284.01001">OrSpecification</tspan>
        </text>
      </g>
      <g
         id="shape77-77-8"
         v:mID="77"
         v:groupContext="shape"
         transform="matrix(1.0744957,0,0,0.96108575,335.30944,91.274456)"
         style="font-size:12px;fill:none;stroke-linecap:square;stroke-miterlimit:3">
        <title
           id="title3890-8">Separator.77</title>
        <v:userDefs>
          <v:ud
             v:nameU="msvShapeCategories"
             v:prompt=""
             v:val="VT4(Separator)" />
          <v:ud
             v:nameU="ContainerMargin"
             v:prompt=""
             v:val="VT0(0):26" />
          <v:ud
             v:nameU="ItemIndex"
             v:prompt=""
             v:val="VT0(-1):26" />
          <v:ud
             v:nameU="visVersion"
             v:prompt=""
             v:val="VT0(15):26" />
          <v:ud
             v:nameU="ContainerMargin"
             v:prompt=""
             v:val="VT0(0.039370078740157):24" />
          <v:ud
             v:nameU="ItemIndex"
             v:prompt=""
             v:val="VT0(2):26" />
        </v:userDefs>
        <path
           style="fill:#ffffff"
           inkscape:connector-curvature="0"
           d="m 0,339.2 132.52,0 -132.52,0 z"
           class="st11"
           id="path3892-8" />
        <path
           style="stroke:#686868;stroke-width:1.2300601;stroke-linecap:butt;stroke-dasharray:2.4601201, 1.23006005"
           inkscape:connector-curvature="0"
           d="m 0,339.2 132.52,0"
           class="st12"
           id="path3894-4" />
      </g>
      <g
         id="shape78-80-4"
         v:mID="78"
         v:groupContext="shape"
         transform="matrix(1.0744957,0,0,0.96108575,334.30987,106.28141)"
         style="font-size:12px;fill:none;stroke-linecap:square;stroke-miterlimit:3">
        <title
           id="title3897-6">Member.78</title>
        <desc
           id="desc3899-2">+ IsSatisfied(T)</desc>
        <v:userDefs>
          <v:ud
             v:nameU="msvShapeCategories"
             v:prompt=""
             v:val="VT4(Member)" />
          <v:ud
             v:nameU="MemberName"
             v:prompt=""
             v:val="VT4(-memberName)" />
          <v:ud
             v:nameU="ContainerMargin"
             v:prompt=""
             v:val="VT0(0):26" />
          <v:ud
             v:nameU="WidthMin"
             v:prompt=""
             v:val="VT0(0):26" />
          <v:ud
             v:nameU="UserWidth"
             v:prompt=""
             v:val="VT0(1.8897637795276):24" />
          <v:ud
             v:nameU="DarkerColor"
             v:prompt=""
             v:val="VT5(0)" />
          <v:ud
             v:nameU="DarkColor"
             v:prompt=""
             v:val="VT5(0)" />
          <v:ud
             v:nameU="BackFillColor"
             v:prompt=""
             v:val="VT5(1)" />
          <v:ud
             v:nameU="BackLineColor"
             v:prompt=""
             v:val="VT5(0)" />
          <v:ud
             v:nameU="IsInstance"
             v:prompt=""
             v:val="VT0(0):5" />
          <v:ud
             v:nameU="visVersion"
             v:prompt=""
             v:val="VT0(15):26" />
          <v:ud
             v:nameU="MemberName"
             v:prompt=""
             v:val="VT4(+ IsSatisfied(T))" />
          <v:ud
             v:nameU="ContainerMargin"
             v:prompt=""
             v:val="VT0(0.039370078740157):24" />
          <v:ud
             v:nameU="WidthMin"
             v:prompt=""
             v:val="VT0(0):26" />
          <v:ud
             v:nameU="DarkerColor"
             v:prompt=""
             v:val="VT5(#696969)" />
          <v:ud
             v:nameU="DarkColor"
             v:prompt=""
             v:val="VT5(#696969)" />
          <v:ud
             v:nameU="BackFillColor"
             v:prompt=""
             v:val="VT5(#f2f2f2)" />
          <v:ud
             v:nameU="BackLineColor"
             v:prompt=""
             v:val="VT5(#696969)" />
          <v:ud
             v:nameU="IsInstance"
             v:prompt=""
             v:val="VT0(1):5" />
        </v:userDefs>
        <v:textBlock
           v:margins="rect(0,0,0,8.50394)"
           v:tabSpace="42.5197" />
        <v:textRect
           cx="66.2598"
           cy="334.618"
           width="132.52"
           height="12.0036" />
        <rect
           style="fill:#7e7e7e;fill-opacity:0"
           x="0"
           y="328.616"
           width="132.52"
           height="12.0036"
           class="st5"
           id="rect3901-5" />
        <rect
           style="stroke:none;visibility:hidden"
           x="0"
           y="328.616"
           width="132.52"
           height="12.0036"
           class="st6"
           id="rect3903-1" />
        <text
           style="fill:#686868;font-family:Segoe UI Semilight"
           x="8.5"
           y="337.62"
           class="st7"
           v:langID="1045"
           id="text3905-6"><v:paragraph />
<v:tabList />
+ IsSatisfied(T)</text>
      </g>
      <rect
         id="rect3912-8"
         class="st5"
         height="23.069614"
         width="142.39218"
         y="390.92206"
         x="335.95105"
         style="font-size:12px;fill:#7e7e7e;fill-opacity:0;stroke:none" />
      <rect
         id="rect3914-3"
         class="st6"
         height="23.069614"
         width="142.39218"
         y="390.92206"
         x="335.95105"
         style="font-size:12px;fill:none;stroke:none;visibility:hidden" />
      <text
         sodipodi:linespacing="125%"
         transform="scale(1.0573562,0.94575511)"
         id="text3916-8"
         v:langID="1045"
         class="st7"
         y="422.49374"
         x="325.15161"
         style="font-size:12.19451904px;font-style:normal;font-variant:normal;font-weight:300;font-stretch:normal;text-align:start;line-height:125%;writing-mode:lr-tb;text-anchor:start;fill:#686868;stroke:none;font-family:Segoe UI Semilight;-inkscape-font-specification:Segoe UI Semilight Light">
        <tspan
           id="tspan5351"
           sodipodi:role="line"
           x="325.15161"
           y="422.49374">- leftSpecification</tspan>
        <tspan
           id="tspan5353"
           sodipodi:role="line"
           x="325.15161"
           y="437.73688">- rightSpecification</tspan>
      </text>
      <path
         transform="translate(85.878823,-3.1582028)"
         inkscape:transform-center-y="-1.6025784"
         d="m 325.86613,219.49388 -11.10299,0 5.5515,-9.61547 z"
         inkscape:randomized="0"
         inkscape:rounded="0"
         inkscape:flatsided="true"
         sodipodi:arg2="1.5707963"
         sodipodi:arg1="0.52359878"
         sodipodi:r2="3.2051568"
         sodipodi:r1="6.4103136"
         sodipodi:cy="216.28873"
         sodipodi:cx="320.31464"
         sodipodi:sides="3"
         id="path6450"
         style="fill:#ffffff;stroke:#666666"
         sodipodi:type="star" />
      <path
         transform="translate(85.878834,115.17641)"
         inkscape:transform-center-y="-1.6025784"
         d="m 325.86613,219.49388 -11.10299,0 5.5515,-9.61547 z"
         inkscape:randomized="0"
         inkscape:rounded="0"
         inkscape:flatsided="true"
         sodipodi:arg2="1.5707963"
         sodipodi:arg1="0.52359878"
         sodipodi:r2="3.2051568"
         sodipodi:r1="6.4103136"
         sodipodi:cy="216.28873"
         sodipodi:cx="320.31464"
         sodipodi:sides="3"
         id="path6450-3"
         style="fill:#ffffff;stroke:#666666"
         sodipodi:type="star" />
      <path
         inkscape:connector-curvature="0"
         id="path6450-9"
         d="m 321.74478,157.14837 8.65349,-5.17405 -8.65259,-5.17351"
         style="fill:none;stroke:#666666;stroke-width:1" />
    </g>
  </g>
</svg>
