<?xml version="1.0" encoding="UTF-8" standalone="no"?>
<!DOCTYPE svg PUBLIC "-//W3C//DTD SVG 1.1//EN" "http://www.w3.org/Graphics/SVG/1.1/DTD/svg11.dtd">
<!-- Generated by Microsoft Visio, SVG Export value-objects.svg Page-1 -->
<svg xmlns="http://www.w3.org/2000/svg" xmlns:xlink="http://www.w3.org/1999/xlink" xmlns:ev="http://www.w3.org/2001/xml-events"
		xmlns:v="http://schemas.microsoft.com/visio/2003/SVGExtensions/" width="5.16366in" height="2.13681in"
		viewBox="0 0 371.783 153.85" xml:space="preserve" color-interpolation-filters="sRGB" class="st14">
	<v:documentProperties v:langID="1033" v:metric="true" v:viewMarkup="false"/>

	<style type="text/css">
	<![CDATA[
		.st1 {visibility:visible}
		.st2 {fill:#5b9bd5;fill-opacity:0.22;filter:url(#filter_2);stroke:#5b9bd5;stroke-opacity:0.22}
		.st3 {fill:#5b9bd5;stroke:#c7c8c8;stroke-width:0.25}
		.st4 {fill:#feffff;font-family:Calibri;font-size:1.5em}
		.st5 {font-size:1em}
		.st6 {fill:none;stroke:none;stroke-width:0.25}
		.st7 {fill:#5b9bd5;font-family:Calibri;font-size:1.16666em}
		.st8 {fill:#7b7b7b;stroke:#c7c8c8;stroke-width:0.25}
		.st9 {marker-end:url(#mrkr4-31);stroke:#5b9bd5;stroke-linecap:round;stroke-linejoin:round;stroke-width:1}
		.st10 {fill:#5b9bd5;fill-opacity:1;stroke:#5b9bd5;stroke-opacity:1;stroke-width:0.28409090909091}
		.st11 {fill:#ffffff;stroke:none;stroke-linecap:butt;stroke-width:7.2}
		.st12 {fill:#4f87bb;font-family:Calibri;font-size:1.00001em}
		.st13 {marker-end:url(#mrkr4-39);stroke:#5b9bd5;stroke-linecap:round;stroke-linejoin:round;stroke-width:1}
		.st14 {fill:none;fill-rule:evenodd;font-size:12px;overflow:visible;stroke-linecap:square;stroke-miterlimit:3}
	]]>
	</style>

	<defs id="Markers">
		<g id="lend4">
			<path d="M 2 1 L 0 0 L 2 -1 L 2 1 " style="stroke:none"/>
		</g>
		<marker id="mrkr4-31" class="st10" v:arrowType="4" v:arrowSize="2" v:setback="7.04" refX="-7.04" orient="auto"
				markerUnits="strokeWidth" overflow="visible">
			<use xlink:href="#lend4" transform="scale(-3.52,-3.52) "/>
		</marker>
		<marker id="mrkr4-39" class="st10" v:arrowType="4" v:arrowSize="2" v:setback="6.68" refX="-6.68" orient="auto"
				markerUnits="strokeWidth" overflow="visible">
			<use xlink:href="#lend4" transform="scale(-3.52,-3.52) "/>
		</marker>
	</defs>
	<defs id="Filters">
		<filter id="filter_2">
			<feGaussianBlur stdDeviation="2"/>
		</filter>
	</defs>
	<g v:mID="0" v:index="1" v:groupContext="foregroundPage">
		<title>Page-1</title>
		<v:pageProperties v:drawingScale="0.0393701" v:pageScale="0.0393701" v:drawingUnits="24" v:shadowOffsetX="8.50394"
				v:shadowOffsetY="-8.50394"/>
		<v:layer v:name="Connector" v:index="0"/>
		<g id="group14-1" transform="translate(3.0294,-5.34779)" v:mID="14" v:groupContext="group">
			<title>Sheet.14</title>
			<g id="shape2-2" v:mID="2" v:groupContext="shape" transform="translate(1.59872E-14,-66.2156)">
				<title>Rectangle</title>
				<desc>Value object</desc>
				<v:userDefs>
					<v:ud v:nameU="visVersion" v:val="VT0(15):26"/>
				</v:userDefs>
				<v:textBlock v:margins="rect(4,4,4,4)" v:tabSpace="42.5197"/>
				<v:textRect cx="40.3051" cy="123.622" width="80.62" height="60.4577"/>
				<g id="shadow2-3" v:groupContext="shadow" v:shadowOffsetX="0.345598" v:shadowOffsetY="-1.97279" v:shadowType="1"
						transform="matrix(1,0,0,1,0.345598,1.97279)" class="st1">
					<rect x="0" y="93.3927" width="80.6102" height="60.4577" class="st2"/>
				</g>
				<rect x="0" y="93.3927" width="80.6102" height="60.4577" class="st3"/>
				<text x="19.62" y="118.22" class="st4" v:langID="1045"><v:paragraph v:horizAlign="1"/><v:tabList/>Value<v:lf/><tspan
							x="17.38" dy="1.2em" class="st5">object</tspan></text>			</g>
			<g id="shape4-9" v:mID="4" v:groupContext="shape" transform="translate(155.463,-5.9094)">
				<title>Sheet.4</title>
				<desc>State changing methods</desc>
				<v:textBlock v:margins="rect(4,4,4,4)" v:tabSpace="42.5197"/>
				<v:textRect cx="86.3681" cy="142.486" width="172.74" height="22.7285"/>
				<rect x="0" y="131.122" width="172.736" height="22.7285" class="st6"/>
				<text x="4" y="146.69" class="st7" v:langID="1045"><v:paragraph/><v:tabList/>State changing methods</text>			</g>
			<g id="shape5-12" v:mID="5" v:groupContext="shape" transform="translate(195.768,-85.0802)">
				<title>Sheet.5</title>
				<desc>Attributes (entities/value objects)</desc>
				<v:textBlock v:margins="rect(4,4,4,4)" v:tabSpace="42.5197"/>
				<v:textRect cx="86.3681" cy="142.486" width="172.74" height="22.7285"/>
				<rect x="0" y="131.122" width="172.736" height="22.7285" class="st6"/>
				<text x="4" y="138.29" class="st7" v:langID="1045"><v:paragraph/><v:tabList/>Attributes<v:lf/><tspan x="4"
							dy="1.2em" class="st5">(</tspan>entities/value objects)</text>			</g>
			<g id="shape6-16" v:mID="6" v:groupContext="shape" transform="translate(103.642,-2.84217E-14)">
				<title>Rectangle.8</title>
				<v:userDefs>
					<v:ud v:nameU="visVersion" v:val="VT0(15):26"/>
				</v:userDefs>
				<g id="shadow6-17" v:groupContext="shadow" v:shadowOffsetX="0.345598" v:shadowOffsetY="-1.97279" v:shadowType="1"
						transform="matrix(1,0,0,1,0.345598,1.97279)" class="st1">
					<rect x="0" y="119.303" width="46.063" height="34.5472" class="st2"/>
				</g>
				<rect x="0" y="119.303" width="46.063" height="34.5472" class="st8"/>
			</g>
			<g id="shape7-21" v:mID="7" v:groupContext="shape" transform="translate(142.253,-79.1708)">
				<title>Rectangle.9</title>
				<v:userDefs>
					<v:ud v:nameU="visVersion" v:val="VT0(15):26"/>
				</v:userDefs>
				<g id="shadow7-22" v:groupContext="shadow" v:shadowOffsetX="0.345598" v:shadowOffsetY="-1.97279" v:shadowType="1"
						transform="matrix(1,0,0,1,0.345598,1.97279)" class="st1">
					<rect x="0" y="119.303" width="46.063" height="34.5472" class="st2"/>
				</g>
				<rect x="0" y="119.303" width="46.063" height="34.5472" class="st8"/>
			</g>
			<g id="shape10-26" v:mID="10" v:groupContext="shape" v:layerMember="0" transform="translate(80.6102,-89.3578)">
				<title>Dynamic connector.10</title>
				<desc>Has</desc>
				<v:textBlock v:margins="rect(4,4,4,4)" v:tabSpace="42.5197"/>
				<v:textRect cx="30.8216" cy="146.764" width="60" height="22.4037"/>
				<path d="M0 146.76 L54.6 146.76" class="st9"/>
				<rect v:rectContext="textBkgnd" x="21.8626" y="139.564" width="17.9182" height="14.4001" class="st11"/>
				<text x="21.86" y="150.36" class="st12" v:langID="1045"><v:paragraph v:horizAlign="1"/><v:tabList/>Has</text>			</g>
			<g id="shape11-34" v:mID="11" v:groupContext="shape" v:layerMember="0" transform="translate(40.3051,-66.2156)">
				<title>Dynamic connector.13</title>
				<desc>Cannot have</desc>
				<v:textBlock v:margins="rect(4,4,4,4)" v:tabSpace="42.5197"/>
				<v:textRect cx="16.1316" cy="196.242" width="71.98" height="22.4037"/>
				<path d="M0 153.85 C0 166.09 -0 183.79 11.05 192.96 C21.27 201.43 40.92 202.6 56.3 202.77 L56.66 202.77"
						class="st13"/>
				<rect v:rectContext="textBkgnd" x="-14.4984" y="189.042" width="61.26" height="14.4001" class="st11"/>
				<text x="-14.5" y="199.84" class="st12" v:langID="1045"><v:paragraph v:horizAlign="1"/><v:tabList/>Cannot have</text>			</g>
			<g id="shape12-42" v:mID="12" v:groupContext="shape" v:layerMember="0" transform="translate(40.3051,-127.282)">
				<title>Dynamic connector.15</title>
				<desc>Equality defined by</desc>
				<v:textBlock v:margins="rect(4,4,4,4)" v:tabSpace="42.5197"/>
				<v:textRect cx="65.7955" cy="143.829" width="104.33" height="22.4037"/>
				<path d="M0 154.46 C0 143.83 10.51 143.83 19.83 143.83 C38.19 143.83 51.89 143.83 77.74 143.83 C95.52 143.83 119.06
							 143.83 124.03 160.44 L124.08 160.8" class="st13"/>
				<rect v:rectContext="textBkgnd" x="18.9906" y="136.63" width="93.6101" height="14.4001" class="st11"/>
				<text x="18.99" y="147.43" class="st12" v:langID="1045"><v:paragraph v:horizAlign="1"/><v:tabList/>Equality defined by</text>			</g>
		</g>
	</g>
</svg>
