<?xml version="1.0" encoding="UTF-8" standalone="no"?>
<!-- Created with Inkscape (http://www.inkscape.org/) -->

<svg
   xmlns:dc="http://purl.org/dc/elements/1.1/"
   xmlns:cc="http://creativecommons.org/ns#"
   xmlns:rdf="http://www.w3.org/1999/02/22-rdf-syntax-ns#"
   xmlns:svg="http://www.w3.org/2000/svg"
   xmlns="http://www.w3.org/2000/svg"
   xmlns:sodipodi="http://sodipodi.sourceforge.net/DTD/sodipodi-0.dtd"
   xmlns:inkscape="http://www.inkscape.org/namespaces/inkscape"
   width="221.62944"
   height="299.26718"
   id="svg3734"
   version="1.1"
   inkscape:version="0.48.4 r9939"
   sodipodi:docname="lsp.svg">
  <defs
     id="defs3" />
  <sodipodi:namedview
     inkscape:document-units="mm"
     id="base"
     pagecolor="#ffffff"
     bordercolor="#666666"
     borderopacity="1.0"
     inkscape:pageopacity="0.0"
     inkscape:pageshadow="2"
     inkscape:zoom="0.82191943"
     inkscape:cx="118.80274"
     inkscape:cy="-168.34171"
     inkscape:current-layer="layer1"
     showgrid="false"
     inkscape:window-width="1920"
     inkscape:window-height="1178"
     inkscape:window-x="-8"
     inkscape:window-y="-8"
     inkscape:window-maximized="1"
     units="mm"
     fit-margin-top="0"
     fit-margin-left="0"
     fit-margin-right="0"
     fit-margin-bottom="0" />
  <metadata
     id="metadata4">
    <rdf:RDF>
      <cc:Work
         rdf:about="">
        <dc:format>image/svg+xml</dc:format>
        <dc:type
           rdf:resource="http://purl.org/dc/dcmitype/StillImage" />
        <dc:title></dc:title>
      </cc:Work>
    </rdf:RDF>
  </metadata>
  <g
     inkscape:label="Layer 1"
     inkscape:groupmode="layer"
     id="layer1"
     transform="translate(-245.48298,-84.753292)">
    <g
       id="g3744"
       transform="matrix(0.7192842,0,0,0.7192842,242.62832,83.854187)">
      <path
         id="path3746"
         d="m 4.6057454,54.176056 0,114.128804 306.8675446,0 0,-114.128804 -306.8675446,0 z"
         style="fill:#f2f2f2;fill-opacity:1;fill-rule:evenodd;stroke:none"
         inkscape:connector-curvature="0" />
      <path
         id="path3748"
         d="m 4.6057454,168.30486 306.8675446,0 0,-114.128804 -306.8675446,0 0,114.128804 z"
         style="fill:none;stroke:#4f88bb;stroke-width:1.24901569px;stroke-linecap:square;stroke-linejoin:miter;stroke-miterlimit:4;stroke-opacity:1;stroke-dasharray:none"
         inkscape:connector-curvature="0" />
      <path
         id="path3750"
         d="m 4.6057454,54.176056 306.8675446,0 0,-52.3025325 -306.8675446,0 0,52.3025325 z"
         style="fill:none;stroke:#4f88bb;stroke-width:1.24901569px;stroke-linecap:square;stroke-linejoin:miter;stroke-miterlimit:4;stroke-opacity:1;stroke-dasharray:none"
         inkscape:connector-curvature="0" />
      <text
         id="text3752"
         style="font-size:19.98425102px;font-style:normal;font-weight:normal;text-align:start;text-anchor:start;fill:#4f88bb;font-family:Calibri"
         y="34.642941"
         x="11.865725"
         xml:space="preserve">Rectangle</text>
      <path
         id="path3754"
         d="m 9.3676177,80.639575 2.4980313,0 0,1.249016 -2.4980313,0 0,-1.249016 z m 3.7470473,0 2.498031,0 0,1.249016 -2.498031,0 0,-1.249016 z m 3.747047,0 2.498031,0 0,1.249016 -2.498031,0 0,-1.249016 z m 3.747047,0 2.498031,0 0,1.249016 -2.498031,0 0,-1.249016 z m 3.747047,0 2.498031,0 0,1.249016 -2.498031,0 0,-1.249016 z m 3.747047,0 2.498031,0 0,1.249016 -2.498031,0 0,-1.249016 z m 3.747047,0 2.498031,0 0,1.249016 -2.498031,0 0,-1.249016 z m 3.747047,0 2.498032,0 0,1.249016 -2.498032,0 0,-1.249016 z m 3.747047,0 2.498032,0 0,1.249016 -2.498032,0 0,-1.249016 z m 3.747047,0 2.498032,0 0,1.249016 -2.498032,0 0,-1.249016 z m 3.747047,0 2.498032,0 0,1.249016 -2.498032,0 0,-1.249016 z m 3.747047,0 2.498032,0 0,1.249016 -2.498032,0 0,-1.249016 z m 3.747047,0 2.498032,0 0,1.249016 -2.498032,0 0,-1.249016 z m 3.747048,0 2.498031,0 0,1.249016 -2.498031,0 0,-1.249016 z m 3.747047,0 2.498031,0 0,1.249016 -2.498031,0 0,-1.249016 z m 3.747047,0 2.498031,0 0,1.249016 -2.498031,0 0,-1.249016 z m 3.747047,0 2.498031,0 0,1.249016 -2.498031,0 0,-1.249016 z m 3.747047,0 2.498031,0 0,1.249016 -2.498031,0 0,-1.249016 z m 3.747047,0 2.576095,0 0,1.249016 -2.576095,0 0,-1.249016 z m 3.82511,0 2.498032,0 0,1.249016 -2.498032,0 0,-1.249016 z m 3.747047,0 2.498032,0 0,1.249016 -2.498032,0 0,-1.249016 z m 3.747048,0 2.498031,0 0,1.249016 -2.498031,0 0,-1.249016 z m 3.747047,0 2.498031,0 0,1.249016 -2.498031,0 0,-1.249016 z m 3.747047,0 2.498031,0 0,1.249016 -2.498031,0 0,-1.249016 z m 3.747047,0 2.498029,0 0,1.249016 -2.498029,0 0,-1.249016 z m 3.747049,0 2.49803,0 0,1.249016 -2.49803,0 0,-1.249016 z m 3.74704,0 2.49804,0 0,1.249016 -2.49804,0 0,-1.249016 z m 3.74705,0 2.49803,0 0,1.249016 -2.49803,0 0,-1.249016 z m 3.74705,0 2.49803,0 0,1.249016 -2.49803,0 0,-1.249016 z m 3.74705,0 2.49803,0 0,1.249016 -2.49803,0 0,-1.249016 z m 3.74704,0 2.49803,0 0,1.249016 -2.49803,0 0,-1.249016 z m 3.74705,0 2.49803,0 0,1.249016 -2.49803,0 0,-1.249016 z m 3.74705,0 2.49803,0 0,1.249016 -2.49803,0 0,-1.249016 z m 3.74704,0 2.49804,0 0,1.249016 -2.49804,0 0,-1.249016 z m 3.74705,0 2.49803,0 0,1.249016 -2.49803,0 0,-1.249016 z m 3.74705,0 2.49803,0 0,1.249016 -2.49803,0 0,-1.249016 z m 3.74705,0 2.49803,0 0,1.249016 -2.49803,0 0,-1.249016 z m 3.74704,0 2.49803,0 0,1.249016 -2.49803,0 0,-1.249016 z m 3.74705,0 2.49803,0 0,1.249016 -2.49803,0 0,-1.249016 z m 3.74705,0 2.57609,0 0,1.249016 -2.57609,0 0,-1.249016 z m 3.82511,0 2.49803,0 0,1.249016 -2.49803,0 0,-1.249016 z m 3.74704,0 2.49804,0 0,1.249016 -2.49804,0 0,-1.249016 z m 3.74705,0 2.49803,0 0,1.249016 -2.49803,0 0,-1.249016 z m 3.74705,0 2.49803,0 0,1.249016 -2.49803,0 0,-1.249016 z m 3.74705,0 2.49803,0 0,1.249016 -2.49803,0 0,-1.249016 z m 3.74704,0 2.49803,0 0,1.249016 -2.49803,0 0,-1.249016 z m 3.74705,0 2.49803,0 0,1.249016 -2.49803,0 0,-1.249016 z m 3.74705,0 2.49803,0 0,1.249016 -2.49803,0 0,-1.249016 z m 3.74704,0 2.49804,0 0,1.249016 -2.49804,0 0,-1.249016 z m 3.74705,0 2.49803,0 0,1.249016 -2.49803,0 0,-1.249016 z m 3.74705,0 2.49803,0 0,1.249016 -2.49803,0 0,-1.249016 z m 3.74705,0 2.49803,0 0,1.249016 -2.49803,0 0,-1.249016 z m 3.74704,0 2.49803,0 0,1.249016 -2.49803,0 0,-1.249016 z m 3.74705,0 2.49803,0 0,1.249016 -2.49803,0 0,-1.249016 z m 3.74705,0 2.49803,0 0,1.249016 -2.49803,0 0,-1.249016 z m 3.74704,0 2.49803,0 0,1.249016 -2.49803,0 0,-1.249016 z m 3.74705,0 2.49803,0 0,1.249016 -2.49803,0 0,-1.249016 z m 3.74705,0 2.49803,0 0,1.249016 -2.49803,0 0,-1.249016 z m 3.74704,0 2.49804,0 0,1.249016 -2.49804,0 0,-1.249016 z m 3.74705,0 2.49803,0 0,1.249016 -2.49803,0 0,-1.249016 z m 3.74705,0 2.57609,0 0,1.249016 -2.57609,0 0,-1.249016 z m 3.82511,0 2.49803,0 0,1.249016 -2.49803,0 0,-1.249016 z m 3.74705,0 2.49803,0 0,1.249016 -2.49803,0 0,-1.249016 z m 3.74704,0 2.49803,0 0,1.249016 -2.49803,0 0,-1.249016 z m 3.74705,0 2.49803,0 0,1.249016 -2.49803,0 0,-1.249016 z m 3.74705,0 2.49803,0 0,1.249016 -2.49803,0 0,-1.249016 z m 3.74704,0 2.49804,0 0,1.249016 -2.49804,0 0,-1.249016 z m 3.74705,0 2.49803,0 0,1.249016 -2.49803,0 0,-1.249016 z m 3.74705,0 2.49803,0 0,1.249016 -2.49803,0 0,-1.249016 z m 3.74705,0 2.49803,0 0,1.249016 -2.49803,0 0,-1.249016 z m 3.74704,0 2.49803,0 0,1.249016 -2.49803,0 0,-1.249016 z m 3.74705,0 2.49803,0 0,1.249016 -2.49803,0 0,-1.249016 z m 3.74705,0 2.49803,0 0,1.249016 -2.49803,0 0,-1.249016 z m 3.74704,0 2.49804,0 0,1.249016 -2.49804,0 0,-1.249016 z m 3.74705,0 2.49803,0 0,1.249016 -2.49803,0 0,-1.249016 z m 3.74705,0 2.49803,0 0,1.249016 -2.49803,0 0,-1.249016 z m 3.74705,0 2.49803,0 0,1.249016 -2.49803,0 0,-1.249016 z m 3.74704,0 2.49803,0 0,1.249016 -2.49803,0 0,-1.249016 z m 3.74705,0 2.49803,0 0,1.249016 -2.49803,0 0,-1.249016 z m 3.74705,0 1.09289,0 0,1.249016 -1.09289,0 0,-1.249016 z"
         style="fill:#c8c8c8;fill-opacity:1;fill-rule:nonzero;stroke:#c8c8c8;stroke-width:0.07806348px;stroke-linecap:butt;stroke-linejoin:round;stroke-opacity:1;stroke-dasharray:none"
         inkscape:connector-curvature="0" />
      <text
         id="text3756"
         style="font-size:16.2372036px;font-style:normal;font-weight:normal;text-align:start;text-anchor:start;fill:#4f88bb;font-family:Calibri"
         y="99.213341"
         x="24.086912"
         xml:space="preserve">+ </text>
      <text
         id="text3758"
         style="font-size:16.2372036px;font-style:normal;font-weight:normal;text-align:start;text-anchor:start;fill:#4f88bb;font-family:Calibri"
         y="99.213341"
         x="36.145889"
         xml:space="preserve">GetWidth</text>
      <text
         id="text3760"
         style="font-size:16.2372036px;font-style:normal;font-weight:normal;text-align:start;text-anchor:start;fill:#4f88bb;font-family:Calibri"
         y="99.213341"
         x="102.23242"
         xml:space="preserve">()</text>
      <text
         id="text3762"
         style="font-size:16.2372036px;font-style:normal;font-weight:normal;text-align:start;text-anchor:start;fill:#4f88bb;font-family:Calibri"
         y="119.19774"
         x="24.086912"
         xml:space="preserve">+ </text>
      <text
         id="text3764"
         style="font-size:16.2372036px;font-style:normal;font-weight:normal;text-align:start;text-anchor:start;fill:#4f88bb;font-family:Calibri"
         y="119.19774"
         x="36.145889"
         xml:space="preserve">SetWidth</text>
      <text
         id="text3766"
         style="font-size:16.2372036px;font-style:normal;font-weight:normal;text-align:start;text-anchor:start;fill:#4f88bb;font-family:Calibri"
         y="119.19774"
         x="99.37822"
         xml:space="preserve">()</text>
      <text
         id="text3768"
         style="font-size:16.2372036px;font-style:normal;font-weight:normal;text-align:start;text-anchor:start;fill:#4f88bb;font-family:Calibri"
         y="139.18214"
         x="24.086912"
         xml:space="preserve">+ </text>
      <text
         id="text3770"
         style="font-size:16.2372036px;font-style:normal;font-weight:normal;text-align:start;text-anchor:start;fill:#4f88bb;font-family:Calibri"
         y="139.18214"
         x="36.145889"
         xml:space="preserve">GetHeight</text>
      <text
         id="text3772"
         style="font-size:16.2372036px;font-style:normal;font-weight:normal;text-align:start;text-anchor:start;fill:#4f88bb;font-family:Calibri"
         y="139.18214"
         x="105.16849"
         xml:space="preserve">()</text>
      <text
         id="text3774"
         style="font-size:16.2372036px;font-style:normal;font-weight:normal;text-align:start;text-anchor:start;fill:#4f88bb;font-family:Calibri"
         y="159.16655"
         x="24.086912"
         xml:space="preserve">+ </text>
      <text
         id="text3776"
         style="font-size:16.2372036px;font-style:normal;font-weight:normal;text-align:start;text-anchor:start;fill:#4f88bb;font-family:Calibri"
         y="159.16655"
         x="36.145889"
         xml:space="preserve">SetHeight</text>
      <text
         id="text3778"
         style="font-size:16.2372036px;font-style:normal;font-weight:normal;text-align:start;text-anchor:start;fill:#4f88bb;font-family:Calibri"
         y="159.16655"
         x="102.31429"
         xml:space="preserve">()</text>
      <path
         id="path3780"
         d="m 4.6057454,302.65211 0,114.05075 306.8675446,0 0,-114.05075 -306.8675446,0 z"
         style="fill:#f2f2f2;fill-opacity:1;fill-rule:evenodd;stroke:none"
         inkscape:connector-curvature="0" />
      <path
         id="path3782"
         d="m 4.6057454,416.70286 306.8675446,0 0,-114.05075 -306.8675446,0 0,114.05075 z"
         style="fill:none;stroke:#4f88bb;stroke-width:1.24901569px;stroke-linecap:square;stroke-linejoin:miter;stroke-miterlimit:4;stroke-opacity:1;stroke-dasharray:none"
         inkscape:connector-curvature="0" />
      <path
         id="path3784"
         d="m 4.6057454,302.65211 306.8675446,0 0,-52.30253 -306.8675446,0 0,52.30253 z"
         style="fill:none;stroke:#4f88bb;stroke-width:1.24901569px;stroke-linecap:square;stroke-linejoin:miter;stroke-miterlimit:4;stroke-opacity:1;stroke-dasharray:none"
         inkscape:connector-curvature="0" />
      <text
         id="text3786"
         style="font-size:19.98425102px;font-style:normal;font-weight:normal;text-align:start;text-anchor:start;fill:#4f88bb;font-family:Calibri"
         y="283.061"
         x="11.865725"
         xml:space="preserve">Square</text>
      <path
         id="path3788"
         d="m 9.3676177,329.03757 2.4980313,0 0,1.24902 -2.4980313,0 0,-1.24902 z m 3.7470473,0 2.498031,0 0,1.24902 -2.498031,0 0,-1.24902 z m 3.747047,0 2.498031,0 0,1.24902 -2.498031,0 0,-1.24902 z m 3.747047,0 2.498031,0 0,1.24902 -2.498031,0 0,-1.24902 z m 3.747047,0 2.498031,0 0,1.24902 -2.498031,0 0,-1.24902 z m 3.747047,0 2.498031,0 0,1.24902 -2.498031,0 0,-1.24902 z m 3.747047,0 2.498031,0 0,1.24902 -2.498031,0 0,-1.24902 z m 3.747047,0 2.498032,0 0,1.24902 -2.498032,0 0,-1.24902 z m 3.747047,0 2.498032,0 0,1.24902 -2.498032,0 0,-1.24902 z m 3.747047,0 2.498032,0 0,1.24902 -2.498032,0 0,-1.24902 z m 3.747047,0 2.498032,0 0,1.24902 -2.498032,0 0,-1.24902 z m 3.747047,0 2.498032,0 0,1.24902 -2.498032,0 0,-1.24902 z m 3.747047,0 2.498032,0 0,1.24902 -2.498032,0 0,-1.24902 z m 3.747048,0 2.498031,0 0,1.24902 -2.498031,0 0,-1.24902 z m 3.747047,0 2.498031,0 0,1.24902 -2.498031,0 0,-1.24902 z m 3.747047,0 2.498031,0 0,1.24902 -2.498031,0 0,-1.24902 z m 3.747047,0 2.498031,0 0,1.24902 -2.498031,0 0,-1.24902 z m 3.747047,0 2.498031,0 0,1.24902 -2.498031,0 0,-1.24902 z m 3.747047,0 2.576095,0 0,1.24902 -2.576095,0 0,-1.24902 z m 3.82511,0 2.498032,0 0,1.24902 -2.498032,0 0,-1.24902 z m 3.747047,0 2.498032,0 0,1.24902 -2.498032,0 0,-1.24902 z m 3.747048,0 2.498031,0 0,1.24902 -2.498031,0 0,-1.24902 z m 3.747047,0 2.498031,0 0,1.24902 -2.498031,0 0,-1.24902 z m 3.747047,0 2.498031,0 0,1.24902 -2.498031,0 0,-1.24902 z m 3.747047,0 2.498029,0 0,1.24902 -2.498029,0 0,-1.24902 z m 3.747049,0 2.49803,0 0,1.24902 -2.49803,0 0,-1.24902 z m 3.74704,0 2.49804,0 0,1.24902 -2.49804,0 0,-1.24902 z m 3.74705,0 2.49803,0 0,1.24902 -2.49803,0 0,-1.24902 z m 3.74705,0 2.49803,0 0,1.24902 -2.49803,0 0,-1.24902 z m 3.74705,0 2.49803,0 0,1.24902 -2.49803,0 0,-1.24902 z m 3.74704,0 2.49803,0 0,1.24902 -2.49803,0 0,-1.24902 z m 3.74705,0 2.49803,0 0,1.24902 -2.49803,0 0,-1.24902 z m 3.74705,0 2.49803,0 0,1.24902 -2.49803,0 0,-1.24902 z m 3.74704,0 2.49804,0 0,1.24902 -2.49804,0 0,-1.24902 z m 3.74705,0 2.49803,0 0,1.24902 -2.49803,0 0,-1.24902 z m 3.74705,0 2.49803,0 0,1.24902 -2.49803,0 0,-1.24902 z m 3.74705,0 2.49803,0 0,1.24902 -2.49803,0 0,-1.24902 z m 3.74704,0 2.49803,0 0,1.24902 -2.49803,0 0,-1.24902 z m 3.74705,0 2.49803,0 0,1.24902 -2.49803,0 0,-1.24902 z m 3.74705,0 2.57609,0 0,1.24902 -2.57609,0 0,-1.24902 z m 3.82511,0 2.49803,0 0,1.24902 -2.49803,0 0,-1.24902 z m 3.74704,0 2.49804,0 0,1.24902 -2.49804,0 0,-1.24902 z m 3.74705,0 2.49803,0 0,1.24902 -2.49803,0 0,-1.24902 z m 3.74705,0 2.49803,0 0,1.24902 -2.49803,0 0,-1.24902 z m 3.74705,0 2.49803,0 0,1.24902 -2.49803,0 0,-1.24902 z m 3.74704,0 2.49803,0 0,1.24902 -2.49803,0 0,-1.24902 z m 3.74705,0 2.49803,0 0,1.24902 -2.49803,0 0,-1.24902 z m 3.74705,0 2.49803,0 0,1.24902 -2.49803,0 0,-1.24902 z m 3.74704,0 2.49804,0 0,1.24902 -2.49804,0 0,-1.24902 z m 3.74705,0 2.49803,0 0,1.24902 -2.49803,0 0,-1.24902 z m 3.74705,0 2.49803,0 0,1.24902 -2.49803,0 0,-1.24902 z m 3.74705,0 2.49803,0 0,1.24902 -2.49803,0 0,-1.24902 z m 3.74704,0 2.49803,0 0,1.24902 -2.49803,0 0,-1.24902 z m 3.74705,0 2.49803,0 0,1.24902 -2.49803,0 0,-1.24902 z m 3.74705,0 2.49803,0 0,1.24902 -2.49803,0 0,-1.24902 z m 3.74704,0 2.49803,0 0,1.24902 -2.49803,0 0,-1.24902 z m 3.74705,0 2.49803,0 0,1.24902 -2.49803,0 0,-1.24902 z m 3.74705,0 2.49803,0 0,1.24902 -2.49803,0 0,-1.24902 z m 3.74704,0 2.49804,0 0,1.24902 -2.49804,0 0,-1.24902 z m 3.74705,0 2.49803,0 0,1.24902 -2.49803,0 0,-1.24902 z m 3.74705,0 2.57609,0 0,1.24902 -2.57609,0 0,-1.24902 z m 3.82511,0 2.49803,0 0,1.24902 -2.49803,0 0,-1.24902 z m 3.74705,0 2.49803,0 0,1.24902 -2.49803,0 0,-1.24902 z m 3.74704,0 2.49803,0 0,1.24902 -2.49803,0 0,-1.24902 z m 3.74705,0 2.49803,0 0,1.24902 -2.49803,0 0,-1.24902 z m 3.74705,0 2.49803,0 0,1.24902 -2.49803,0 0,-1.24902 z m 3.74704,0 2.49804,0 0,1.24902 -2.49804,0 0,-1.24902 z m 3.74705,0 2.49803,0 0,1.24902 -2.49803,0 0,-1.24902 z m 3.74705,0 2.49803,0 0,1.24902 -2.49803,0 0,-1.24902 z m 3.74705,0 2.49803,0 0,1.24902 -2.49803,0 0,-1.24902 z m 3.74704,0 2.49803,0 0,1.24902 -2.49803,0 0,-1.24902 z m 3.74705,0 2.49803,0 0,1.24902 -2.49803,0 0,-1.24902 z m 3.74705,0 2.49803,0 0,1.24902 -2.49803,0 0,-1.24902 z m 3.74704,0 2.49804,0 0,1.24902 -2.49804,0 0,-1.24902 z m 3.74705,0 2.49803,0 0,1.24902 -2.49803,0 0,-1.24902 z m 3.74705,0 2.49803,0 0,1.24902 -2.49803,0 0,-1.24902 z m 3.74705,0 2.49803,0 0,1.24902 -2.49803,0 0,-1.24902 z m 3.74704,0 2.49803,0 0,1.24902 -2.49803,0 0,-1.24902 z m 3.74705,0 2.49803,0 0,1.24902 -2.49803,0 0,-1.24902 z m 3.74705,0 1.09289,0 0,1.24902 -1.09289,0 0,-1.24902 z"
         style="fill:#c8c8c8;fill-opacity:1;fill-rule:nonzero;stroke:#c8c8c8;stroke-width:0.07806348px;stroke-linecap:butt;stroke-linejoin:round;stroke-opacity:1;stroke-dasharray:none"
         inkscape:connector-curvature="0" />
      <text
         id="text3790"
         style="font-size:16.2372036px;font-style:normal;font-weight:normal;text-align:start;text-anchor:start;fill:#4f88bb;font-family:Calibri"
         y="347.63138"
         x="24.086912"
         xml:space="preserve">+ </text>
      <text
         id="text3792"
         style="font-size:16.2372036px;font-style:normal;font-weight:normal;text-align:start;text-anchor:start;fill:#4f88bb;font-family:Calibri"
         y="347.63138"
         x="36.145889"
         xml:space="preserve">GetWidth</text>
      <text
         id="text3794"
         style="font-size:16.2372036px;font-style:normal;font-weight:normal;text-align:start;text-anchor:start;fill:#4f88bb;font-family:Calibri"
         y="347.63138"
         x="102.23242"
         xml:space="preserve">()</text>
      <text
         id="text3796"
         style="font-size:16.2372036px;font-style:normal;font-weight:normal;text-align:start;text-anchor:start;fill:#4f88bb;font-family:Calibri"
         y="367.61581"
         x="24.086912"
         xml:space="preserve">+ </text>
      <text
         id="text3798"
         style="font-size:16.2372036px;font-style:normal;font-weight:normal;text-align:start;text-anchor:start;fill:#4f88bb;font-family:Calibri"
         y="367.61581"
         x="36.145889"
         xml:space="preserve">SetWidth</text>
      <text
         id="text3800"
         style="font-size:16.2372036px;font-style:normal;font-weight:normal;text-align:start;text-anchor:start;fill:#4f88bb;font-family:Calibri"
         y="367.61581"
         x="99.37822"
         xml:space="preserve">()</text>
      <text
         id="text3802"
         style="font-size:16.2372036px;font-style:normal;font-weight:normal;text-align:start;text-anchor:start;fill:#4f88bb;font-family:Calibri"
         y="387.60019"
         x="24.086912"
         xml:space="preserve">+ </text>
      <text
         id="text3804"
         style="font-size:16.2372036px;font-style:normal;font-weight:normal;text-align:start;text-anchor:start;fill:#4f88bb;font-family:Calibri"
         y="387.60019"
         x="36.145889"
         xml:space="preserve">GetHeight</text>
      <text
         id="text3806"
         style="font-size:16.2372036px;font-style:normal;font-weight:normal;text-align:start;text-anchor:start;fill:#4f88bb;font-family:Calibri"
         y="387.60019"
         x="105.16849"
         xml:space="preserve">()</text>
      <text
         id="text3808"
         style="font-size:16.2372036px;font-style:normal;font-weight:normal;text-align:start;text-anchor:start;fill:#4f88bb;font-family:Calibri"
         y="407.58459"
         x="24.086912"
         xml:space="preserve">+ </text>
      <text
         id="text3810"
         style="font-size:16.2372036px;font-style:normal;font-weight:normal;text-align:start;text-anchor:start;fill:#4f88bb;font-family:Calibri"
         y="407.58459"
         x="36.145889"
         xml:space="preserve">SetHeight</text>
      <text
         id="text3812"
         style="font-size:16.2372036px;font-style:normal;font-weight:normal;text-align:start;text-anchor:start;fill:#4f88bb;font-family:Calibri"
         y="407.58459"
         x="102.31429"
         xml:space="preserve">()</text>
      <path
         id="path3814"
         d="m 158.00048,250.34958 0,-64.48043"
         style="fill:none;stroke:#5b9bd5;stroke-width:1.63933313px;stroke-linecap:round;stroke-linejoin:round;stroke-opacity:1;stroke-dasharray:none"
         inkscape:connector-curvature="0" />
      <path
         id="path3816"
         d="m 163.93331,185.86915 -5.93283,-17.56429 -5.85476,17.56429 11.78759,0 z"
         style="fill:none;stroke:#5b9bd5;stroke-width:1.63933313px;stroke-linecap:round;stroke-linejoin:round;stroke-opacity:1;stroke-dasharray:none"
         inkscape:connector-curvature="0" />
    </g>
  </g>
</svg>
